{
"Controller": "JobPurposeController",
"Action" : "Get",
"HttpMethods": {"GET"},
"Parameters": 
{
	"id" : "System.Int32"
},
"Return Type" : "ChaiTea.BusinessLogic.ViewModels.Employment.JobPurposeVm",
"Returned Fields" :
{
	"ClientId" : 
	{
		"Type" : "System.Int32",
		"Get Visibility" : "Public",
		"Set Visibility" : "Public"
	},
	"Description" : 
	{
		"Type" : "System.String",
		"Get Visibility" : "Public",
		"Set Visibility" : "Public"
	},
	"JobId" : 
	{
		"Type" : "System.Int32",
		"Get Visibility" : "Public",
		"Set Visibility" : "Public"
	},
	"JobPurposeId" : 
	{
		"Type" : "System.Int32",
		"Get Visibility" : "Public",
		"Set Visibility" : "Public"
	},
}
}
