{
	"Course" : 
	{
		"AverageRating" : "Decimal?",
		"CourseAttachments" : 
		[
			{
				"Attachment" : 
				{
					"AttachmentId" : "Int32",
					"AttachmentType" : "Int32",
					"AttachmentTypeId" : "Int32",
					"Description" : "String",
					"Name" : "String",
					"UniqueId" : "String"
				},
				"AttachmentId" : "Int32",
				"CourseAttachmentId" : "Int32",
				"CourseAttachmentParentUniqueId" : "String",
				"CourseAttachmentQuestions" : 
				[
					{
						"CourseAttachmentQuestionId" : "Int32",
						"CourseAttachmentQuestionOptions" : 
						[
							{
								"CourseAttachmentQuestionOptionId" : "Int32",
								"IsAnswer" : "Boolean",
								"Option" : "String"
							}
						],
						"OrderPriority" : "Int32",
						"Question" : "String"
					}
				],
				"CourseAttachmentType" : "Int32",
				"CourseId" : "Int32",
				"CourseSubAttachments" : 
				[
					{
						"Attachment" : 
"AttachmentVm",
						"AttachmentId" : "Int32",
						"CourseAttachmentId" : "Int32",
						"CourseAttachmentType" : "Int32",
						"CourseSubAttachmentId" : "Int32",
						"Language" : 
						{
							"Code" : "String",
							"LanguageId" : "Int32",
							"Name" : "String"
						},
						"LanguageId" : "Int32",
						"OrderPriority" : "Int32"
					}
				],
				"Language" : 
"LanguageVm",
				"LanguageId" : "Int32",
				"OrderPriority" : "Int32",
				"Views" : "Int32"
			}
		],
		"CourseId" : "Int32",
		"CourseType" : 
		{
			"CourseTypeId" : "Int32",
			"Icon" : "String",
			"Name" : "String"
		},
		"CourseTypeId" : "Int32",
		"CreateDate" : "DateTime",
		"DeadlineHire" : "Int32",
		"DeadlineHireType" : "String",
		"EmployeeFirstName" : "String",
		"EmployeeId" : "Int32",
		"EmployeeLastName" : "String",
		"IsFeatured" : "Boolean",
		"Name" : "String",
		"OrgClient" : 
		{
			"Id" : "Int32",
			"IsUserMapped" : "Boolean",
			"Latitude" : "Double?",
			"Longitude" : "Double?",
			"Name" : "String"
		},
		"OrgSite" : 
"OrgVm",
		"OrgType" : "Int32",
		"Overview" : "String",
		"RetakeAfter" : "Int32",
		"RetakeAfterType" : "String",
		"Tags" : 
		[
			{
				"Name" : "String",
				"TagId" : "Int32"
			}
		]
	},
	"CourseId" : "Int32",
	"CreateById" : "Int32",
	"CreateDate" : "DateTime",
	"DueDate" : "DateTime?",
	"Employee" : 
	{
		"EmployeeCourses" : 
		[
			{
				"Course" : 
"CourseVm",
				"CourseId" : "Int32",
				"CreateDate" : "DateTime",
				"DueDate" : "DateTime?",
				"Employee" : 
"CourseEmployeeVm",
				"EmployeeCourseId" : "Int32",
				"IsCompleted" : "Boolean",
				"OrgUserId" : "Int32"
			}
		],
		"HireDate" : "DateTime?",
		"Id" : "Int32",
		"Name" : "String",
		"OrgUserId" : "Int32"
	},
	"EmployeeCourseId" : "Int32",
	"IsCompleted" : "Boolean",
	"OrgUserId" : "Int32",
	"SnapshotEmployeeCourses" : 
	[
		{
			"CourseAttachmentId" : "Int32",
			"CreateDate" : "DateTime",
			"Description" : "String",
			"EmployeeCourseId" : "Int32",
			"ManagerOrgUserId" : "Int32?",
			"Name" : "String",
			"OrgUserId" : "Int32",
			"Passed" : "Boolean",
			"SnapshotCourse" : 
			{
				"CourseTypeId" : "Int32",
				"DeadlineHire" : "Int32",
				"DeadlineHireType" : "String",
				"Name" : "String",
				"OrgId" : "Int32",
				"OrgUserId" : "Int32",
				"Overview" : "String",
				"RetakeAfter" : "Int32",
				"RetakeAfterType" : "String",
				"SnapshotCourseId" : "Int32",
				"SnapshotCourseQuestions" : 
				[
					{
						"Answer" : "String",
						"OrderPriority" : "Int32",
						"Question" : "String",
						"SnapshotCourseQuestionId" : "Int32",
						"SnapshotCourseQuestionOptions" : 
						[
							{
								"IsAnswer" : "Boolean",
								"Option" : "String",
								"SnapshotCourseQuestionOptionId" : "Int32"
							}
						]
					}
				]
			},
			"SnapshotCourseId" : "Int32",
			"SnapshotEmployeeCourseId" : "Int32",
			"UniqueId" : "String"
		}
	]
}
