{
	"id" : "Int32",
	"vm" : 
	{
		"ComplaintControlLimit" : "Double",
		"OrgId" : "Int32",
		"ProgramId" : "Int32",
		"ProgramReportSettingId" : "Int32",
		"ScoringProfileGoal" : "Double",
		"ScoringProfileId" : "Int32",
		"ScoringProfileMaximumScore" : "Int32",
		"ScoringProfileMinimumScore" : "Int32",
		"SurveyControlLimit" : "Double"
	}
}
