{
	"vm" : 
	{
		"ConductAttachments" : 
		[
			{
				"AttachmentType" : "Int32",
				"ConductAttachmentId" : "Int32",
				"ConductAttachmentType" : "Int32",
				"ConductAttachmentTypeId" : "Int32",
				"Description" : "String",
				"Name" : "String",
				"UniqueId" : "String"
			}
		],
		"ConductId" : "Int32",
		"ConductTypes" : 
		[
			{
				"ConductTypeId" : "Int32",
				"Name" : "String"
			}
		],
		"CreateDate" : "DateTime",
		"DateOfOccurrence" : "DateTime",
		"IsExempt" : "Boolean",
		"OrgUserId" : "Int32",
		"Reason" : "String"
	}
}
