{
	"id" : "Int32",
	"vm" : 
	{
		"Abbreviation" : "String",
		"ApprovedBy" : "String",
		"ApprovedDate" : "DateTime?",
		"Department" : "String",
		"DutySummary" : "String",
		"EssentialDutiesAndResponsibilitiesLabel" : "String",
		"EssentialDutiesSummaryLabel" : "String",
		"ExampleOfTasksLabel" : "String",
		"ExemptionTypeId" : "Int32?",
		"ExternalJobCode" : "String",
		"JobDuties" : 
		[
			{
				"Description" : "String",
				"DutyId" : "Int32",
			}
		],
		"JobId" : "Int32",
		"JobStep" : "String",
		"Layer" : "String",
		"LegalDescriptions" : 
		[
			{
				"Description" : "String",
				"LegalDescriptionId" : "Int32",
				"Name" : "String"
			}
		],
		"LegalDescriptionSummary" : "String",
		"Name" : "String",
		"PreparedBy" : "String",
		"Purpose" : "String",
		"ReportsTo" : "String",
		"SampleTasks" : 
		[
			{
				"Name" : "String",
				"SampleTaskId" : "Int32"
			}
		],
		"SampleTaskSummary" : "String",
		"Summary" : "String",
		"UpdateDate" : "DateTime?",
		"UpdatedBy" : "String",
		"WorkEnvironment" : "String"
	}
}
