{
	"vm" : 
	{
		"CreateById" : "Int32",
		"CreateDate" : "DateTime",
		"Department" : 
		{
			"DepartmentId" : "Int32",
			"Name" : "String"
		},
		"IsCustomer" : "Boolean?",
		"IsTrainingAdmin" : "Boolean",
		"Jobs" : 
		[
			{
				"JobId" : "Int32",
				"Name" : "String"
			}
		],
		"Sites" : 
		[
			{
				"ChildCount" : "Int32",
				"Id" : "Int32",
				"Latitude" : "Double?",
				"Longitude" : "Double?",
				"Name" : "String",
				"Type" : "Int32"
			}
		],
		"Text" : "String",
		"Title" : "String",
		"TrainingMessageId" : "Int32"
	}
}
