{
	"id" : "Int32",
	"vm" : 
	{
		"DisplayPosition" : "Int32",
		"IsActive" : "Boolean",
		"MemberLabel" : "Int32",
		"SetMember" : "Int32",
		"StickerSet" : "Int32",
		"UserId" : "Int32",
		"UserStickerId" : "Int32"
	}
}
