{
"Controller": "UserNotificationSubscriptionController",
"Action" : "Put",
"HttpMethods": {"PUT"},
"Parameters": 
{
	"vm" : {
	"Type" : "System.Collections.Generic.IEnumerable`1[[ChaiTea.BusinessLogic.ViewModels.Personnel.UserNotificationSubscriptionVm, ChaiTea.BusinessLogic, Version=0.0.0.0, Culture=neutral, PublicKeyToken=null]]",
	"Containing" :
	[
		{
			"IsActive" : 
			{
				"Type" : "System.Boolean",
				"Get Visibility" : "Public",
				"Set Visibility" : "Public"
			},
			"IsDefault" : 
			{
				"Type" : "System.Boolean",
				"Get Visibility" : "Public",
				"Set Visibility" : "Public"
			},
			"NotificationEventId" : 
			{
				"Type" : "System.Int32",
				"Get Visibility" : "Public",
				"Set Visibility" : "Public"
			},
			"NotificationTypeId" : 
			{
				"Type" : "System.Int32",
				"Get Visibility" : "Public",
				"Set Visibility" : "Public"
			}
		}
	]
}

},
"Return Type" : "System.Boolean",
"Returned Fields" :
"System.Boolean"
}
