{
"Controller": "TurnoverController",
"Action" : "TurnoversBySite",
"HttpMethods": {"GET"},
"Parameters": 
{
	"startDate" : "System.DateTime",
	"endDate" : "System.DateTime"
},
"Return Type" : "ChaiTea.BusinessLogic.Reporting.Employment.ViewModels.ReportTurnoverTrendsBySiteVm",
"Returned Fields" :
{
	"Averages" : 
	{
		"Type" : "System.Collections.Generic.List`1[[System.Decimal, mscorlib, Version=4.0.0.0, Culture=neutral, PublicKeyToken=b77a5c561934e089]]",
		"Get Visibility" : "Public",
		"Set Visibility" : "Public",
		"Nested Fields" :
		[
"Decimal"
		]
	},
	"Categories" : 
	{
		"Type" : "System.Collections.Generic.List`1[[System.String, mscorlib, Version=4.0.0.0, Culture=neutral, PublicKeyToken=b77a5c561934e089]]",
		"Get Visibility" : "Public",
		"Set Visibility" : "Public",
		"Nested Fields" :
		[
"String"
		]
	}
}
}
