{
	"Comment" : "String",
	"CreateDate" : "DateTime",
	"DateOfOccurrence" : "DateTime",
	"IsExempt" : "Boolean",
	"IssueId" : "Int32",
	"IssueTypeId" : "Int32",
	"IssueTypeName" : "String",
	"OrgUserId" : "Int32",
	"ReasonId" : "Int32?",
	"ReasonName" : "String"
}
