{
"Controller": "IssueController",
"Action" : "Put",
"HttpMethods": {"PUT"},
"Parameters": 
{
	"id" : "System.Int32",
	"vm" : {
	"Comment" : 
	{
		"Type" : "System.String",
		"Get Visibility" : "Public",
		"Set Visibility" : "Public"
	},
	"CreateDate" : 
	{
		"Type" : "System.DateTime",
		"Get Visibility" : "Public",
		"Set Visibility" : "Public"
	},
	"DateOfOccurrence" : 
	{
		"Type" : "System.DateTime",
		"Get Visibility" : "Public",
		"Set Visibility" : "Public"
	},
	"IsExempt" : 
	{
		"Type" : "System.Boolean",
		"Get Visibility" : "Public",
		"Set Visibility" : "Public"
	},
	"IssueId" : 
	{
		"Type" : "System.Int32",
		"Get Visibility" : "Public",
		"Set Visibility" : "Public"
	},
	"IssueTypeId" : 
	{
		"Type" : "System.Int32",
		"Get Visibility" : "Public",
		"Set Visibility" : "Public"
	},
	"IssueTypeName" : 
	{
		"Type" : "System.String",
		"Get Visibility" : "Public",
		"Set Visibility" : "Public"
	},
	"OrgUserId" : 
	{
		"Type" : "System.Int32",
		"Get Visibility" : "Public",
		"Set Visibility" : "Public"
	},
	"ReasonId" : 
	{
		"Type" : "System.Int32?",
		"Get Visibility" : "Public",
		"Set Visibility" : "Public"
	},
	"ReasonName" : 
	{
		"Type" : "System.String",
		"Get Visibility" : "Public",
		"Set Visibility" : "Public"
	}
}
},
"Return Type" : "ChaiTea.BusinessLogic.ViewModels.TimeCenter.IssueVm",
"Returned Fields" :
{
	"Comment" : 
	{
		"Type" : "System.String",
		"Get Visibility" : "Public",
		"Set Visibility" : "Public"
	},
	"CreateDate" : 
	{
		"Type" : "System.DateTime",
		"Get Visibility" : "Public",
		"Set Visibility" : "Public"
	},
	"DateOfOccurrence" : 
	{
		"Type" : "System.DateTime",
		"Get Visibility" : "Public",
		"Set Visibility" : "Public"
	},
	"IsExempt" : 
	{
		"Type" : "System.Boolean",
		"Get Visibility" : "Public",
		"Set Visibility" : "Public"
	},
	"IssueId" : 
	{
		"Type" : "System.Int32",
		"Get Visibility" : "Public",
		"Set Visibility" : "Public"
	},
	"IssueTypeId" : 
	{
		"Type" : "System.Int32",
		"Get Visibility" : "Public",
		"Set Visibility" : "Public"
	},
	"IssueTypeName" : 
	{
		"Type" : "System.String",
		"Get Visibility" : "Public",
		"Set Visibility" : "Public"
	},
	"OrgUserId" : 
	{
		"Type" : "System.Int32",
		"Get Visibility" : "Public",
		"Set Visibility" : "Public"
	},
	"ReasonId" : 
	{
		"Type" : "System.Int32?",
		"Get Visibility" : "Public",
		"Set Visibility" : "Public"
	},
	"ReasonName" : 
	{
		"Type" : "System.String",
		"Get Visibility" : "Public",
		"Set Visibility" : "Public"
	}
}
}
