[
	{
		"CourseId" : "Int32",
		"CourseName" : "String",
		"EmployeeCourseId" : "Int32",
		"FirstName" : "String",
		"JobId" : "Int32",
		"JobName" : "String",
		"LastName" : "String",
		"OrgUserId" : "Int32",
		"UserAttachments" : 
		[
			{
				"AttachmentType" : "Int32",
				"Description" : "String",
				"Name" : "String",
				"UniqueId" : "String",
				"UserAttachmentId" : "Int32",
				"UserAttachmentType" : "Int32"
			}
		]
	}
]
