{
"Controller": "ApplicationUserController",
"Action" : "ForgotPassword",
"HttpMethods": {"POST"},
"Parameters": 
{
	"dto" : {
	"email" : 
	{
		"Type" : "System.String",
		"Get Visibility" : "Public",
		"Set Visibility" : "Public"
	}
}
},
"Return Type" : "System.Threading.Tasks.Task`1[[System.Web.Http.IHttpActionResult, System.Web.Http, Version=5.2.3.0, Culture=neutral, PublicKeyToken=31bf3856ad364e35]]",
"Returned Fields" :
"Unknown"
}
