[
	{
		"AuditorName" : "String",
		"AverageScore" : "Double?",
		"BuildingId" : "Int32",
		"InternalAuditScore" : "Double?",
		"JointAuditScore" : "Double?",
		"LastAuditDate" : "DateTime?",
		"MostRecentScore" : "Double?",
		"Name" : "String",
		"ProgramId" : "Int32?"
	}
]
