{
"Controller": "UserInfoController",
"Action" : "Put",
"HttpMethods": {"PUT"},
"Parameters": 
{
	"id" : "System.Int32",
	"vm" : {
	"AboutMe" : 
	{
		"Type" : "System.String",
		"Get Visibility" : "Public",
		"Set Visibility" : "Public"
	},
	"Email" : 
	{
		"Type" : "System.String",
		"Get Visibility" : "Public",
		"Set Visibility" : "Public"
	},
	"FirstName" : 
	{
		"Type" : "System.String",
		"Get Visibility" : "Public",
		"Set Visibility" : "Public"
	},
	"FunFacts" : 
	{
		"Type" : "System.String",
		"Get Visibility" : "Public",
		"Set Visibility" : "Public"
	},
	"LastName" : 
	{
		"Type" : "System.String",
		"Get Visibility" : "Public",
		"Set Visibility" : "Public"
	},
	"PhoneNumber" : 
	{
		"Type" : "System.String",
		"Get Visibility" : "Public",
		"Set Visibility" : "Public"
	},
	"UserAttachments" : 
	{
		"Type" : "System.Collections.Generic.List`1[[ChaiTea.BusinessLogic.ViewModels.Personnel.UserAttachmentVm, ChaiTea.BusinessLogic, Version=0.0.0.0, Culture=neutral, PublicKeyToken=null]]",
		"Get Visibility" : "Public",
		"Set Visibility" : "Public",
		"Nested Fields" :
		[
			{
				"AttachmentType" : 
				{
					"Type" : "Enum[AttachmentTypeVm] as Int32",
					"Get Visibility" : "Public",
					"Set Visibility" : "Public",
					"Enum Values" : 
					[
						"Image" : "1"
						"Video" : "2"
						"Audio" : "3"
						"Pdf" : "4"
						"File" : "5"
					]
				},
				"Description" : 
				{
					"Type" : "System.String",
					"Get Visibility" : "Public",
					"Set Visibility" : "Public"
				},
				"Name" : 
				{
					"Type" : "System.String",
					"Get Visibility" : "Public",
					"Set Visibility" : "Public"
				},
				"UniqueId" : 
				{
					"Type" : "System.String",
					"Get Visibility" : "Public",
					"Set Visibility" : "Public"
				},
				"UserAttachmentId" : 
				{
					"Type" : "System.Int32",
					"Get Visibility" : "Public",
					"Set Visibility" : "Public"
				},
				"UserAttachmentType" : 
				{
					"Type" : "Enum[UserAttachmentTypeVm] as Int32",
					"Get Visibility" : "Public",
					"Set Visibility" : "Public",
					"Enum Values" : 
					[
						"ProfilePicture" : "1"
						"SocialPicture" : "2"
						"BackgroundPicture" : "3"
					]
				}
			}
		]
	},
	"UserId" : 
	{
		"Type" : "System.Int32",
		"Get Visibility" : "Public",
		"Set Visibility" : "Public"
	},
	"UserName" : 
	{
		"Type" : "System.String",
		"Get Visibility" : "Public",
		"Set Visibility" : "Public"
	}
},
	"CultureId" : {
	"Type" : "System.String",
}
,
	"LanguageId" : {
	"Type" : "System.String",
}

},
"Return Type" : "System.Void",
"Returned Fields" :
"System.Void"
}
