{
"Controller": "InjuryReportController",
"Action" : "Get",
"HttpMethods": {"GET"},
"Parameters": 
{
	"startDate" : "System.DateTime",
	"endDate" : "System.DateTime",
	"top" : "System.Int32",
	"skip" : "System.Int32",
	"isCompleted" : "System.Boolean"
},
"Return Type" : "System.Collections.Generic.IEnumerable`1[[ChaiTea.BusinessLogic.ViewModels.Injuries.InjuryReportCardsViewVm, ChaiTea.BusinessLogic, Version=0.0.0.0, Culture=neutral, PublicKeyToken=null]]",
"Returned Fields" :
{
	"Type" : "System.Collections.Generic.IEnumerable`1[[ChaiTea.BusinessLogic.ViewModels.Injuries.InjuryReportCardsViewVm, ChaiTea.BusinessLogic, Version=0.0.0.0, Culture=neutral, PublicKeyToken=null]]",
	"Containing" :
	[
		{
			"BuildingId" : 
			{
				"Type" : "System.Int32",
				"Get Visibility" : "Public",
				"Set Visibility" : "Public"
			},
			"BuildingName" : 
			{
				"Type" : "System.String",
				"Get Visibility" : "Public",
				"Set Visibility" : "Public"
			},
			"ClientId" : 
			{
				"Type" : "System.Int32",
				"Get Visibility" : "Public",
				"Set Visibility" : "Public"
			},
			"ClientName" : 
			{
				"Type" : "System.String",
				"Get Visibility" : "Public",
				"Set Visibility" : "Public"
			},
			"DateOfInjury" : 
			{
				"Type" : "System.DateTime",
				"Get Visibility" : "Public",
				"Set Visibility" : "Public"
			},
			"EmployeeId" : 
			{
				"Type" : "System.Int32?",
				"Get Visibility" : "Public",
				"Set Visibility" : "Public"
			},
			"FloorId" : 
			{
				"Type" : "System.Int32",
				"Get Visibility" : "Public",
				"Set Visibility" : "Public"
			},
			"FloorName" : 
			{
				"Type" : "System.String",
				"Get Visibility" : "Public",
				"Set Visibility" : "Public"
			},
			"IncidentId" : 
			{
				"Type" : "System.String",
				"Get Visibility" : "Public",
				"Set Visibility" : "Public"
			},
			"InjuryClassificationId" : 
			{
				"Type" : "System.Int32",
				"Get Visibility" : "Public",
				"Set Visibility" : "Public"
			},
			"InjuryDescription" : 
			{
				"Type" : "System.String",
				"Get Visibility" : "Public",
				"Set Visibility" : "Public"
			},
			"InjuryReportId" : 
			{
				"Type" : "System.Int32",
				"Get Visibility" : "Public",
				"Set Visibility" : "Public"
			},
			"ReportStatusId" : 
			{
				"Type" : "System.Int32",
				"Get Visibility" : "Public",
				"Set Visibility" : "Public"
			},
			"SiteId" : 
			{
				"Type" : "System.Int32",
				"Get Visibility" : "Public",
				"Set Visibility" : "Public"
			},
			"SiteName" : 
			{
				"Type" : "System.String",
				"Get Visibility" : "Public",
				"Set Visibility" : "Public"
			},
			"Snapshot_EmployeeName" : 
			{
				"Type" : "System.String",
				"Get Visibility" : "Public",
				"Set Visibility" : "Public"
			},
			"UserAttachments" : 
			{
				"Type" : "System.Collections.Generic.List`1[[ChaiTea.BusinessLogic.ViewModels.Personnel.UserAttachmentVm, ChaiTea.BusinessLogic, Version=0.0.0.0, Culture=neutral, PublicKeyToken=null]]",
				"Get Visibility" : "Public",
				"Set Visibility" : "Public",
				"Nested Fields" :
				[
					{
						"AttachmentType" : 
						{
							"Type" : "Enum[AttachmentTypeVm] as Int32",
							"Get Visibility" : "Public",
							"Set Visibility" : "Public",
							"Enum Values" : 
							[
								"Image" : "1"
								"Video" : "2"
								"Audio" : "3"
								"Pdf" : "4"
								"File" : "5"
							]
						},
						"Description" : 
						{
							"Type" : "System.String",
							"Get Visibility" : "Public",
							"Set Visibility" : "Public"
						},
						"Name" : 
						{
							"Type" : "System.String",
							"Get Visibility" : "Public",
							"Set Visibility" : "Public"
						},
						"UniqueId" : 
						{
							"Type" : "System.String",
							"Get Visibility" : "Public",
							"Set Visibility" : "Public"
						},
						"UserAttachmentId" : 
						{
							"Type" : "System.Int32",
							"Get Visibility" : "Public",
							"Set Visibility" : "Public"
						},
						"UserAttachmentType" : 
						{
							"Type" : "Enum[UserAttachmentTypeVm] as Int32",
							"Get Visibility" : "Public",
							"Set Visibility" : "Public",
							"Enum Values" : 
							[
								"ProfilePicture" : "1"
								"SocialPicture" : "2"
								"BackgroundPicture" : "3"
							]
						}
					}
				]
			}
		}
	]
}

}
