{
"Controller": "TrainingReportController",
"Action" : "OwnershipTrendsBySite",
"HttpMethods": {"GET"},
"Parameters": 
{
	"startDate" : "System.DateTime",
	"endDate" : "System.DateTime"
},
"Return Type" : "ChaiTea.BusinessLogic.Reporting.Training.ViewModels.ReportOwnershipTrendsBySiteVm",
"Returned Fields" :
{
	"Accepted" : 
	{
		"Type" : "System.Collections.Generic.List`1[[System.Int32, mscorlib, Version=4.0.0.0, Culture=neutral, PublicKeyToken=b77a5c561934e089]]",
		"Get Visibility" : "Public",
		"Set Visibility" : "Public",
		"Nested Fields" :
		[
"Int32"
		]
	},
	"Id" : 
	{
		"Type" : "System.Collections.Generic.List`1[[System.Int32, mscorlib, Version=4.0.0.0, Culture=neutral, PublicKeyToken=b77a5c561934e089]]",
		"Get Visibility" : "Public",
		"Set Visibility" : "Public",
		"Nested Fields" :
		[
"Int32"
		]
	},
	"Name" : 
	{
		"Type" : "System.Collections.Generic.List`1[[System.String, mscorlib, Version=4.0.0.0, Culture=neutral, PublicKeyToken=b77a5c561934e089]]",
		"Get Visibility" : "Public",
		"Set Visibility" : "Public",
		"Nested Fields" :
		[
"String"
		]
	},
	"Rejected" : 
	{
		"Type" : "System.Collections.Generic.List`1[[System.Int32, mscorlib, Version=4.0.0.0, Culture=neutral, PublicKeyToken=b77a5c561934e089]]",
		"Get Visibility" : "Public",
		"Set Visibility" : "Public",
		"Nested Fields" :
		[
"Int32"
		]
	}
}
}
