{
	"AllocateCost" : "Boolean",
	"AssignedDate" : "DateTime?",
	"AssignedToEmployeeAttachments" : 
	[
		{
			"AttachmentType" : "Int32",
			"Description" : "String",
			"Name" : "String",
			"UniqueId" : "String",
			"UserAttachmentId" : "Int32",
			"UserAttachmentType" : "Int32"
		}
	],
	"AssignedToId" : "Int32?",
	"AssignedToName" : "String",
	"BillingDescription" : "String",
	"BuildingId" : "Int32",
	"BuildingName" : "String",
	"CloseDate" : "DateTime?",
	"ContactNumber" : "String",
	"Cost" : "Double?",
	"CreateDate" : "DateTime",
	"Description" : "String",
	"DueDate" : "DateTime?",
	"Equipment" : "String",
	"FloorId" : "Int32",
	"FloorName" : "String",
	"IsBillable" : "Boolean?",
	"IsInScope" : "Boolean",
	"IsProductionAffected" : "Boolean",
	"IsRecurring" : "Boolean",
	"LocationName" : "String",
	"PoNumber" : "String",
	"PriorityId" : "Int32?",
	"PriorityName" : "String",
	"ProgramId" : "Int32",
	"ProgramName" : "String",
	"RecurrenceInfo" : 
	{
		"DueIn" : "Int32?",
		"EndDate" : "DateTime?",
		"RecurrenceTypeId" : "Int32",
		"RecurrenceTypeName" : "String",
		"StartDate" : "DateTime"
	},
	"ReportedById" : "Int32",
	"ReportedByName" : "String",
	"RequestDueDate" : "DateTime?",
	"RequestImageUid" : "String",
	"Resolution" : "String",
	"ResolveImageUid" : "String",
	"RoomNumber" : "String",
	"ServiceTypeId" : "Int32?",
	"ServiceTypeName" : "String",
	"StatusId" : "Int32?",
	"StatusName" : "String",
	"Summary" : "String",
	"WorkOrderAttachments" : 
	[
		{
			"AttachmentType" : "Int32",
			"Description" : "String",
			"Name" : "String",
			"UniqueId" : "String",
			"WorkOrderAttachmentId" : "Int32",
			"WorkOrderAttachmentType" : "Int32"
		}
	],
	"WorkOrderId" : "Int32",
	"WorkOrderNumber" : "String",
	"WorkOrderSeriesId" : "Int32?"
}
