{
"Controller": "UserController",
"Action" : "Sites",
"HttpMethods": {"GET"},
"Parameters": 
{
	"id" : "System.Int32",
	"save" : "System.Boolean"
},
"Return Type" : "ChaiTea.BusinessLogic.ViewModels.AppMetaData.UserContextLookupListVm",
"Returned Fields" :
{
	"Clients" : 
	{
		"Type" : "ChaiTea.BusinessLogic.ViewModels.Utils.LookupListVm`2[[System.Int32, mscorlib, Version=4.0.0.0, Culture=neutral, PublicKeyToken=b77a5c561934e089],[System.String, mscorlib, Version=4.0.0.0, Culture=neutral, PublicKeyToken=b77a5c561934e089]]",
		"Get Visibility" : "Public",
		"Set Visibility" : "Public",
		"Nested Fields" :
		{
			"Name" : 
			{
				"Type" : "System.String",
				"Get Visibility" : "Public",
				"Set Visibility" : "Public"
			},
			"Options" : 
			{
				"Type" : "System.Collections.Generic.List`1[[ChaiTea.BusinessLogic.ViewModels.Utils.LookupListOption`2[[System.Int32, mscorlib, Version=4.0.0.0, Culture=neutral, PublicKeyToken=b77a5c561934e089],[System.String, mscorlib, Version=4.0.0.0, Culture=neutral, PublicKeyToken=b77a5c561934e089]], ChaiTea.BusinessLogic, Version=0.0.0.0, Culture=neutral, PublicKeyToken=null]]",
				"Get Visibility" : "Public",
				"Set Visibility" : "Public",
				"Nested Fields" :
				[
					{
						"Key" : 
						{
							"Type" : "System.Int32",
							"Get Visibility" : "Public",
							"Set Visibility" : "Public"
						},
						"Value" : 
						{
							"Type" : "System.String",
							"Get Visibility" : "Public",
							"Set Visibility" : "Public"
						}
					}
				]
			}
		}
	},
	"Languages" : 
	{
		"Type" : "ChaiTea.BusinessLogic.ViewModels.Utils.LookupListVm`2[[System.Nullable`1[[System.Int32, mscorlib, Version=4.0.0.0, Culture=neutral, PublicKeyToken=b77a5c561934e089]], mscorlib, Version=4.0.0.0, Culture=neutral, PublicKeyToken=b77a5c561934e089],[System.String, mscorlib, Version=4.0.0.0, Culture=neutral, PublicKeyToken=b77a5c561934e089]]",
		"Get Visibility" : "Public",
		"Set Visibility" : "Public",
		"Nested Fields" :
		{
			"Name" : 
			{
				"Type" : "System.String",
				"Get Visibility" : "Public",
				"Set Visibility" : "Public"
			},
			"Options" : 
			{
				"Type" : "System.Collections.Generic.List`1[[ChaiTea.BusinessLogic.ViewModels.Utils.LookupListOption`2[[System.Nullable`1[[System.Int32, mscorlib, Version=4.0.0.0, Culture=neutral, PublicKeyToken=b77a5c561934e089]], mscorlib, Version=4.0.0.0, Culture=neutral, PublicKeyToken=b77a5c561934e089],[System.String, mscorlib, Version=4.0.0.0, Culture=neutral, PublicKeyToken=b77a5c561934e089]], ChaiTea.BusinessLogic, Version=0.0.0.0, Culture=neutral, PublicKeyToken=null]]",
				"Get Visibility" : "Public",
				"Set Visibility" : "Public",
				"Nested Fields" :
				[
					{
						"Key" : 
						{
							"Type" : "System.Int32?",
							"Get Visibility" : "Public",
							"Set Visibility" : "Public"
						},
						"Value" : 
						{
							"Type" : "System.String",
							"Get Visibility" : "Public",
							"Set Visibility" : "Public"
						}
					}
				]
			}
		}
	},
	"Programs" : 
	{
		"Type" : "ChaiTea.BusinessLogic.ViewModels.Utils.LookupListVm`2[[System.Nullable`1[[System.Int32, mscorlib, Version=4.0.0.0, Culture=neutral, PublicKeyToken=b77a5c561934e089]], mscorlib, Version=4.0.0.0, Culture=neutral, PublicKeyToken=b77a5c561934e089],[System.String, mscorlib, Version=4.0.0.0, Culture=neutral, PublicKeyToken=b77a5c561934e089]]",
		"Get Visibility" : "Public",
		"Set Visibility" : "Public",
		"Nested Fields" :
"LookupListVm`2"
	},
	"Sites" : 
	{
		"Type" : "ChaiTea.BusinessLogic.ViewModels.Utils.LookupListVm`2[[System.Nullable`1[[System.Int32, mscorlib, Version=4.0.0.0, Culture=neutral, PublicKeyToken=b77a5c561934e089]], mscorlib, Version=4.0.0.0, Culture=neutral, PublicKeyToken=b77a5c561934e089],[System.String, mscorlib, Version=4.0.0.0, Culture=neutral, PublicKeyToken=b77a5c561934e089]]",
		"Get Visibility" : "Public",
		"Set Visibility" : "Public",
		"Nested Fields" :
"LookupListVm`2"
	}
}
}
