{
"Controller": "CourseRatingController",
"Action" : "Post",
"HttpMethods": {"POST"},
"Parameters": 
{
	"vm" : {
	"CourseAttachmentId" : 
	{
		"Type" : "System.Int32",
		"Get Visibility" : "Public",
		"Set Visibility" : "Public"
	},
	"CourseId" : 
	{
		"Type" : "System.Int32",
		"Get Visibility" : "Public",
		"Set Visibility" : "Public"
	},
	"CourseRatingId" : 
	{
		"Type" : "System.Int32",
		"Get Visibility" : "Public",
		"Set Visibility" : "Public"
	},
	"OrgUserId" : 
	{
		"Type" : "System.Int32",
		"Get Visibility" : "Public",
		"Set Visibility" : "Public"
	},
	"Rating" : 
	{
		"Type" : "System.Decimal",
		"Get Visibility" : "Public",
		"Set Visibility" : "Public"
	}
}
},
"Return Type" : "ChaiTea.BusinessLogic.ViewModels.Courses.CourseRatingVm",
"Returned Fields" :
{
	"CourseAttachmentId" : 
	{
		"Type" : "System.Int32",
		"Get Visibility" : "Public",
		"Set Visibility" : "Public"
	},
	"CourseId" : 
	{
		"Type" : "System.Int32",
		"Get Visibility" : "Public",
		"Set Visibility" : "Public"
	},
	"CourseRatingId" : 
	{
		"Type" : "System.Int32",
		"Get Visibility" : "Public",
		"Set Visibility" : "Public"
	},
	"OrgUserId" : 
	{
		"Type" : "System.Int32",
		"Get Visibility" : "Public",
		"Set Visibility" : "Public"
	},
	"Rating" : 
	{
		"Type" : "System.Decimal",
		"Get Visibility" : "Public",
		"Set Visibility" : "Public"
	}
}
}
