{
"Controller": "TurnoverController",
"Action" : "GetTurnoverByCategory",
"HttpMethods": {"GET"},
"Parameters": 
{
	"startDate" : "System.DateTime",
	"endDate" : "System.DateTime"
},
"Return Type" : "System.Collections.Generic.IEnumerable`1[[ChaiTea.BusinessLogic.Reporting.Employment.ViewModels.ReportTurnoverByCategoryVm, ChaiTea.BusinessLogic, Version=0.0.0.0, Culture=neutral, PublicKeyToken=null]]",
"Returned Fields" :
{
	"Type" : "System.Collections.Generic.IEnumerable`1[[ChaiTea.BusinessLogic.Reporting.Employment.ViewModels.ReportTurnoverByCategoryVm, ChaiTea.BusinessLogic, Version=0.0.0.0, Culture=neutral, PublicKeyToken=null]]",
	"Containing" :
	[
		{
			"IsVoluntary" : 
			{
				"Type" : "System.Boolean",
				"Get Visibility" : "Public",
				"Set Visibility" : "Public"
			},
			"TurnoverCount" : 
			{
				"Type" : "System.Int32",
				"Get Visibility" : "Public",
				"Set Visibility" : "Public"
			},
			"TurnoverTypeId" : 
			{
				"Type" : "System.Int32",
				"Get Visibility" : "Public",
				"Set Visibility" : "Public"
			},
			"TurnoverTypeName" : 
			{
				"Type" : "System.String",
				"Get Visibility" : "Public",
				"Set Visibility" : "Public"
			}
		}
	]
}

}
