{
	"DateOfIncident" : "DateTime",
	"Detail" : "String",
	"EmployeeId" : "Int32",
	"EmployeeName" : "String",
	"IncidentTypes" : 
	[
	"Int32"
	],
	"IsExempt" : "Boolean",
	"SafetyAttachments" : 
	[
		{
			"AttachmentType" : "Int32",
			"Description" : "String",
			"Name" : "String",
			"SafetyAttachmentId" : "Int32",
			"UniqueId" : "String"
		}
	],
	"SafetyId" : "Int32",
	"UserAttachments" : 
	[
		{
			"AttachmentType" : "Int32",
			"Description" : "String",
			"Name" : "String",
			"UniqueId" : "String",
			"UserAttachmentId" : "Int32",
			"UserAttachmentType" : "Int32"
		}
	]
}
