{
"Controller": "QualityReportController",
"Action" : "WorkOrderTrends",
"HttpMethods": {"GET"},
"Parameters": 
{
	"startDate" : "System.DateTime",
	"endDate" : "System.DateTime"
},
"Return Type" : "ChaiTea.BusinessLogic.Reporting.Quality.ViewModels.ReportWorkOrderTrendsVm",
"Returned Fields" :
{
	"Categories" : 
	{
		"Type" : "System.Collections.Generic.List`1[[System.String, mscorlib, Version=4.0.0.0, Culture=neutral, PublicKeyToken=b77a5c561934e089]]",
		"Get Visibility" : "Public",
		"Set Visibility" : "Public",
		"Nested Fields" :
		[
"String"
		]
	},
	"LateData" : 
	{
		"Type" : "System.Collections.Generic.List`1[[System.Nullable`1[[System.Int32, mscorlib, Version=4.0.0.0, Culture=neutral, PublicKeyToken=b77a5c561934e089]], mscorlib, Version=4.0.0.0, Culture=neutral, PublicKeyToken=b77a5c561934e089]]",
		"Get Visibility" : "Public",
		"Set Visibility" : "Public",
		"Nested Fields" :
		[
"Nullable`1"
		]
	},
	"OnTimeData" : 
	{
		"Type" : "System.Collections.Generic.List`1[[System.Nullable`1[[System.Int32, mscorlib, Version=4.0.0.0, Culture=neutral, PublicKeyToken=b77a5c561934e089]], mscorlib, Version=4.0.0.0, Culture=neutral, PublicKeyToken=b77a5c561934e089]]",
		"Get Visibility" : "Public",
		"Set Visibility" : "Public",
		"Nested Fields" :
		[
"Nullable`1"
		]
	}
}
}
