{
"Controller": "InvoiceController",
"Action" : "GetInvoiceByUnpaidFlag",
"HttpMethods": {"GET"},
"Parameters": 
{
	"startDate" : "System.DateTime",
	"endDate" : "System.DateTime",
	"isUnpaid" : "System.Boolean",
	"skip" : "System.Int32",
	"top" : "System.Int32"
},
"Return Type" : "System.Web.Http.IHttpActionResult",
"Returned Fields" :
"Unknown"
}
