{
"Controller": "ClientController",
"Action" : "Post",
"HttpMethods": {"POST"},
"Parameters": 
{
	"vm" : {
	"ChildCount" : 
	{
		"Type" : "System.Int32",
		"Get Visibility" : "Public",
		"Set Visibility" : "Public"
	},
	"Id" : 
	{
		"Type" : "System.Int32",
		"Get Visibility" : "Public",
		"Set Visibility" : "Public"
	},
	"Latitude" : 
	{
		"Type" : "System.Double?",
		"Get Visibility" : "Public",
		"Set Visibility" : "Public"
	},
	"Longitude" : 
	{
		"Type" : "System.Double?",
		"Get Visibility" : "Public",
		"Set Visibility" : "Public"
	},
	"Name" : 
	{
		"Type" : "System.String",
		"Get Visibility" : "Public",
		"Set Visibility" : "Public"
	}
}
},
"Return Type" : "System.Void",
"Returned Fields" :
"System.Void"
}
