{
"Controller": "SecurityController",
"Action" : "GetSignedVideoUrl",
"HttpMethods": {"GET"},
"Parameters": 
{
	"folder" : {
	"Type" : "System.String",
}
,
	"ext" : {
	"Type" : "System.String",
}
,
	"file" : {
	"Type" : "System.String",
}

},
"Return Type" : "ChaiTea.Web.Areas.Services.Models.SecuritySignedUrlVm",
"Returned Fields" :
{
	"EndPoint" : 
	{
		"Type" : "System.String",
		"Get Visibility" : "Public",
		"Set Visibility" : "Public"
	},
	"Key" : 
	{
		"Type" : "System.String",
		"Get Visibility" : "Public",
		"Set Visibility" : "Public"
	},
	"Url" : 
	{
		"Type" : "System.String",
		"Get Visibility" : "Public",
		"Set Visibility" : "Public"
	}
}
}
