{
"Controller": "EmployeeCourseController",
"Action" : "Get",
"HttpMethods": {"GET"},
"Parameters": 
{
},
"Return Type" : "System.Linq.IQueryable`1[[ChaiTea.BusinessLogic.ViewModels.Courses.EmployeeCourseVm, ChaiTea.BusinessLogic, Version=0.0.0.0, Culture=neutral, PublicKeyToken=null]]",
"Returned Fields" :
{
	"Type" : "System.Linq.IQueryable`1[[ChaiTea.BusinessLogic.ViewModels.Courses.EmployeeCourseVm, ChaiTea.BusinessLogic, Version=0.0.0.0, Culture=neutral, PublicKeyToken=null]]",
	"Containing" :
	[
		{
			"Course" : 
			{
				"Type" : "ChaiTea.BusinessLogic.ViewModels.Courses.CourseVm",
				"Get Visibility" : "Public",
				"Set Visibility" : "Public",
				"Nested Fields" :
				{
					"AverageRating" : 
					{
						"Type" : "System.Decimal?",
						"Get Visibility" : "Public",
						"Set Visibility" : "Public"
					},
					"CourseAttachments" : 
					{
						"Type" : "System.Collections.Generic.List`1[[ChaiTea.BusinessLogic.ViewModels.Courses.CourseAttachmentVm, ChaiTea.BusinessLogic, Version=0.0.0.0, Culture=neutral, PublicKeyToken=null]]",
						"Get Visibility" : "Public",
						"Set Visibility" : "Public",
						"Nested Fields" :
						[
							{
								"Attachment" : 
								{
									"Type" : "ChaiTea.BusinessLogic.ViewModels.Utils.Attachments.AttachmentVm",
									"Get Visibility" : "Public",
									"Set Visibility" : "Public",
									"Nested Fields" :
									{
										"AttachmentId" : 
										{
											"Type" : "System.Int32",
											"Get Visibility" : "Public",
											"Set Visibility" : "Public"
										},
										"AttachmentType" : 
										{
											"Type" : "Enum[AttachmentTypeVm] as Int32",
											"Get Visibility" : "Public",
											"Set Visibility" : "Public",
											"Enum Values" : 
											[
												"Image" : "1"
												"Video" : "2"
												"Audio" : "3"
												"Pdf" : "4"
												"File" : "5"
											]
										},
										"AttachmentTypeId" : 
										{
											"Type" : "System.Int32",
											"Get Visibility" : "Public",
											"Set Visibility" : "Public"
										},
										"Description" : 
										{
											"Type" : "System.String",
											"Get Visibility" : "Public",
											"Set Visibility" : "Public"
										},
										"Name" : 
										{
											"Type" : "System.String",
											"Get Visibility" : "Public",
											"Set Visibility" : "Public"
										},
										"UniqueId" : 
										{
											"Type" : "System.String",
											"Get Visibility" : "Public",
											"Set Visibility" : "Public"
										}
									}
								},
								"AttachmentId" : 
								{
									"Type" : "System.Int32",
									"Get Visibility" : "Public",
									"Set Visibility" : "Public"
								},
								"CourseAttachmentId" : 
								{
									"Type" : "System.Int32",
									"Get Visibility" : "Public",
									"Set Visibility" : "Public"
								},
								"CourseAttachmentParentUniqueId" : 
								{
									"Type" : "System.String",
									"Get Visibility" : "Public",
									"Set Visibility" : "Public"
								},
								"CourseAttachmentQuestions" : 
								{
									"Type" : "System.Collections.Generic.List`1[[ChaiTea.BusinessLogic.ViewModels.Courses.CourseAttachmentQuestionVm, ChaiTea.BusinessLogic, Version=0.0.0.0, Culture=neutral, PublicKeyToken=null]]",
									"Get Visibility" : "Public",
									"Set Visibility" : "Public",
									"Nested Fields" :
									[
										{
											"CourseAttachmentQuestionId" : 
											{
												"Type" : "System.Int32",
												"Get Visibility" : "Public",
												"Set Visibility" : "Public"
											},
											"CourseAttachmentQuestionOptions" : 
											{
												"Type" : "System.Collections.Generic.List`1[[ChaiTea.BusinessLogic.ViewModels.Courses.CourseAttachmentQuestionOptionVm, ChaiTea.BusinessLogic, Version=0.0.0.0, Culture=neutral, PublicKeyToken=null]]",
												"Get Visibility" : "Public",
												"Set Visibility" : "Public",
												"Nested Fields" :
												[
													{
														"CourseAttachmentQuestionOptionId" : 
														{
															"Type" : "System.Int32",
															"Get Visibility" : "Public",
															"Set Visibility" : "Public"
														},
														"IsAnswer" : 
														{
															"Type" : "System.Boolean",
															"Get Visibility" : "Public",
															"Set Visibility" : "Public"
														},
														"Option" : 
														{
															"Type" : "System.String",
															"Get Visibility" : "Public",
															"Set Visibility" : "Public"
														}
													}
												]
											},
											"OrderPriority" : 
											{
												"Type" : "System.Int32",
												"Get Visibility" : "Public",
												"Set Visibility" : "Public"
											},
											"Question" : 
											{
												"Type" : "System.String",
												"Get Visibility" : "Public",
												"Set Visibility" : "Public"
											}
										}
									]
								},
								"CourseAttachmentType" : 
								{
									"Type" : "Enum[CourseAttachmentTypeVm] as Int32",
									"Get Visibility" : "Public",
									"Set Visibility" : "Public",
									"Enum Values" : 
									[
										"Content" : "1"
										"Cover" : "2"
									]
								},
								"CourseId" : 
								{
									"Type" : "System.Int32",
									"Get Visibility" : "Public",
									"Set Visibility" : "Public"
								},
								"CourseSubAttachments" : 
								{
									"Type" : "System.Collections.Generic.List`1[[ChaiTea.BusinessLogic.ViewModels.Courses.CourseSubAttachmentVm, ChaiTea.BusinessLogic, Version=0.0.0.0, Culture=neutral, PublicKeyToken=null]]",
									"Get Visibility" : "Public",
									"Set Visibility" : "Public",
									"Nested Fields" :
									[
										{
											"Attachment" : 
											{
												"Type" : "ChaiTea.BusinessLogic.ViewModels.Utils.Attachments.AttachmentVm",
												"Get Visibility" : "Public",
												"Set Visibility" : "Public",
												"Nested Fields" :
"AttachmentVm"
											},
											"AttachmentId" : 
											{
												"Type" : "System.Int32",
												"Get Visibility" : "Public",
												"Set Visibility" : "Public"
											},
											"CourseAttachmentId" : 
											{
												"Type" : "System.Int32",
												"Get Visibility" : "Public",
												"Set Visibility" : "Public"
											},
											"CourseAttachmentType" : 
											{
												"Type" : "Enum[CourseAttachmentTypeVm] as Int32",
												"Get Visibility" : "Public",
												"Set Visibility" : "Public",
												"Enum Values" : 
												[
													"Content" : "1"
													"Cover" : "2"
												]
											},
											"CourseSubAttachmentId" : 
											{
												"Type" : "System.Int32",
												"Get Visibility" : "Public",
												"Set Visibility" : "Public"
											},
											"Language" : 
											{
												"Type" : "ChaiTea.BusinessLogic.ViewModels.Utils.Translation.LanguageVm",
												"Get Visibility" : "Public",
												"Set Visibility" : "Public",
												"Nested Fields" :
												{
													"Code" : 
													{
														"Type" : "System.String",
														"Get Visibility" : "Public",
														"Set Visibility" : "Public"
													},
													"LanguageId" : 
													{
														"Type" : "System.Int32",
														"Get Visibility" : "Public",
														"Set Visibility" : "Public"
													},
													"Name" : 
													{
														"Type" : "System.String",
														"Get Visibility" : "Public",
														"Set Visibility" : "Public"
													}
												}
											},
											"LanguageId" : 
											{
												"Type" : "System.Int32",
												"Get Visibility" : "Public",
												"Set Visibility" : "Public"
											},
											"OrderPriority" : 
											{
												"Type" : "System.Int32",
												"Get Visibility" : "Public",
												"Set Visibility" : "Public"
											}
										}
									]
								},
								"Language" : 
								{
									"Type" : "ChaiTea.BusinessLogic.ViewModels.Utils.Translation.LanguageVm",
									"Get Visibility" : "Public",
									"Set Visibility" : "Public",
									"Nested Fields" :
"LanguageVm"
								},
								"LanguageId" : 
								{
									"Type" : "System.Int32",
									"Get Visibility" : "Public",
									"Set Visibility" : "Public"
								},
								"OrderPriority" : 
								{
									"Type" : "System.Int32",
									"Get Visibility" : "Public",
									"Set Visibility" : "Public"
								},
								"Views" : 
								{
									"Type" : "System.Int32",
									"Get Visibility" : "Public",
									"Set Visibility" : "Public"
								}
							}
						]
					},
					"CourseId" : 
					{
						"Type" : "System.Int32",
						"Get Visibility" : "Public",
						"Set Visibility" : "Public"
					},
					"CourseType" : 
					{
						"Type" : "ChaiTea.BusinessLogic.ViewModels.Courses.CourseTypeVm",
						"Get Visibility" : "Public",
						"Set Visibility" : "Public",
						"Nested Fields" :
						{
							"CourseTypeId" : 
							{
								"Type" : "System.Int32",
								"Get Visibility" : "Public",
								"Set Visibility" : "Public"
							},
							"Icon" : 
							{
								"Type" : "System.String",
								"Get Visibility" : "Public",
								"Set Visibility" : "Public"
							},
							"Name" : 
							{
								"Type" : "System.String",
								"Get Visibility" : "Public",
								"Set Visibility" : "Public"
							}
						}
					},
					"CourseTypeId" : 
					{
						"Type" : "System.Int32",
						"Get Visibility" : "Public",
						"Set Visibility" : "Public"
					},
					"CreateDate" : 
					{
						"Type" : "System.DateTime",
						"Get Visibility" : "Public",
						"Set Visibility" : "Public"
					},
					"DeadlineHire" : 
					{
						"Type" : "System.Int32",
						"Get Visibility" : "Public",
						"Set Visibility" : "Public"
					},
					"DeadlineHireType" : 
					{
						"Type" : "System.String",
						"Get Visibility" : "Public",
						"Set Visibility" : "Public"
					},
					"EmployeeFirstName" : 
					{
						"Type" : "System.String",
						"Get Visibility" : "Public",
						"Set Visibility" : "Public"
					},
					"EmployeeId" : 
					{
						"Type" : "System.Int32",
						"Get Visibility" : "Public",
						"Set Visibility" : "Public"
					},
					"EmployeeLastName" : 
					{
						"Type" : "System.String",
						"Get Visibility" : "Public",
						"Set Visibility" : "Public"
					},
					"IsFeatured" : 
					{
						"Type" : "System.Boolean",
						"Get Visibility" : "Public",
						"Set Visibility" : "Public"
					},
					"Name" : 
					{
						"Type" : "System.String",
						"Get Visibility" : "Public",
						"Set Visibility" : "Public"
					},
					"OrgClient" : 
					{
						"Type" : "ChaiTea.BusinessLogic.ViewModels.Organizations.OrgVm",
						"Get Visibility" : "Public",
						"Set Visibility" : "Public",
						"Nested Fields" :
						{
							"Id" : 
							{
								"Type" : "System.Int32",
								"Get Visibility" : "Public",
								"Set Visibility" : "Public"
							},
							"IsUserMapped" : 
							{
								"Type" : "System.Boolean",
								"Get Visibility" : "Public",
								"Set Visibility" : "Public"
							},
							"Latitude" : 
							{
								"Type" : "System.Double?",
								"Get Visibility" : "Public",
								"Set Visibility" : "Public"
							},
							"Longitude" : 
							{
								"Type" : "System.Double?",
								"Get Visibility" : "Public",
								"Set Visibility" : "Public"
							},
							"Name" : 
							{
								"Type" : "System.String",
								"Get Visibility" : "Public",
								"Set Visibility" : "Public"
							}
						}
					},
					"OrgSite" : 
					{
						"Type" : "ChaiTea.BusinessLogic.ViewModels.Organizations.OrgVm",
						"Get Visibility" : "Public",
						"Set Visibility" : "Public",
						"Nested Fields" :
"OrgVm"
					},
					"OrgType" : 
					{
						"Type" : "Enum[OrgTypeVm] as Int32",
						"Get Visibility" : "Public",
						"Set Visibility" : "Public",
						"Enum Values" : 
						[
							"Organization" : "1"
							"Region" : "2"
							"Division" : "3"
							"Client" : "4"
							"Site" : "5"
						]
					},
					"Overview" : 
					{
						"Type" : "System.String",
						"Get Visibility" : "Public",
						"Set Visibility" : "Public"
					},
					"RetakeAfter" : 
					{
						"Type" : "System.Int32",
						"Get Visibility" : "Public",
						"Set Visibility" : "Public"
					},
					"RetakeAfterType" : 
					{
						"Type" : "System.String",
						"Get Visibility" : "Public",
						"Set Visibility" : "Public"
					},
					"Tags" : 
					{
						"Type" : "System.Collections.Generic.List`1[[ChaiTea.BusinessLogic.ViewModels.Utils.Tagging.TagVm, ChaiTea.BusinessLogic, Version=0.0.0.0, Culture=neutral, PublicKeyToken=null]]",
						"Get Visibility" : "Public",
						"Set Visibility" : "Public",
						"Nested Fields" :
						[
							{
								"Name" : 
								{
									"Type" : "System.String",
									"Get Visibility" : "Public",
									"Set Visibility" : "Public"
								},
								"TagId" : 
								{
									"Type" : "System.Int32",
									"Get Visibility" : "Public",
									"Set Visibility" : "Public"
								}
							}
						]
					}
				}
			},
			"CourseId" : 
			{
				"Type" : "System.Int32",
				"Get Visibility" : "Public",
				"Set Visibility" : "Public"
			},
			"CreateDate" : 
			{
				"Type" : "System.DateTime",
				"Get Visibility" : "Public",
				"Set Visibility" : "Public"
			},
			"DueDate" : 
			{
				"Type" : "System.DateTime?",
				"Get Visibility" : "Public",
				"Set Visibility" : "Public"
			},
			"Employee" : 
			{
				"Type" : "ChaiTea.BusinessLogic.ViewModels.Courses.CourseEmployeeVm",
				"Get Visibility" : "Public",
				"Set Visibility" : "Public",
				"Nested Fields" :
				{
					"EmployeeCourses" : 
					{
						"Type" : "System.Collections.Generic.List`1[[ChaiTea.BusinessLogic.ViewModels.Courses.EmployeeCourseVm, ChaiTea.BusinessLogic, Version=0.0.0.0, Culture=neutral, PublicKeyToken=null]]",
						"Get Visibility" : "Public",
						"Set Visibility" : "Public",
						"Nested Fields" :
						[
"EmployeeCourseVm"
						]
					},
					"HireDate" : 
					{
						"Type" : "System.DateTime?",
						"Get Visibility" : "Public",
						"Set Visibility" : "Public"
					},
					"Id" : 
					{
						"Type" : "System.Int32",
						"Get Visibility" : "Public",
						"Set Visibility" : "Public"
					},
					"Name" : 
					{
						"Type" : "System.String",
						"Get Visibility" : "Public",
						"Set Visibility" : "Public"
					},
					"OrgUserId" : 
					{
						"Type" : "System.Int32",
						"Get Visibility" : "Public",
						"Set Visibility" : "Public"
					}
				}
			},
			"EmployeeCourseId" : 
			{
				"Type" : "System.Int32",
				"Get Visibility" : "Public",
				"Set Visibility" : "Public"
			},
			"IsCompleted" : 
			{
				"Type" : "System.Boolean",
				"Get Visibility" : "Public",
				"Set Visibility" : "Public"
			},
			"OrgUserId" : 
			{
				"Type" : "System.Int32",
				"Get Visibility" : "Public",
				"Set Visibility" : "Public"
			}
		}
	]
}

}
