{
"Controller": "TrainingReportController",
"Action" : "OwnershipCount",
"HttpMethods": {"GET"},
"Parameters": 
{
	"startDate" : "System.DateTime",
	"endDate" : "System.DateTime",
	"isEmployee" : "System.Boolean"
},
"Return Type" : "System.Web.Http.IHttpActionResult",
"Returned Fields" :
"Unknown"
}
