{
"Controller": "EmployeeBonusesController",
"Action" : "UpdateListAsync",
"HttpMethods": {"PUT"},
"Parameters": 
{
	"employeeBonuses" : {
	"Type" : "System.Collections.Generic.List`1[[ChaiTea.BusinessLogic.ViewModels.KeyPerformanceIndicators.EmployeeBonusVm, ChaiTea.BusinessLogic, Version=0.0.0.0, Culture=neutral, PublicKeyToken=null]]",
	"Containing" :
	[
		{
			"BonusAmount" : 
			{
				"Type" : "System.Decimal",
				"Get Visibility" : "Public",
				"Set Visibility" : "Public"
			},
			"EmployeeId" : 
			{
				"Type" : "System.Int32",
				"Get Visibility" : "Public",
				"Set Visibility" : "Public"
			},
			"EmployeeKpiMasterId" : 
			{
				"Type" : "System.Int32",
				"Get Visibility" : "Public",
				"Set Visibility" : "Public"
			},
			"IsPass" : 
			{
				"Type" : "System.Boolean?",
				"Get Visibility" : "Public",
				"Set Visibility" : "Public"
			},
			"Month" : 
			{
				"Type" : "System.Int32",
				"Get Visibility" : "Public",
				"Set Visibility" : "Public"
			},
			"Year" : 
			{
				"Type" : "System.Int32",
				"Get Visibility" : "Public",
				"Set Visibility" : "Public"
			}
		}
	]
}

},
"Return Type" : "System.Void",
"Returned Fields" :
"System.Void"
}
