{
	"Email" : "String",
	"EmployeeEquipment" : 
	[
		{
			"EquipmentId" : "Int32",
			"Name" : "String"
		}
	],
	"EmployeeId" : "Int32",
	"EmployeeTasks" : 
	[
		{
			"JobTaskId" : "Int32",
			"Name" : "String"
		}
	],
	"FunFacts" : "String",
	"HireDate" : "DateTime?",
	"JobContract" : 
	{
		"ContractAttachments" : 
		[
			{
				"AttachmentType" : "Int32",
				"ContractAttachmentId" : "Int32",
				"ContractAttachmentType" : "Int32",
				"CreateDate" : "DateTime",
				"Description" : "String",
				"Name" : "String",
				"UniqueId" : "String",
				"UpdateDate" : "DateTime?"
			}
		],
		"ContractId" : "Int32",
		"EmployeeId" : "Int32",
		"UpdateDate" : "DateTime?"
	},
	"JobDescription" : 
	{
		"Abbreviation" : "String",
		"ApprovedBy" : "String",
		"ApprovedDate" : "DateTime?",
		"Department" : "String",
		"DutySummary" : "String",
		"EssentialDutiesAndResponsibilitiesLabel" : "String",
		"EssentialDutiesSummaryLabel" : "String",
		"ExampleOfTasksLabel" : "String",
		"ExemptionTypeId" : "Int32?",
		"ExternalJobCode" : "String",
		"JobDuties" : 
		[
			{
				"Description" : "String",
				"DutyId" : "Int32",
			}
		],
		"JobId" : "Int32",
		"JobStep" : "String",
		"Layer" : "String",
		"LegalDescriptions" : 
		[
			{
				"Description" : "String",
				"LegalDescriptionId" : "Int32",
				"Name" : "String"
			}
		],
		"LegalDescriptionSummary" : "String",
		"Name" : "String",
		"PreparedBy" : "String",
		"Purpose" : "String",
		"ReportsTo" : "String",
		"SampleTasks" : 
		[
			{
				"Name" : "String",
				"SampleTaskId" : "Int32"
			}
		],
		"SampleTaskSummary" : "String",
		"Summary" : "String",
		"UpdateDate" : "DateTime?",
		"UpdatedBy" : "String",
		"WorkEnvironment" : "String"
	},
	"Name" : "String",
	"PhoneNumber" : "String",
	"Supervisor" : 
	{
		"Email" : "String",
		"JobDescription" : "String",
		"Manager" : 
		{
			"Email" : "String",
			"JobDescription" : "String",
			"ManagerId" : "Int32",
			"Name" : "String",
			"PhoneNumber" : "String",
			"ProfilePictureUniqueId" : "String"
		},
		"Name" : "String",
		"PhoneNumber" : "String",
		"ProfilePictureUniqueId" : "String",
		"SupervisorId" : "Int32"
	},
	"UpdateDate" : "DateTime?",
	"UpdatedBy" : "String",
	"UserAttachments" : 
	[
		{
			"AttachmentType" : "Int32",
			"Description" : "String",
			"Name" : "String",
			"UniqueId" : "String",
			"UserAttachmentId" : "Int32",
			"UserAttachmentType" : "Int32"
		}
	]
}
