{
"Controller": "ConductIssueController",
"Action" : "GetMonthlyTrend",
"HttpMethods": {"GET"},
"Parameters": 
{
	"startDate" : "System.DateTime",
	"endDate" : "System.DateTime",
	"conductTypeId" : "System.Int32"
},
"Return Type" : "System.Collections.Generic.List`1[[ChaiTea.BusinessLogic.ViewModels.Assessments.ConductIssues.ConductCountsByPeriodVm, ChaiTea.BusinessLogic, Version=0.0.0.0, Culture=neutral, PublicKeyToken=null]]",
"Returned Fields" :
{
	"Type" : "System.Collections.Generic.List`1[[ChaiTea.BusinessLogic.ViewModels.Assessments.ConductIssues.ConductCountsByPeriodVm, ChaiTea.BusinessLogic, Version=0.0.0.0, Culture=neutral, PublicKeyToken=null]]",
	"Containing" :
	[
		{
			"Count" : 
			{
				"Type" : "System.Int32",
				"Get Visibility" : "Public",
				"Set Visibility" : "Public"
			},
			"Month" : 
			{
				"Type" : "System.Int32",
				"Get Visibility" : "Public",
				"Set Visibility" : "Public"
			},
			"Year" : 
			{
				"Type" : "System.Int32",
				"Get Visibility" : "Public",
				"Set Visibility" : "Public"
			}
		}
	]
}

}
