{
"Controller": "QuickCommentController",
"Action" : "Delete",
"HttpMethods": {"DELETE"},
"Parameters": 
{
	"id" : "System.Int32"
},
"Return Type" : "System.Void",
"Returned Fields" :
"System.Void"
}
