[
	{
		"AuditInspectionItemName" : "String",
		"Comment" : "String",
		"Score" : "Double?",
		"ScorecardDetailId" : "Int32",
		"ScorecardDetailImages" : 
		[
			{
				"Comment" : "String",
				"ImageId" : "Int32",
				"PublicId" : "String",
				"ScorecardDetailId" : "Int32"
			}
		],
		"ScorecardSectionId" : "Int32",
		"TodoItems" : 
		[
			{
				"Comment" : "String",
				"CreateByAttachments" : 
				[
					{
						"AttachmentType" : "Int32",
						"Description" : "String",
						"Name" : "String",
						"UniqueId" : "String",
						"UserAttachmentId" : "Int32",
						"UserAttachmentType" : "Int32"
					}
				],
				"CreateDate" : "DateTime",
				"DueDate" : "DateTime",
				"IsComplete" : "Boolean",
				"IsNew" : "Boolean",
				"LastSeenDate" : "DateTime?",
				"OrgUserId" : "Int32",
				"OrgUserName" : "String",
				"ScorecardDetailId" : "Int32",
				"TodoItemId" : "Int32",
				"UpdateDate" : "DateTime?"
			}
		]
	}
]
