{
	"ComplaintControlLimit" : "Double",
	"ScoringProfileGoal" : "Double",
	"ScoringProfileId" : "Int32",
	"ScoringProfileMaximumScore" : "Int32",
	"ScoringProfileMinimumScore" : "Int32",
	"SiteId" : "Int32",
	"SiteReportSettingId" : "Int32",
	"SurveyControlLimit" : "Double"
}
