{
"Controller": "TodoItemController",
"Action" : "GetMonthlyTrend",
"HttpMethods": {"GET"},
"Parameters": 
{
	"startDate" : "System.DateTime",
	"endDate" : "System.DateTime"
},
"Return Type" : "System.Collections.Generic.IEnumerable`1[[ChaiTea.BusinessLogic.ViewModels.ActionRequests.Tasks.ToDoCountsByPeriodVm, ChaiTea.BusinessLogic, Version=0.0.0.0, Culture=neutral, PublicKeyToken=null]]",
"Returned Fields" :
{
	"Type" : "System.Collections.Generic.IEnumerable`1[[ChaiTea.BusinessLogic.ViewModels.ActionRequests.Tasks.ToDoCountsByPeriodVm, ChaiTea.BusinessLogic, Version=0.0.0.0, Culture=neutral, PublicKeyToken=null]]",
	"Containing" :
	[
		{
			"Closed" : 
			{
				"Type" : "System.Int32",
				"Get Visibility" : "Public",
				"Set Visibility" : "Public"
			},
			"ClosedOnTime" : 
			{
				"Type" : "System.Int32",
				"Get Visibility" : "Public",
				"Set Visibility" : "Public"
			},
			"Month" : 
			{
				"Type" : "System.Int32",
				"Get Visibility" : "Public",
				"Set Visibility" : "Public"
			},
			"PastDue" : 
			{
				"Type" : "System.Int32",
				"Get Visibility" : "Public",
				"Set Visibility" : "Public"
			},
			"Year" : 
			{
				"Type" : "System.Int32",
				"Get Visibility" : "Public",
				"Set Visibility" : "Public"
			}
		}
	]
}

}
