[
	{
		"BuildingId" : "Int32",
		"BuildingName" : "String",
		"Comment" : "String",
		"CreateByAttachments" : 
		[
			{
				"AttachmentType" : "Int32",
				"Description" : "String",
				"Name" : "String",
				"UniqueId" : "String",
				"UserAttachmentId" : "Int32",
				"UserAttachmentType" : "Int32"
			}
		],
		"CreateByName" : "String",
		"CreateDate" : "DateTime",
		"DueDate" : "DateTime",
		"EmployeeId" : "Int32?",
		"FloorId" : "Int32",
		"FloorName" : "String",
		"IsComplete" : "Boolean",
		"IsNew" : "Boolean",
		"IsOrgUserActive" : "Boolean",
		"LastSeenDate" : "DateTime?",
		"OrgUserId" : "Int32",
		"OrgUserName" : "String",
		"ScorecardDetailId" : "Int32?",
		"ScorecardId" : "Int32?",
		"SourceLanguageId" : "Int32?",
		"TodoItemId" : "Int32",
		"UpdateDate" : "DateTime?",
		"UserAttachment" : 
"List`1"
	}
]
