{
"Controller": "TodoItemController",
"Action" : "GetEmployeeCounts",
"HttpMethods": {"GET"},
"Parameters": 
{
	"startDate" : "System.DateTime",
	"endDate" : "System.DateTime",
	"employeeId" : "System.Int32",
	"filterByFailedInspectionItem" : "System.Boolean?",
	"filterByReAudit" : "System.Boolean?",
	"buildingId" : "System.Int32?"
},
"Return Type" : "ChaiTea.BusinessLogic.ViewModels.ActionRequests.Tasks.ToDoCountsVm",
"Returned Fields" :
{
	"Closed" : 
	{
		"Type" : "System.Int32",
		"Get Visibility" : "Public",
		"Set Visibility" : "Public"
	},
	"ClosedOnTime" : 
	{
		"Type" : "System.Int32",
		"Get Visibility" : "Public",
		"Set Visibility" : "Public"
	},
	"LastClosedDate" : 
	{
		"Type" : "System.DateTime?",
		"Get Visibility" : "Public",
		"Set Visibility" : "Public"
	},
	"LastOpenDate" : 
	{
		"Type" : "System.DateTime?",
		"Get Visibility" : "Public",
		"Set Visibility" : "Public"
	},
	"OldestIncompleteDate" : 
	{
		"Type" : "System.DateTime?",
		"Get Visibility" : "Public",
		"Set Visibility" : "Public"
	},
	"Open" : 
	{
		"Type" : "System.Int32",
		"Get Visibility" : "Public",
		"Set Visibility" : "Public"
	},
	"PastDue" : 
	{
		"Type" : "System.Int32",
		"Get Visibility" : "Public",
		"Set Visibility" : "Public"
	}
}
}
