{
"Controller": "BoxScoreController",
"Action" : "GetEmployeesTrainingComplianceMetric",
"HttpMethods": {"GET"},
"Parameters": 
{
	"startDate" : "System.DateTime",
	"endDate" : "System.DateTime"
},
"Return Type" : "System.Collections.Generic.List`1[[ChaiTea.BusinessLogic.ViewModels.Employment.EmployeeMetricVm, ChaiTea.BusinessLogic, Version=0.0.0.0, Culture=neutral, PublicKeyToken=null]]",
"Returned Fields" :
{
	"Type" : "System.Collections.Generic.List`1[[ChaiTea.BusinessLogic.ViewModels.Employment.EmployeeMetricVm, ChaiTea.BusinessLogic, Version=0.0.0.0, Culture=neutral, PublicKeyToken=null]]",
	"Containing" :
	[
		{
			"EmployeeId" : 
			{
				"Type" : "System.Int32",
				"Get Visibility" : "Public",
				"Set Visibility" : "Public"
			},
			"Metric" : 
			{
				"Type" : "System.Double?",
				"Get Visibility" : "Public",
				"Set Visibility" : "Public"
			}
		}
	]
}

}
