{
"Controller": "FinanceReportController",
"Action" : "SpendByIsGreen",
"HttpMethods": {"GET"},
"Parameters": 
{
	"startDate" : "System.DateTime",
	"endDate" : "System.DateTime",
	"isGreen" : "System.Boolean?"
},
"Return Type" : "System.Collections.Generic.IEnumerable`1[[ChaiTea.BusinessLogic.Reporting.Financials.ViewModels.ReportSpendByIsGreenVm, ChaiTea.BusinessLogic, Version=0.0.0.0, Culture=neutral, PublicKeyToken=null]]",
"Returned Fields" :
{
	"Type" : "System.Collections.Generic.IEnumerable`1[[ChaiTea.BusinessLogic.Reporting.Financials.ViewModels.ReportSpendByIsGreenVm, ChaiTea.BusinessLogic, Version=0.0.0.0, Culture=neutral, PublicKeyToken=null]]",
	"Containing" :
	[
		{
			"Id" : 
			{
				"Type" : "System.Int32?",
				"Get Visibility" : "Public",
				"Set Visibility" : "Public"
			},
			"IsGreen" : 
			{
				"Type" : "System.Boolean",
				"Get Visibility" : "Public",
				"Set Visibility" : "Public"
			},
			"Name" : 
			{
				"Type" : "System.String",
				"Get Visibility" : "Public",
				"Set Visibility" : "Public"
			},
			"Percentage" : 
			{
				"Type" : "System.Decimal",
				"Get Visibility" : "Public",
				"Set Visibility" : "Public"
			}
		}
	]
}

}
