{
	"EmployeeId" : "Int32?",
	"EmployeeName" : "String",
	"EmployeeTitle" : "String",
	"FloorId" : "Int32",
	"IncidentId" : "String",
	"UserAttachments" : 
	[
		{
			"AttachmentType" : "Int32",
			"Description" : "String",
			"Name" : "String",
			"UniqueId" : "String",
			"UserAttachmentId" : "Int32",
			"UserAttachmentType" : "Int32"
		}
	]
}
