{
"Controller": "FinanceReportController",
"Action" : "MonthlyProductTrends",
"HttpMethods": {"GET"},
"Parameters": 
{
	"startDate" : "System.DateTime",
	"endDate" : "System.DateTime"
},
"Return Type" : "ChaiTea.BusinessLogic.Reporting.Financials.ViewModels.ReportMonthlyProductTrendsVm",
"Returned Fields" :
{
	"Categories" : 
	{
		"Type" : "System.Collections.Generic.Dictionary`2[[System.String, mscorlib, Version=4.0.0.0, Culture=neutral, PublicKeyToken=b77a5c561934e089],[System.Collections.Generic.List`1[[System.Decimal, mscorlib, Version=4.0.0.0, Culture=neutral, PublicKeyToken=b77a5c561934e089]], mscorlib, Version=4.0.0.0, Culture=neutral, PublicKeyToken=b77a5c561934e089]]",
		"Get Visibility" : "Public",
		"Set Visibility" : "Public",
		"Nested Fields" :
		[
		{
"String",
			{
				"Type" : "System.Collections.Generic.List`1[[System.Decimal, mscorlib, Version=4.0.0.0, Culture=neutral, PublicKeyToken=b77a5c561934e089]]",
				"Containing" :
				[
			"Decimal"
				]
			}

		}
		]
	},
	"Labels" : 
	{
		"Type" : "System.Collections.Generic.List`1[[System.String, mscorlib, Version=4.0.0.0, Culture=neutral, PublicKeyToken=b77a5c561934e089]]",
		"Get Visibility" : "Public",
		"Set Visibility" : "Public",
		"Nested Fields" :
		[
"String"
		]
	}
}
}
