{
"Controller": "FloorController",
"Action" : "GetAreas",
"HttpMethods": {"GET"},
"Parameters": 
{
	"floorId" : "System.Int32"
},
"Return Type" : "System.Linq.IQueryable`1[[ChaiTea.BusinessLogic.ViewModels.Facilities.AreaVm, ChaiTea.BusinessLogic, Version=0.0.0.0, Culture=neutral, PublicKeyToken=null]]",
"Returned Fields" :
{
	"Type" : "System.Linq.IQueryable`1[[ChaiTea.BusinessLogic.ViewModels.Facilities.AreaVm, ChaiTea.BusinessLogic, Version=0.0.0.0, Culture=neutral, PublicKeyToken=null]]",
	"Containing" :
	[
		{
			"Id" : 
			{
				"Type" : "System.Int32",
				"Get Visibility" : "Public",
				"Set Visibility" : "Public"
			},
			"Name" : 
			{
				"Type" : "System.String",
				"Get Visibility" : "Public",
				"Set Visibility" : "Public"
			}
		}
	]
}

}
