{
	"AuditDate" : "DateTime",
	"AuditorAttachments" : 
	[
		{
			"AttachmentType" : "Int32",
			"Description" : "String",
			"Name" : "String",
			"UniqueId" : "String",
			"UserAttachmentId" : "Int32",
			"UserAttachmentType" : "Int32"
		}
	],
	"AuditorId" : "Int32",
	"AuditorName" : "String",
	"Average" : "Double?",
	"BuildingId" : "Int32",
	"BuildingName" : "String",
	"Comment" : "String",
	"CustomerRepresentatives" : 
	[
		{
			"CustomerRepresentativeId" : "Int32",
			"Email" : "String",
			"JobDescription" : "String",
			"Name" : "String"
		}
	],
	"FloorId" : "Int32",
	"FloorName" : "String",
	"InProgress" : "Boolean",
	"IsJointAudit" : "Boolean",
	"MaximumScore" : "Int32",
	"MinimumScore" : "Int32",
	"ParentScorecardId" : "Int32?",
	"ProfileId" : "Int32",
	"ProgramId" : "Int32",
	"ProgramName" : "String",
	"ScorecardId" : "Int32",
	"ScorecardSections" : 
	[
		{
			"AreaClassificationId" : "Int32",
			"AreaClassificationName" : "String",
			"AreaId" : "Int32",
			"AreaName" : "String",
			"ScorecardDetails" : 
			[
				{
					"AuditInspectionItemName" : "String",
					"Comment" : "String",
					"Score" : "Double?",
					"ScorecardDetailId" : "Int32",
					"ScorecardDetailImages" : 
					[
						{
							"Comment" : "String",
							"ImageId" : "Int32",
							"PublicId" : "String",
							"ScorecardDetailId" : "Int32"
						}
					],
					"ScorecardSectionId" : "Int32",
					"TodoItems" : 
					[
						{
							"Comment" : "String",
							"CreateByAttachments" : 
"List`1",
							"CreateDate" : "DateTime",
							"DueDate" : "DateTime",
							"IsComplete" : "Boolean",
							"IsNew" : "Boolean",
							"LastSeenDate" : "DateTime?",
							"OrgUserId" : "Int32",
							"OrgUserName" : "String",
							"ScorecardDetailId" : "Int32",
							"TodoItemId" : "Int32",
							"UpdateDate" : "DateTime?"
						}
					]
				}
			],
			"ScorecardSectionId" : "Int32"
		}
	],
	"SiteId" : "Int32",
	"SiteName" : "String",
	"UpdateDate" : "DateTime?"
}
