{
"Controller": "ApplicationRoleController",
"Action" : "Put",
"HttpMethods": {"PUT"},
"Parameters": 
{
	"id" : "System.Int32",
	"vm" : {
	"Id" : 
	{
		"Type" : "System.Int32",
		"Get Visibility" : "Public",
		"Set Visibility" : "Public"
	},
	"Name" : 
	{
		"Type" : "System.String",
		"Get Visibility" : "Public",
		"Set Visibility" : "Public"
	}
}
},
"Return Type" : "System.Void",
"Returned Fields" :
"System.Void"
}
