{
"Controller": "JobPurposeController",
"Action" : "Put",
"HttpMethods": {"PUT"},
"Parameters": 
{
	"id" : "System.Int32",
	"vm" : {
	"ClientId" : 
	{
		"Type" : "System.Int32",
		"Get Visibility" : "Public",
		"Set Visibility" : "Public"
	},
	"Description" : 
	{
		"Type" : "System.String",
		"Get Visibility" : "Public",
		"Set Visibility" : "Public"
	},
	"JobId" : 
	{
		"Type" : "System.Int32",
		"Get Visibility" : "Public",
		"Set Visibility" : "Public"
	},
	"JobPurposeId" : 
	{
		"Type" : "System.Int32",
		"Get Visibility" : "Public",
		"Set Visibility" : "Public"
	},
}
},
"Return Type" : "System.Void",
"Returned Fields" :
"System.Void"
}
