{
"Controller": "TrainingEmployeeController",
"Action" : "Put",
"HttpMethods": {"PUT"},
"Parameters": 
{
	"id" : "System.Int32",
	"vm" : {
	"AreaCount" : 
	{
		"Type" : "System.Int32",
		"Get Visibility" : "Public",
		"Set Visibility" : "Public"
	},
	"Email" : 
	{
		"Type" : "System.String",
		"Get Visibility" : "Public",
		"Set Visibility" : "Public"
	},
	"EmployeeAttributes" : 
	{
		"Type" : "System.Collections.Generic.List`1[[ChaiTea.BusinessLogic.ViewModels.Employment.EmployeeAttributeVm, ChaiTea.BusinessLogic, Version=0.0.0.0, Culture=neutral, PublicKeyToken=null]]",
		"Get Visibility" : "Public",
		"Set Visibility" : "Public",
		"Nested Fields" :
		[
			{
				"AttributeId" : 
				{
					"Type" : "System.Int32",
					"Get Visibility" : "Public",
					"Set Visibility" : "Public"
				},
				"AttributeValue" : 
				{
					"Type" : "System.String",
					"Get Visibility" : "Public",
					"Set Visibility" : "Public"
				},
				"EmployeeAttributeId" : 
				{
					"Type" : "System.Int32",
					"Get Visibility" : "Public",
					"Set Visibility" : "Public"
				},
				"EmployeeId" : 
				{
					"Type" : "System.Int32",
					"Get Visibility" : "Public",
					"Set Visibility" : "Public"
				}
			}
		]
	},
	"EmployeeEquipment" : 
	{
		"Type" : "System.Collections.Generic.List`1[[ChaiTea.BusinessLogic.ViewModels.Employment.EquipmentVm, ChaiTea.BusinessLogic, Version=0.0.0.0, Culture=neutral, PublicKeyToken=null]]",
		"Get Visibility" : "Public",
		"Set Visibility" : "Public",
		"Nested Fields" :
		[
			{
				"EquipmentId" : 
				{
					"Type" : "System.Int32",
					"Get Visibility" : "Public",
					"Set Visibility" : "Public"
				},
				"Name" : 
				{
					"Type" : "System.String",
					"Get Visibility" : "Public",
					"Set Visibility" : "Public"
				}
			}
		]
	},
	"EmployeeId" : 
	{
		"Type" : "System.Int32",
		"Get Visibility" : "Public",
		"Set Visibility" : "Public"
	},
	"EmployeeTasks" : 
	{
		"Type" : "System.Collections.Generic.List`1[[ChaiTea.BusinessLogic.ViewModels.Employment.JobTaskVm, ChaiTea.BusinessLogic, Version=0.0.0.0, Culture=neutral, PublicKeyToken=null]]",
		"Get Visibility" : "Public",
		"Set Visibility" : "Public",
		"Nested Fields" :
		[
			{
				"JobTaskId" : 
				{
					"Type" : "System.Int32",
					"Get Visibility" : "Public",
					"Set Visibility" : "Public"
				},
				"Name" : 
				{
					"Type" : "System.String",
					"Get Visibility" : "Public",
					"Set Visibility" : "Public"
				}
			}
		]
	},
	"ExternalEmployeeId" : 
	{
		"Type" : "System.String",
		"Get Visibility" : "Public",
		"Set Visibility" : "Public"
	},
	"FunFacts" : 
	{
		"Type" : "System.String",
		"Get Visibility" : "Public",
		"Set Visibility" : "Public"
	},
	"HireDate" : 
	{
		"Type" : "System.DateTime?",
		"Get Visibility" : "Public",
		"Set Visibility" : "Public"
	},
	"JobDescription" : 
	{
		"Type" : "ChaiTea.BusinessLogic.ViewModels.Employment.ConciseJobVm",
		"Get Visibility" : "Public",
		"Set Visibility" : "Public",
		"Nested Fields" :
		{
			"JobId" : 
			{
				"Type" : "System.Int32",
				"Get Visibility" : "Public",
				"Set Visibility" : "Public"
			},
			"Name" : 
			{
				"Type" : "System.String",
				"Get Visibility" : "Public",
				"Set Visibility" : "Public"
			}
		}
	},
	"Name" : 
	{
		"Type" : "System.String",
		"Get Visibility" : "Public",
		"Set Visibility" : "Public"
	},
	"Phone" : 
	{
		"Type" : "System.String",
		"Get Visibility" : "Public",
		"Set Visibility" : "Public"
	},
	"PhoneNumber" : 
	{
		"Type" : "System.String",
		"Get Visibility" : "Public",
		"Set Visibility" : "Public"
	},
	"SupervisorEmail" : 
	{
		"Type" : "System.String",
		"Get Visibility" : "Public",
		"Set Visibility" : "Public"
	},
	"SupervisorId" : 
	{
		"Type" : "System.Int32?",
		"Get Visibility" : "Public",
		"Set Visibility" : "Public"
	},
	"SupervisorPhoneNumber" : 
	{
		"Type" : "System.String",
		"Get Visibility" : "Public",
		"Set Visibility" : "Public"
	},
	"UserAttachments" : 
	{
		"Type" : "System.Collections.Generic.List`1[[ChaiTea.BusinessLogic.ViewModels.Personnel.UserAttachmentVm, ChaiTea.BusinessLogic, Version=0.0.0.0, Culture=neutral, PublicKeyToken=null]]",
		"Get Visibility" : "Public",
		"Set Visibility" : "Public",
		"Nested Fields" :
		[
			{
				"AttachmentType" : 
				{
					"Type" : "Enum[AttachmentTypeVm] as Int32",
					"Get Visibility" : "Public",
					"Set Visibility" : "Public",
					"Enum Values" : 
					[
						"Image" : "1"
						"Video" : "2"
						"Audio" : "3"
						"Pdf" : "4"
						"File" : "5"
					]
				},
				"Description" : 
				{
					"Type" : "System.String",
					"Get Visibility" : "Public",
					"Set Visibility" : "Public"
				},
				"Name" : 
				{
					"Type" : "System.String",
					"Get Visibility" : "Public",
					"Set Visibility" : "Public"
				},
				"UniqueId" : 
				{
					"Type" : "System.String",
					"Get Visibility" : "Public",
					"Set Visibility" : "Public"
				},
				"UserAttachmentId" : 
				{
					"Type" : "System.Int32",
					"Get Visibility" : "Public",
					"Set Visibility" : "Public"
				},
				"UserAttachmentType" : 
				{
					"Type" : "Enum[UserAttachmentTypeVm] as Int32",
					"Get Visibility" : "Public",
					"Set Visibility" : "Public",
					"Enum Values" : 
					[
						"ProfilePicture" : "1"
						"SocialPicture" : "2"
						"BackgroundPicture" : "3"
					]
				}
			}
		]
	}
}
},
"Return Type" : "ChaiTea.BusinessLogic.ViewModels.Employment.TrainingEmployeeVm",
"Returned Fields" :
{
	"AreaCount" : 
	{
		"Type" : "System.Int32",
		"Get Visibility" : "Public",
		"Set Visibility" : "Public"
	},
	"Email" : 
	{
		"Type" : "System.String",
		"Get Visibility" : "Public",
		"Set Visibility" : "Public"
	},
	"EmployeeAttributes" : 
	{
		"Type" : "System.Collections.Generic.List`1[[ChaiTea.BusinessLogic.ViewModels.Employment.EmployeeAttributeVm, ChaiTea.BusinessLogic, Version=0.0.0.0, Culture=neutral, PublicKeyToken=null]]",
		"Get Visibility" : "Public",
		"Set Visibility" : "Public",
		"Nested Fields" :
		[
			{
				"AttributeId" : 
				{
					"Type" : "System.Int32",
					"Get Visibility" : "Public",
					"Set Visibility" : "Public"
				},
				"AttributeValue" : 
				{
					"Type" : "System.String",
					"Get Visibility" : "Public",
					"Set Visibility" : "Public"
				},
				"EmployeeAttributeId" : 
				{
					"Type" : "System.Int32",
					"Get Visibility" : "Public",
					"Set Visibility" : "Public"
				},
				"EmployeeId" : 
				{
					"Type" : "System.Int32",
					"Get Visibility" : "Public",
					"Set Visibility" : "Public"
				}
			}
		]
	},
	"EmployeeEquipment" : 
	{
		"Type" : "System.Collections.Generic.List`1[[ChaiTea.BusinessLogic.ViewModels.Employment.EquipmentVm, ChaiTea.BusinessLogic, Version=0.0.0.0, Culture=neutral, PublicKeyToken=null]]",
		"Get Visibility" : "Public",
		"Set Visibility" : "Public",
		"Nested Fields" :
		[
			{
				"EquipmentId" : 
				{
					"Type" : "System.Int32",
					"Get Visibility" : "Public",
					"Set Visibility" : "Public"
				},
				"Name" : 
				{
					"Type" : "System.String",
					"Get Visibility" : "Public",
					"Set Visibility" : "Public"
				}
			}
		]
	},
	"EmployeeId" : 
	{
		"Type" : "System.Int32",
		"Get Visibility" : "Public",
		"Set Visibility" : "Public"
	},
	"EmployeeTasks" : 
	{
		"Type" : "System.Collections.Generic.List`1[[ChaiTea.BusinessLogic.ViewModels.Employment.JobTaskVm, ChaiTea.BusinessLogic, Version=0.0.0.0, Culture=neutral, PublicKeyToken=null]]",
		"Get Visibility" : "Public",
		"Set Visibility" : "Public",
		"Nested Fields" :
		[
			{
				"JobTaskId" : 
				{
					"Type" : "System.Int32",
					"Get Visibility" : "Public",
					"Set Visibility" : "Public"
				},
				"Name" : 
				{
					"Type" : "System.String",
					"Get Visibility" : "Public",
					"Set Visibility" : "Public"
				}
			}
		]
	},
	"ExternalEmployeeId" : 
	{
		"Type" : "System.String",
		"Get Visibility" : "Public",
		"Set Visibility" : "Public"
	},
	"FunFacts" : 
	{
		"Type" : "System.String",
		"Get Visibility" : "Public",
		"Set Visibility" : "Public"
	},
	"HireDate" : 
	{
		"Type" : "System.DateTime?",
		"Get Visibility" : "Public",
		"Set Visibility" : "Public"
	},
	"JobDescription" : 
	{
		"Type" : "ChaiTea.BusinessLogic.ViewModels.Employment.ConciseJobVm",
		"Get Visibility" : "Public",
		"Set Visibility" : "Public",
		"Nested Fields" :
		{
			"JobId" : 
			{
				"Type" : "System.Int32",
				"Get Visibility" : "Public",
				"Set Visibility" : "Public"
			},
			"Name" : 
			{
				"Type" : "System.String",
				"Get Visibility" : "Public",
				"Set Visibility" : "Public"
			}
		}
	},
	"Name" : 
	{
		"Type" : "System.String",
		"Get Visibility" : "Public",
		"Set Visibility" : "Public"
	},
	"Phone" : 
	{
		"Type" : "System.String",
		"Get Visibility" : "Public",
		"Set Visibility" : "Public"
	},
	"PhoneNumber" : 
	{
		"Type" : "System.String",
		"Get Visibility" : "Public",
		"Set Visibility" : "Public"
	},
	"SupervisorEmail" : 
	{
		"Type" : "System.String",
		"Get Visibility" : "Public",
		"Set Visibility" : "Public"
	},
	"SupervisorId" : 
	{
		"Type" : "System.Int32?",
		"Get Visibility" : "Public",
		"Set Visibility" : "Public"
	},
	"SupervisorPhoneNumber" : 
	{
		"Type" : "System.String",
		"Get Visibility" : "Public",
		"Set Visibility" : "Public"
	},
	"UserAttachments" : 
	{
		"Type" : "System.Collections.Generic.List`1[[ChaiTea.BusinessLogic.ViewModels.Personnel.UserAttachmentVm, ChaiTea.BusinessLogic, Version=0.0.0.0, Culture=neutral, PublicKeyToken=null]]",
		"Get Visibility" : "Public",
		"Set Visibility" : "Public",
		"Nested Fields" :
		[
			{
				"AttachmentType" : 
				{
					"Type" : "Enum[AttachmentTypeVm] as Int32",
					"Get Visibility" : "Public",
					"Set Visibility" : "Public",
					"Enum Values" : 
					[
						"Image" : "1"
						"Video" : "2"
						"Audio" : "3"
						"Pdf" : "4"
						"File" : "5"
					]
				},
				"Description" : 
				{
					"Type" : "System.String",
					"Get Visibility" : "Public",
					"Set Visibility" : "Public"
				},
				"Name" : 
				{
					"Type" : "System.String",
					"Get Visibility" : "Public",
					"Set Visibility" : "Public"
				},
				"UniqueId" : 
				{
					"Type" : "System.String",
					"Get Visibility" : "Public",
					"Set Visibility" : "Public"
				},
				"UserAttachmentId" : 
				{
					"Type" : "System.Int32",
					"Get Visibility" : "Public",
					"Set Visibility" : "Public"
				},
				"UserAttachmentType" : 
				{
					"Type" : "Enum[UserAttachmentTypeVm] as Int32",
					"Get Visibility" : "Public",
					"Set Visibility" : "Public",
					"Enum Values" : 
					[
						"ProfilePicture" : "1"
						"SocialPicture" : "2"
						"BackgroundPicture" : "3"
					]
				}
			}
		]
	}
}
}
