[
	{
		"Amount" : "Decimal",
		"CommitmentDate" : "DateTime",
		"CommodityId" : "Int32?",
		"CommodityName" : "String",
		"CompanyId" : "Int32",
		"CompanyName" : "String",
		"DescriptionOne" : "String",
		"DescriptionTwo" : "String",
		"IsBillable" : "Boolean",
		"IsGreen" : "Boolean",
		"LineNumber" : "Int32",
		"ManufacturerId" : "Int32?",
		"ManufacturerName" : "String",
		"ManufacturerNumber" : "String",
		"Month" : "Int32",
		"POItemId" : "Int32",
		"PONumber" : "Int32",
		"ProgramId" : "Int32?",
		"ProgramName" : "String",
		"Quantity" : "Int32",
		"SBMNumber" : "String",
		"SiteId" : "Int32",
		"SubCommodityId" : "Int32?",
		"SubCommodityName" : "String",
		"Year" : "Int32"
	}
]
