{
"Controller": "AssociateTasksController",
"Action" : "GetMyWorkInfo",
"HttpMethods": {"GET"},
"Parameters": 
{
	"startDate" : "System.DateTime?",
	"endDate" : "System.DateTime?"
},
"Return Type" : "ChaiTea.BusinessLogic.Services.ActionRequests.Tasks.AssociateTasksService+MyWorkDTO",
"Returned Fields" :
{
	"CompletedTasks" : 
	{
		"Type" : "System.Collections.Generic.IEnumerable`1[[ChaiTea.BusinessLogic.Services.ActionRequests.Tasks.AssociateTasksService+TaskListItemDTO, ChaiTea.BusinessLogic, Version=0.0.0.0, Culture=neutral, PublicKeyToken=null]]",
		"Get Visibility" : "Public",
		"Set Visibility" : "Public",
		"Nested Fields" :
		[
			{
				"AssignedDate" : 
				{
					"Type" : "System.DateTime",
					"Get Visibility" : "Public",
					"Set Visibility" : "Public"
				},
				"CompletionDate" : 
				{
					"Type" : "System.DateTime?",
					"Get Visibility" : "Public",
					"Set Visibility" : "Public"
				},
				"Description" : 
				{
					"Type" : "System.String",
					"Get Visibility" : "Public",
					"Set Visibility" : "Public"
				},
				"DueDate" : 
				{
					"Type" : "System.DateTime",
					"Get Visibility" : "Public",
					"Set Visibility" : "Public"
				},
				"HasBeenSeen" : 
				{
					"Type" : "System.Boolean",
					"Get Visibility" : "Public",
					"Set Visibility" : "Public"
				},
				"IsComplete" : 
				{
					"Type" : "System.Boolean",
					"Get Visibility" : "Public",
					"Set Visibility" : "Public"
				},
				"Location" : 
				{
					"Type" : "System.String",
					"Get Visibility" : "Public",
					"Set Visibility" : "Public"
				},
				"TaskId" : 
				{
					"Type" : "System.Int32",
					"Get Visibility" : "Public",
					"Set Visibility" : "Public"
				}
			}
		]
	},
	"InCompleteTasks" : 
	{
		"Type" : "System.Collections.Generic.IEnumerable`1[[ChaiTea.BusinessLogic.Services.ActionRequests.Tasks.AssociateTasksService+TaskListItemDTO, ChaiTea.BusinessLogic, Version=0.0.0.0, Culture=neutral, PublicKeyToken=null]]",
		"Get Visibility" : "Public",
		"Set Visibility" : "Public",
		"Nested Fields" :
		[
"TaskListItemDTO"
		]
	}
}
}
