{
"Controller": "SecurityController",
"Action" : "GetCredentials",
"HttpMethods": {"GET"},
"Parameters": 
{
},
"Return Type" : "ChaiTea.Web.Areas.Services.Models.SecurityVm",
"Returned Fields" :
{
	"AccessKey" : 
	{
		"Type" : "System.String",
		"Get Visibility" : "Public",
		"Set Visibility" : "Public"
	},
	"AccessSecret" : 
	{
		"Type" : "System.String",
		"Get Visibility" : "Public",
		"Set Visibility" : "Public"
	},
	"AccessToken" : 
	{
		"Type" : "System.String",
		"Get Visibility" : "Public",
		"Set Visibility" : "Public"
	},
	"Endpoint" : 
	{
		"Type" : "ChaiTea.Web.Areas.Services.Models.EndpointVm",
		"Get Visibility" : "Public",
		"Set Visibility" : "Public",
		"Nested Fields" :
		{
			"Bucket" : 
			{
				"Type" : "System.String",
				"Get Visibility" : "Public",
				"Set Visibility" : "Public"
			},
			"Cdn" : 
			{
				"Type" : "System.String",
				"Get Visibility" : "Public",
				"Set Visibility" : "Public"
			},
			"Region" : 
			{
				"Type" : "System.String",
				"Get Visibility" : "Public",
				"Set Visibility" : "Public"
			}
		}
	},
	"Signature" : 
	{
		"Type" : "System.String",
		"Get Visibility" : "Public",
		"Set Visibility" : "Public"
	},
	"TimeStamp" : 
	{
		"Type" : "System.String",
		"Get Visibility" : "Public",
		"Set Visibility" : "Public"
	}
}
}
