<?xml version="1.0" encoding="utf-8"?>
<!-- Generator: Adobe Illustrator 17.1.0, SVG Export Plug-In . SVG Version: 6.00 Build 0)  -->
<!DOCTYPE svg PUBLIC "-//W3C//DTD SVG 1.1//EN" "http://www.w3.org/Graphics/SVG/1.1/DTD/svg11.dtd">
<svg version="1.1" id="Layer_1" xmlns="http://www.w3.org/2000/svg" xmlns:xlink="http://www.w3.org/1999/xlink" x="0px" y="0px"
	 viewBox="0 0 190 50" enable-background="new 0 0 190 50" xml:space="preserve">
<path fill="#414141" d="M110.248,10.088c0.21,0.393,0.193,0.799,0.09,1.218c-0.737,3.002-0.877,6.04-0.56,9.109
	c0.168,1.629,0.309,3.26,0.471,4.981c0.692-0.599,1.312-1.166,1.964-1.695c1.435-1.165,2.953-2.196,4.762-2.705
	c0.295-0.083,0.605-0.142,0.911-0.152c0.302-0.011,0.437,0.15,0.285,0.463c-0.122,0.25-0.295,0.459-0.488,0.654
	c-1.657,1.684-1.515,4.754-0.385,6.35c0.911,1.287,2.539,1.521,3.71,0.474c0.944-0.845,1.5-1.903,1.485-3.219
	c-0.004-0.377-0.123-0.496-0.497-0.513c-0.96-0.044-1.877-0.243-2.608-0.944c-0.582-0.558-0.737-1.248-0.584-2.003
	c0.205-1.01,1.142-1.529,2.126-1.196c1.164,0.395,1.895,1.261,2.405,2.328c0.146,0.305,0.277,0.384,0.613,0.323
	c1.037-0.189,1.899-0.712,2.731-1.315c0.2-0.145,0.183-0.335,0.182-0.536c-0.007-1.385-0.025-2.771-0.016-4.156
	c0.013-2.036,0.556-3.922,1.689-5.619c0.521-0.78,1.249-1.275,2.219-1.305c1.18-0.036,2.002,0.801,2.143,2.159
	c0.247,2.388-0.585,4.47-1.834,6.431c-0.431,0.677-0.913,1.319-1.463,1.905c-0.237,0.252-0.33,0.526-0.318,0.882
	c0.049,1.492,0.064,2.985,0.098,4.478c0.003,0.151-0.072,0.385,0.129,0.424c0.169,0.033,0.253-0.179,0.325-0.324
	c0.627-1.254,1.239-2.516,2.01-3.692c0.431-0.657,0.898-1.282,1.496-1.801c0.55-0.478,1.163-0.694,1.862-0.377
	c0.715,0.324,0.977,0.934,0.975,1.687c-0.006,1.896-0.015,3.791-0.011,5.687c0,0.198-0.117,0.495,0.16,0.568
	c0.24,0.063,0.365-0.201,0.483-0.377c1.494-2.222,2.967-4.457,4.359-6.745c0.238-0.392,0.475-0.776,0.95-0.933
	c1.172-0.388,1.947,0.035,2.272,1.243c0.23,0.855,0.226,1.73,0.225,2.604c-0.001,0.888-0.001,1.776,0.122,2.707
	c0.298-0.117,0.362-0.378,0.472-0.587c0.777-1.484,1.528-2.982,2.383-4.425c0.318-0.537,0.69-1.026,1.127-1.47
	c0.86-0.874,2.231-0.606,2.667,0.533c0.251,0.654,0.325,1.34,0.324,2.038c-0.002,1.786-0.001,3.573,0.006,5.359
	c0.001,0.168-0.099,0.419,0.123,0.48c0.198,0.054,0.295-0.175,0.386-0.33c1.572-2.687,3.258-5.31,4.555-8.15
	c0.097-0.213,0.193-0.47,0.487-0.44c0.277,0.028,0.381,0.28,0.44,0.505c0.354,1.361,1.259,2.447,1.79,3.772
	c1.205-1.116,2.418-2.096,3.817-2.826c1.144-0.597,2.357-0.961,3.634-1.11c0.359-0.042,0.729-0.078,1.077,0.085
	c0.302,0.435,0.132,0.812-0.143,1.177c-0.96,0.992-1.523,2.191-1.64,3.549c-0.1,1.166,0.259,2.253,1.115,3.083
	c1.309,1.269,3.693,0.783,4.322-1.441c0.145-0.513,0.165-1.036,0.142-1.568c-0.016-0.379-0.193-0.511-0.551-0.495
	c-0.529,0.023-1.05-0.017-1.565-0.173c-1.372-0.417-1.972-1.327-1.795-2.756c0.094-0.234,0.169-0.481,0.417-0.611
	c0.929-0.745,2.519-0.457,3.427,0.315c0.319,0.272,0.632,0.561,0.823,0.941c0.166,0.332,0.357,0.32,0.658,0.167
	c0.736-0.377,1.39-0.864,2.03-1.378c0.564-0.453,1.167-0.786,1.926-0.8c0.776-0.015,1.278,0.359,1.607,1.009
	c0.293,0.58,0.381,1.211,0.384,1.855c0.004,0.82,0.002,1.64,0.003,2.461c0,0.235-0.049,0.54,0.232,0.607
	c0.276,0.066,0.397-0.229,0.492-0.432c0.63-1.334,1.249-2.673,2.073-3.903c0.439-0.655,0.929-1.264,1.605-1.692
	c0.979-0.619,1.999-0.315,2.485,0.742c0.248,0.539,0.314,1.118,0.314,1.705c0.002,1.823,0,3.645,0.003,5.468
	c0,0.21-0.072,0.475,0.184,0.581c0.283,0.117,0.421-0.133,0.574-0.308c0.346-0.398,0.686-0.802,1.037-1.197
	c0.108-0.121,0.23-0.239,0.368-0.32c0.209-0.122,0.454-0.207,0.664-0.027c0.218,0.188,0.152,0.441,0.032,0.651
	c-0.315,0.554-0.658,1.091-0.975,1.643c-0.336,0.586-0.694,1.153-1.135,1.668c-0.637,0.744-1.436,1.11-2.383,0.816
	c-0.89-0.277-1.296-1.046-1.419-1.916c-0.219-1.552-0.197-3.121-0.231-4.686c-0.011-0.51-0.002-1.021-0.004-1.531
	c0-0.109,0.002-0.237-0.121-0.279c-0.12-0.041-0.214,0.051-0.273,0.138c-0.153,0.225-0.303,0.454-0.43,0.694
	c-1.123,2.124-2.125,4.311-3.367,6.372c-0.196,0.325-0.39,0.656-0.712,0.888c-0.606,0.438-1.26,0.281-1.586-0.391
	c-0.205-0.424-0.216-0.88-0.216-1.336c-0.002-1.713,0.004-3.427-0.004-5.14c-0.003-0.49-0.03-0.982-0.074-1.471
	c-0.058-0.642-0.405-0.84-0.958-0.506c-0.668,0.405-1.294,0.877-1.948,1.304c-0.235,0.153-0.089,0.321-0.06,0.481
	c0.302,1.637,0.067,3.193-0.724,4.655c-1.858,3.435-6.631,3.601-8.68,0.283c-1.124-1.82-1.402-3.734-0.326-5.694
	c0.178-0.324,0.436-0.603,0.715-0.982c-0.68,0.033-1.173,0.298-1.648,0.579c-0.88,0.523-1.672,1.162-2.406,1.877
	c-0.215,0.21-0.259,0.378-0.154,0.661c0.48,1.291,0.532,2.591,0.009,3.889c-0.216,0.536-0.548,0.986-1,1.342
	c-0.724,0.569-1.641,0.634-2.344,0.177c-0.655-0.426-0.978-1.384-0.746-2.235c0.213-0.785,0.6-1.485,1.102-2.117
	c0.247-0.311,0.275-0.558,0.058-0.919c-0.828-1.38-0.81-1.384-1.599-0.049c-0.937,1.585-1.95,3.119-3.081,4.574
	c-0.289,0.371-0.643,0.648-1.046,0.86c-1.337,0.706-2.805-0.244-2.818-1.835c-0.016-1.914-0.005-3.828-0.007-5.741
	c0-0.145-0.012-0.291-0.018-0.436c-0.436-0.01-0.34,0.555-0.691,0.638c-1.213,1.866-2.167,3.877-3.244,5.819
	c-0.301,0.543-0.606,1.081-1.129,1.453c-0.89,0.634-1.526,0.382-1.714-0.683c-0.089-0.505-0.091-1.015-0.093-1.525
	c-0.007-1.568-0.01-3.136-0.016-4.703c-0.001-0.164-0.002-0.329-0.025-0.491c-0.023-0.158-0.025-0.361-0.203-0.417
	c-0.183-0.057-0.292,0.121-0.393,0.24c-0.807,0.949-1.384,2.05-2.02,3.11c-0.759,1.265-1.45,2.573-2.361,3.74
	c-0.522,0.669-1.114,1.248-2.069,1.006c-0.756-0.191-1.199-0.952-1.241-2.049c-0.071-1.856-0.137-3.712-0.211-5.568
	c-0.005-0.136,0.067-0.334-0.084-0.398c-0.186-0.079-0.285,0.123-0.38,0.24c-0.605,0.737-1.054,1.574-1.492,2.413
	c-0.734,1.404-1.435,2.825-2.15,4.239c-0.041,0.081-0.072,0.171-0.129,0.241c-0.287,0.353-0.323,1.036-0.994,0.9
	c-0.761-0.155-1.114-0.647-1.122-1.449c-0.018-1.987-0.031-3.974-0.028-5.961c0.001-0.435-0.06-0.592-0.495-0.301
	c-0.596,0.398-1.265,0.664-1.961,0.806c-0.507,0.103-0.595,0.338-0.563,0.815c0.107,1.623-0.402,3.068-1.317,4.405
	c-1.719,2.512-6.433,2.858-8.124-0.808c-0.681-1.477-0.819-3.002-0.341-4.57c0.025-0.083,0.021-0.175,0.034-0.295
	c-0.246-0.042-0.391,0.11-0.547,0.209c-1.085,0.691-1.985,1.595-2.884,2.502c-0.194,0.196-0.2,0.41-0.182,0.652
	c0.13,1.762,0.293,3.525,0.216,5.294c-0.148,3.376-0.931,6.556-2.996,9.315c-0.572,0.764-1.24,1.436-2.119,1.852
	c-1.164,0.551-2.266,0.156-2.728-1.045c-0.553-1.439-0.48-2.934-0.182-4.414c0.517-2.563,1.545-4.928,2.875-7.165
	c0.206-0.346,0.196-0.545-0.101-0.824c-0.57-0.535-1.115-1.101-1.631-1.688c-0.305-0.348-0.662-0.473-1.098-0.507
	c-1.202-0.094-2.353,0.168-3.505,0.453c-0.282,0.07-0.302,0.264-0.329,0.49c-0.061,0.528-0.19,1.037-0.468,1.5
	c-0.12,0.2-0.271,0.342-0.525,0.321c-0.246-0.021-0.339-0.205-0.392-0.4c-0.082-0.297-0.175-0.6-0.189-0.904
	c-0.02-0.424-0.182-0.533-0.594-0.461c-1.334,0.233-2.653,0.071-3.948-0.26c-0.743-0.19-1.455-0.481-1.978-1.093
	c-0.984-1.15-0.58-2.502,0.873-2.933c0.782-0.232,1.583-0.215,2.384-0.201c1.061,0.168,1.397,0.125,2.84,1.149
	c0.062-0.467-0.282-0.784-0.376-1.176c0.014-0.36-0.23-0.6-0.408-0.869c-0.227-0.343-0.14-0.576,0.236-0.721
	c0.322-0.124,0.642-0.253,0.964-0.378c0.636-0.249,0.893-0.151,1.123,0.509c0.391,1.125,0.531,2.299,0.576,3.484
	c0.029,0.771,0.018,0.752,0.772,0.653c0.774-0.101,1.553-0.187,2.333-0.224c0.409-0.019,0.403-0.126,0.244-0.438
	c-1.427-2.799-1.662-5.745-0.893-8.749c0.696-2.721,2.403-4.773,4.622-6.43c0.159-0.119,0.313-0.245,0.469-0.367
	c0.124-0.209,0.344-0.262,0.551-0.336l-0.002,0.004c0.637-0.623,1.463-0.81,2.29-0.996
	C109.664,10.088,109.956,10.088,110.248,10.088z"/>
<path fill="#414141" d="M10.042,10.088c0.251,0.387,0.191,0.803,0.089,1.211c-0.847,3.406-0.856,6.846-0.449,10.307
	c0.145,1.229,0.244,2.463,0.373,3.796c0.462-0.411,0.868-0.777,1.281-1.137c1.464-1.275,3.029-2.394,4.858-3.099
	c0.428-0.165,0.874-0.255,1.323-0.327c0.182-0.029,0.387-0.012,0.487,0.166c0.09,0.161-0.023,0.318-0.116,0.453
	c-0.093,0.134-0.19,0.269-0.306,0.383c-1.726,1.686-1.59,4.627-0.662,6.199c0.968,1.641,2.866,1.886,4.163,0.481
	c0.778-0.843,1.249-1.824,1.2-3.01c-0.013-0.323-0.134-0.436-0.458-0.454c-0.805-0.043-1.594-0.172-2.28-0.649
	c-0.78-0.542-1.109-1.286-0.966-2.22c0.18-1.181,1.415-1.734,2.531-1.136c0.914,0.49,1.592,1.215,2.004,2.164
	c0.143,0.33,0.306,0.406,0.657,0.34c1.017-0.189,1.862-0.708,2.683-1.291c0.214-0.152,0.207-0.364,0.203-0.586
	c-0.022-1.147-0.044-2.295-0.06-3.442c-0.022-1.638,0.28-3.22,0.85-4.752c0.166-0.463,0.246-0.969,0.667-1.301l0-0.001
	c0.024-0.139,0.078-0.26,0.198-0.343c0.07-0.079,0.14-0.158,0.21-0.236c0.177-0.19,0.279-0.464,0.578-0.517
	c0.382-0.165,0.742-0.388,1.166-0.445c1.304-0.174,2.274,0.678,2.427,2.134c0.211,1.998-0.355,3.815-1.294,5.544
	c-0.568,1.046-1.277,1.992-2.06,2.883c-0.184,0.209-0.257,0.416-0.251,0.687c0.033,1.547,0.053,3.094,0.083,4.64
	c0.003,0.134-0.059,0.342,0.117,0.377c0.188,0.037,0.258-0.171,0.33-0.31c0.607-1.161,1.147-2.359,1.864-3.461
	c0.468-0.718,0.95-1.424,1.595-2.002c0.558-0.499,1.179-0.746,1.901-0.428c0.738,0.325,1.005,0.953,1,1.728
	c-0.012,1.895-0.022,3.79-0.024,5.686c0,0.186-0.099,0.458,0.14,0.533c0.253,0.079,0.372-0.185,0.489-0.358
	c1.522-2.247,3.011-4.516,4.419-6.837c0.284-0.468,0.614-0.858,1.181-0.971c1.039-0.207,1.684,0.19,1.97,1.224
	c0.211,0.761,0.266,1.541,0.25,2.327c-0.02,1.019,0.03,2.036,0.109,3.088c0.321-0.067,0.377-0.341,0.482-0.547
	c0.733-1.425,1.467-2.849,2.269-4.237c0.348-0.602,0.741-1.169,1.236-1.66c0.937-0.93,2.31-0.622,2.736,0.627
	c0.189,0.553,0.26,1.134,0.26,1.72c0,1.822-0.003,3.645,0.007,5.467c0.001,0.198-0.125,0.5,0.138,0.574
	c0.208,0.058,0.309-0.219,0.407-0.384c1.576-2.663,3.24-5.277,4.529-8.101c0.091-0.199,0.186-0.428,0.445-0.427
	c0.25,0.002,0.403,0.209,0.455,0.416c0.348,1.384,1.251,2.496,1.807,3.843c0.751-0.644,1.461-1.253,2.17-1.861
	c0.25-0.232,0.506-0.456,0.847-0.546c1.501-0.799,3.051-1.45,4.782-1.527c0.285-0.013,0.62-0.072,0.782,0.246
	c0.164,0.321-0.015,0.603-0.214,0.849c-0.42,0.521-0.935,0.975-1.153,1.638c0.074,0.329-0.111,0.603-0.214,0.886
	c-0.475,1.308-0.332,2.548,0.394,3.717c0.529,0.852,1.297,1.333,2.325,1.252c1.066-0.084,1.851-0.607,2.281-1.613
	c0.203-0.475,0.322-0.964,0.312-1.485c-0.005-0.267-0.06-0.552,0.137-0.787c0.074-0.378-0.094-0.483-0.452-0.441
	c-0.699,0.082-1.377-0.034-2.041-0.26c-1.001-0.341-1.622-1.381-1.429-2.41c0.123-0.653,0.663-1.109,1.411-1.148
	c1.339-0.071,2.373,0.502,3.085,1.609c0.257,0.4,0.456,0.396,0.827,0.194c0.807-0.438,1.512-1.012,2.235-1.565
	c0.463-0.354,0.969-0.542,1.56-0.568c0.824-0.036,1.346,0.359,1.68,1.061c0.263,0.552,0.359,1.143,0.361,1.751
	c0.002,0.857-0.001,1.714,0,2.57c0,0.22-0.02,0.494,0.233,0.557c0.253,0.063,0.371-0.189,0.465-0.383
	c0.556-1.147,1.092-2.304,1.748-3.4c0.442-0.739,0.948-1.423,1.598-1.997c1.179-1.04,2.571-0.628,2.994,0.887
	c0.134,0.479,0.172,0.965,0.171,1.459c-0.004,1.768-0.004,3.537,0,5.305c0.001,0.226-0.073,0.514,0.232,0.604
	c0.256,0.075,0.382-0.156,0.524-0.318c0.347-0.398,0.692-0.798,1.041-1.195c0.084-0.095,0.17-0.196,0.274-0.265
	c0.234-0.155,0.497-0.287,0.754-0.076c0.253,0.208,0.142,0.479,0.01,0.695c-0.617,1.009-1.153,2.069-1.884,3.006
	c-0.134,0.172-0.272,0.345-0.431,0.493c-0.632,0.589-1.366,0.854-2.205,0.542c-0.861-0.32-1.245-1.056-1.369-1.898
	c-0.225-1.534-0.198-3.086-0.229-4.633c-0.01-0.51-0.001-1.021-0.004-1.531c-0.001-0.125,0.026-0.285-0.126-0.329
	c-0.138-0.039-0.229,0.086-0.306,0.188c-0.363,0.485-0.587,1.046-0.865,1.578c-0.946,1.806-1.812,3.654-2.864,5.404
	c-0.186,0.31-0.374,0.626-0.66,0.865c-0.649,0.544-1.413,0.363-1.713-0.428c-0.175-0.463-0.212-0.956-0.214-1.45
	c-0.007-2.023-0.014-4.047-0.024-6.07c-0.001-0.181,0.001-0.371-0.048-0.542c-0.116-0.404-0.376-0.59-0.783-0.371
	c-0.754,0.407-1.372,1.021-2.132,1.425c-0.198,0.105-0.043,0.299-0.015,0.445c0.305,1.578,0.093,3.094-0.645,4.508
	c-1.054,2.02-2.781,2.95-5.03,2.778c-2.136-0.163-3.479-1.456-4.25-3.37c-0.7-1.738-0.686-3.442,0.432-5.041
	c0.129-0.184,0.395-0.282,0.378-0.596c-0.501-0.017-0.918,0.221-1.322,0.439c-1.001,0.539-1.867,1.262-2.684,2.05
	c-0.219,0.212-0.178,0.396-0.093,0.632c0.471,1.298,0.508,2.597-0.011,3.894c-0.223,0.556-0.574,1.015-1.053,1.369
	c-0.718,0.531-1.624,0.567-2.304,0.112c-0.605-0.405-0.934-1.347-0.743-2.148c0.199-0.833,0.645-1.545,1.146-2.218
	c0.227-0.305,0.284-0.537,0.047-0.87c-0.274-0.385-0.475-1.032-0.861-1.065c-0.444-0.038-0.523,0.667-0.756,1.042
	c-0.982,1.579-1.979,3.145-3.139,4.601c-0.795,0.997-1.971,1.301-2.837,0.749c-0.675-0.43-0.961-1.069-0.963-1.85
	c-0.003-1.932-0.003-3.865-0.008-5.797c0-0.155,0.058-0.322-0.086-0.508c-0.377,0.313-0.592,0.734-0.832,1.128
	c-1.103,1.804-2.032,3.704-3.055,5.553c-0.31,0.56-0.638,1.103-1.19,1.471c-0.795,0.53-1.444,0.3-1.6-0.638
	c-0.107-0.641-0.111-1.303-0.12-1.956c-0.02-1.44-0.014-2.88-0.02-4.32c-0.001-0.146,0.003-0.293-0.016-0.437
	c-0.025-0.191,0.014-0.441-0.222-0.51c-0.204-0.059-0.318,0.144-0.433,0.277c-0.611,0.707-1.051,1.53-1.537,2.32
	c-0.925,1.504-1.722,3.088-2.807,4.493c-0.235,0.304-0.495,0.584-0.826,0.786c-0.84,0.51-1.762,0.239-2.199-0.646
	c-0.163-0.331-0.254-0.684-0.269-1.051c-0.074-1.874-0.14-3.749-0.214-5.623c-0.007-0.172,0.08-0.431-0.095-0.494
	c-0.213-0.077-0.334,0.18-0.447,0.329c-0.632,0.829-1.123,1.746-1.6,2.668c-0.703,1.359-1.381,2.73-2.07,4.096
	c-0.041,0.081-0.085,0.162-0.137,0.236c-0.219,0.311-0.312,0.803-0.835,0.721c-0.639-0.1-1.139-0.652-1.163-1.253
	c-0.084-2.094-0.112-4.189-0.065-6.285c0.003-0.119,0.089-0.267-0.063-0.342c-0.11-0.055-0.203,0.044-0.293,0.101
	c-0.684,0.435-1.434,0.718-2.215,0.904c-0.362,0.086-0.443,0.243-0.419,0.595c0.116,1.7-0.32,3.255-1.352,4.615
	c-2.192,2.888-6.658,2.368-8.137-0.946c-0.647-1.45-0.708-2.949-0.29-4.474c0.014-0.052,0.026-0.107,0.029-0.161
	c0.002-0.034-0.013-0.07-0.027-0.135c-0.191-0.044-0.331,0.087-0.47,0.178c-1.088,0.715-2.029,1.598-2.928,2.532
	c-0.207,0.215-0.206,0.45-0.185,0.707c0.147,1.797,0.3,3.597,0.21,5.401c-0.167,3.356-0.977,6.511-3.052,9.239
	c-0.556,0.731-1.211,1.361-2.052,1.768c-1.139,0.552-2.281,0.145-2.734-1.035c-0.539-1.404-0.483-2.862-0.201-4.307
	c0.508-2.601,1.537-5.006,2.89-7.272c0.228-0.383,0.162-0.588-0.133-0.867c-0.889-0.838-1.737-1.716-2.458-2.708
	c-0.884-1.217-1.42-2.574-1.674-4.052c-0.038-0.22-0.132-0.577-0.206-0.902c-0.023-0.323-0.089-0.78-0.089-1.035
	c-0.018-0.997-0.04-0.818,0-1.845c0-0.146,0.089-0.548,0.089-0.694c0.25-1.562,0.791-3.006,1.679-4.324
	c1.44-2.136,3.313-3.742,5.692-4.749c0.27-0.114,0.575-0.082,0.834-0.226C9.386,10.088,9.714,10.088,10.042,10.088z"/>
<path fill="#FFFFFF" d="M103.662,21.086c0.076-2.991,0.855-5.689,2.712-8.019c0.526-0.66,1.137-1.235,1.944-1.549
	c0.247-0.096,0.549-0.28,0.764-0.05c0.198,0.212-0.013,0.484-0.114,0.707c-0.8,1.764-1.399,3.592-1.813,5.486
	c-0.492,2.256-0.474,4.517-0.147,6.785c0.174,1.206,0.379,2.407,0.59,3.607c0.085,0.484-0.287,0.719-0.505,1.033
	c-0.482,0.694-0.487,0.682-0.995,0.014c-1.423-1.87-2.12-4.002-2.309-6.321C103.742,22.2,103.702,21.619,103.662,21.086z"/>
<path fill="#FFFFFF" d="M107.923,30.232c0.224,0.889,0.297,1.755,0.416,2.614c0.341,2.457,0.167,4.864-0.735,7.191
	c-0.257,0.664-0.601,1.29-1.192,1.733c-0.846,0.635-1.68,0.401-2.039-0.591c-0.401-1.106-0.227-2.23-0.019-3.341
	c0.516-2.754,1.734-5.195,3.377-7.439C107.77,30.343,107.834,30.307,107.923,30.232z"/>
<path fill="#FFFFFF" d="M130.703,11.961c0.073,0.001,0.146,0.002,0.219,0.002c0.118,0.074,0.13,0.224,0.228,0.313
	c0.546,2.692-0.103,5.092-1.851,7.245c0-0.353-0.008-0.706,0.001-1.058c0.048-1.728,0.079-3.459,0.539-5.143
	c0.091-0.331,0.175-0.671,0.418-0.938C130.388,12.222,130.51,12.054,130.703,11.961z"/>
<path fill="#FFFFFF" d="M95.454,28.239c-0.952-0.009-1.696-0.285-2.274-0.933c-0.392-0.439-0.255-0.88,0.321-1
	c0.352-0.073,0.72-0.095,1.07,0.054c0.733,0.31,1.334,0.79,1.841,1.401c0.248,0.299,0.156,0.385-0.187,0.399
	C95.936,28.173,95.649,28.219,95.454,28.239z"/>
<path fill="#FAF1EE" d="M121.657,23.549c-0.44-0.028-0.744-0.123-1.033-0.275c-0.182-0.096-0.295-0.236-0.172-0.436
	c0.117-0.19,0.303-0.184,0.473-0.07C121.196,22.948,121.397,23.198,121.657,23.549z"/>
<path fill="#FFFFFF" d="M2.773,21.037c0.059-2.915,0.828-5.597,2.655-7.917c0.567-0.72,1.231-1.341,2.129-1.649
	c0.207-0.071,0.44-0.188,0.617-0.018c0.196,0.188,0.023,0.42-0.06,0.605c-0.906,2.015-1.589,4.095-1.985,6.275
	c-0.373,2.05-0.302,4.092-0.017,6.135c0.168,1.205,0.376,2.404,0.589,3.602c0.079,0.444-0.254,0.656-0.453,0.939
	c-0.555,0.787-0.556,0.775-1.122,0.005c-1.376-1.873-2.058-3.988-2.245-6.286C2.835,22.166,2.774,21.605,2.773,21.037z"/>
<path fill="#FFFFFF" d="M7.064,30.188c0.14,0.985,0.278,1.882,0.394,2.781c0.285,2.195,0.146,4.359-0.533,6.475
	C6.691,40.176,6.372,40.87,5.85,41.45c-0.408,0.453-0.883,0.774-1.53,0.605c-0.7-0.183-0.864-0.78-0.986-1.379
	c-0.231-1.136-0.016-2.251,0.229-3.353c0.569-2.565,1.736-4.855,3.289-6.958C6.881,30.324,6.93,30.298,7.064,30.188z"/>
<path fill="#FFFFFF" d="M29.086,19.536c0.022-2.078,0.017-4.114,0.522-6.108c0.108-0.425,0.249-0.836,0.514-1.195
	c0.134-0.181,0.281-0.371,0.522-0.336c0.284,0.042,0.347,0.306,0.381,0.539c0.184,1.254,0.16,2.504-0.146,3.738
	c-0.275,1.107-0.783,2.111-1.42,3.051C29.383,19.339,29.321,19.483,29.086,19.536z"/>
<path fill="#FAFAFA" d="M57.822,27.861c0.311,0.738,0.476,1.364,0.22,2.037c-0.082,0.217-0.213,0.403-0.456,0.4
	c-0.254-0.003-0.355-0.21-0.419-0.432C56.943,29.08,57.458,28.559,57.822,27.861z"/>
<path fill="#FAFAFA" d="M158.236,27.861c0.311,0.738,0.476,1.364,0.22,2.037c-0.082,0.217-0.213,0.403-0.456,0.4
	c-0.254-0.003-0.355-0.21-0.419-0.432C157.356,29.08,157.871,28.559,158.236,27.861z"/>
<path fill="#FAF8F8" d="M70.547,23.441c-0.295,0.004-0.631-0.051-0.914-0.288c-0.148-0.124-0.256-0.268-0.18-0.473
	c0.076-0.204,0.259-0.252,0.447-0.243c0.527,0.025,0.865,0.353,1.121,0.769C71.141,23.403,71.064,23.448,70.547,23.441z"/>
<path fill="#FAF8F8" d="M170.758,23.441c-0.295,0.004-0.631-0.051-0.914-0.288c-0.148-0.124-0.256-0.268-0.18-0.473
	c0.076-0.204,0.259-0.252,0.447-0.243c0.527,0.025,0.865,0.353,1.121,0.769C171.352,23.403,171.275,23.448,170.758,23.441z"/>
<path fill="#F9F3F0" d="M20.737,23.54c-0.446-0.022-0.75-0.125-1.037-0.28c-0.152-0.082-0.29-0.206-0.184-0.386
	c0.098-0.166,0.277-0.237,0.468-0.125C20.284,22.922,20.486,23.19,20.737,23.54z"/>
</svg>
