{
"Controller": "LegalDescriptionController",
"Action" : "Post",
"HttpMethods": {"POST"},
"Parameters": 
{
	"vm" : {
	"Description" : 
	{
		"Type" : "System.String",
		"Get Visibility" : "Public",
		"Set Visibility" : "Public"
	},
	"LegalDescriptionId" : 
	{
		"Type" : "System.Int32",
		"Get Visibility" : "Public",
		"Set Visibility" : "Public"
	},
	"Name" : 
	{
		"Type" : "System.String",
		"Get Visibility" : "Public",
		"Set Visibility" : "Public"
	}
}
},
"Return Type" : "System.Void",
"Returned Fields" :
"System.Void"
}
