{
	"vm" : 
	{
		"CourseAttachmentId" : "Int32",
		"CreateDate" : "DateTime",
		"Description" : "String",
		"EmployeeCourseId" : "Int32",
		"ManagerOrgUserId" : "Int32?",
		"Name" : "String",
		"OrgUserId" : "Int32",
		"Passed" : "Boolean",
		"SnapshotCourse" : 
		{
			"CourseTypeId" : "Int32",
			"DeadlineHire" : "Int32",
			"DeadlineHireType" : "String",
			"Name" : "String",
			"OrgId" : "Int32",
			"OrgUserId" : "Int32",
			"Overview" : "String",
			"RetakeAfter" : "Int32",
			"RetakeAfterType" : "String",
			"SnapshotCourseId" : "Int32",
			"SnapshotCourseQuestions" : 
			[
				{
					"Answer" : "String",
					"OrderPriority" : "Int32",
					"Question" : "String",
					"SnapshotCourseQuestionId" : "Int32",
					"SnapshotCourseQuestionOptions" : 
					[
						{
							"IsAnswer" : "Boolean",
							"Option" : "String",
							"SnapshotCourseQuestionOptionId" : "Int32"
						}
					]
				}
			]
		},
		"SnapshotCourseId" : "Int32",
		"SnapshotEmployeeCourseId" : "Int32",
		"UniqueId" : "String"
	}
}
