{
"Controller": "ScorecardDetailController",
"Action" : "Post",
"HttpMethods": {"POST"},
"Parameters": 
{
	"vm" : {
	"AuditInspectionItemName" : 
	{
		"Type" : "System.String",
		"Get Visibility" : "Public",
		"Set Visibility" : "Public"
	},
	"Comment" : 
	{
		"Type" : "System.String",
		"Get Visibility" : "Public",
		"Set Visibility" : "Public"
	},
	"Score" : 
	{
		"Type" : "System.Double?",
		"Get Visibility" : "Public",
		"Set Visibility" : "Public"
	},
	"ScorecardDetailId" : 
	{
		"Type" : "System.Int32",
		"Get Visibility" : "Public",
		"Set Visibility" : "Public"
	},
	"ScorecardDetailImages" : 
	{
		"Type" : "System.Collections.Generic.IEnumerable`1[[ChaiTea.BusinessLogic.ViewModels.Auditing.ScorecardDetailImageVm, ChaiTea.BusinessLogic, Version=0.0.0.0, Culture=neutral, PublicKeyToken=null]]",
		"Get Visibility" : "Public",
		"Set Visibility" : "Public",
		"Nested Fields" :
		[
			{
				"Comment" : 
				{
					"Type" : "System.String",
					"Get Visibility" : "Public",
					"Set Visibility" : "Public"
				},
				"ImageId" : 
				{
					"Type" : "System.Int32",
					"Get Visibility" : "Public",
					"Set Visibility" : "Public"
				},
				"PublicId" : 
				{
					"Type" : "System.String",
					"Get Visibility" : "Public",
					"Set Visibility" : "Public"
				},
				"ScorecardDetailId" : 
				{
					"Type" : "System.Int32",
					"Get Visibility" : "Public",
					"Set Visibility" : "Public"
				}
			}
		]
	},
	"ScorecardSectionId" : 
	{
		"Type" : "System.Int32",
		"Get Visibility" : "Public",
		"Set Visibility" : "Public"
	},
	"TodoItems" : 
	{
		"Type" : "System.Collections.Generic.IEnumerable`1[[ChaiTea.BusinessLogic.ViewModels.Auditing.ScorecardDetailTodoItemVm, ChaiTea.BusinessLogic, Version=0.0.0.0, Culture=neutral, PublicKeyToken=null]]",
		"Get Visibility" : "Public",
		"Set Visibility" : "Public",
		"Nested Fields" :
		[
			{
				"Comment" : 
				{
					"Type" : "System.String",
					"Get Visibility" : "Public",
					"Set Visibility" : "Public"
				},
				"CreateByAttachments" : 
				{
					"Type" : "System.Collections.Generic.List`1[[ChaiTea.BusinessLogic.ViewModels.Personnel.UserAttachmentVm, ChaiTea.BusinessLogic, Version=0.0.0.0, Culture=neutral, PublicKeyToken=null]]",
					"Get Visibility" : "Public",
					"Set Visibility" : "Public",
					"Nested Fields" :
					[
						{
							"AttachmentType" : 
							{
								"Type" : "Enum[AttachmentTypeVm] as Int32",
								"Get Visibility" : "Public",
								"Set Visibility" : "Public",
								"Enum Values" : 
								[
									"Image" : "1"
									"Video" : "2"
									"Audio" : "3"
									"Pdf" : "4"
									"File" : "5"
								]
							},
							"Description" : 
							{
								"Type" : "System.String",
								"Get Visibility" : "Public",
								"Set Visibility" : "Public"
							},
							"Name" : 
							{
								"Type" : "System.String",
								"Get Visibility" : "Public",
								"Set Visibility" : "Public"
							},
							"UniqueId" : 
							{
								"Type" : "System.String",
								"Get Visibility" : "Public",
								"Set Visibility" : "Public"
							},
							"UserAttachmentId" : 
							{
								"Type" : "System.Int32",
								"Get Visibility" : "Public",
								"Set Visibility" : "Public"
							},
							"UserAttachmentType" : 
							{
								"Type" : "Enum[UserAttachmentTypeVm] as Int32",
								"Get Visibility" : "Public",
								"Set Visibility" : "Public",
								"Enum Values" : 
								[
									"ProfilePicture" : "1"
									"SocialPicture" : "2"
									"BackgroundPicture" : "3"
								]
							}
						}
					]
				},
				"CreateDate" : 
				{
					"Type" : "System.DateTime",
					"Get Visibility" : "Public",
					"Set Visibility" : "Public"
				},
				"DueDate" : 
				{
					"Type" : "System.DateTime",
					"Get Visibility" : "Public",
					"Set Visibility" : "Public"
				},
				"IsComplete" : 
				{
					"Type" : "System.Boolean",
					"Get Visibility" : "Public",
					"Set Visibility" : "Public"
				},
				"IsNew" : 
				{
					"Type" : "System.Boolean",
					"Get Visibility" : "Public",
					"Set Visibility" : "Public"
				},
				"LastSeenDate" : 
				{
					"Type" : "System.DateTime?",
					"Get Visibility" : "Public",
					"Set Visibility" : "Public"
				},
				"OrgUserId" : 
				{
					"Type" : "System.Int32",
					"Get Visibility" : "Public",
					"Set Visibility" : "Public"
				},
				"OrgUserName" : 
				{
					"Type" : "System.String",
					"Get Visibility" : "Public",
					"Set Visibility" : "Public"
				},
				"ScorecardDetailId" : 
				{
					"Type" : "System.Int32",
					"Get Visibility" : "Public",
					"Set Visibility" : "Public"
				},
				"TodoItemId" : 
				{
					"Type" : "System.Int32",
					"Get Visibility" : "Public",
					"Set Visibility" : "Public"
				},
				"UpdateDate" : 
				{
					"Type" : "System.DateTime?",
					"Get Visibility" : "Public",
					"Set Visibility" : "Public"
				}
			}
		]
	}
}
},
"Return Type" : "System.Void",
"Returned Fields" :
"System.Void"
}
