{
"Controller": "MessagesReceivedController",
"Action" : "GetOrgUserById",
"HttpMethods": {"GET"},
"Parameters": 
{
	"messageId" : "System.Int32",
	"top" : "System.Int32",
	"skip" : "System.Int32",
	"isNew" : "System.Boolean?"
},
"Return Type" : "System.Collections.Generic.IEnumerable`1[[System.Int32, mscorlib, Version=4.0.0.0, Culture=neutral, PublicKeyToken=b77a5c561934e089]]",
"Returned Fields" :
{
	"Type" : "System.Collections.Generic.IEnumerable`1[[System.Int32, mscorlib, Version=4.0.0.0, Culture=neutral, PublicKeyToken=b77a5c561934e089]]",
	"Containing" :
	[
"Int32"
	]
}

}
