{
"Controller": "ScorecardController",
"Action" : "Post",
"HttpMethods": {"POST"},
"Parameters": 
{
	"vm" : {
	"AuditDate" : 
	{
		"Type" : "System.DateTime",
		"Get Visibility" : "Public",
		"Set Visibility" : "Public"
	},
	"AuditorAttachments" : 
	{
		"Type" : "System.Collections.Generic.List`1[[ChaiTea.BusinessLogic.ViewModels.Personnel.UserAttachmentVm, ChaiTea.BusinessLogic, Version=0.0.0.0, Culture=neutral, PublicKeyToken=null]]",
		"Get Visibility" : "Public",
		"Set Visibility" : "Public",
		"Nested Fields" :
		[
			{
				"AttachmentType" : 
				{
					"Type" : "Enum[AttachmentTypeVm] as Int32",
					"Get Visibility" : "Public",
					"Set Visibility" : "Public",
					"Enum Values" : 
					[
						"Image" : "1"
						"Video" : "2"
						"Audio" : "3"
						"Pdf" : "4"
						"File" : "5"
					]
				},
				"Description" : 
				{
					"Type" : "System.String",
					"Get Visibility" : "Public",
					"Set Visibility" : "Public"
				},
				"Name" : 
				{
					"Type" : "System.String",
					"Get Visibility" : "Public",
					"Set Visibility" : "Public"
				},
				"UniqueId" : 
				{
					"Type" : "System.String",
					"Get Visibility" : "Public",
					"Set Visibility" : "Public"
				},
				"UserAttachmentId" : 
				{
					"Type" : "System.Int32",
					"Get Visibility" : "Public",
					"Set Visibility" : "Public"
				},
				"UserAttachmentType" : 
				{
					"Type" : "Enum[UserAttachmentTypeVm] as Int32",
					"Get Visibility" : "Public",
					"Set Visibility" : "Public",
					"Enum Values" : 
					[
						"ProfilePicture" : "1"
						"SocialPicture" : "2"
						"BackgroundPicture" : "3"
					]
				}
			}
		]
	},
	"AuditorId" : 
	{
		"Type" : "System.Int32",
		"Get Visibility" : "Public",
		"Set Visibility" : "Public"
	},
	"AuditorName" : 
	{
		"Type" : "System.String",
		"Get Visibility" : "Public",
		"Set Visibility" : "Public"
	},
	"Average" : 
	{
		"Type" : "System.Double?",
		"Get Visibility" : "Public",
		"Set Visibility" : "Public"
	},
	"BuildingId" : 
	{
		"Type" : "System.Int32",
		"Get Visibility" : "Public",
		"Set Visibility" : "Public"
	},
	"BuildingName" : 
	{
		"Type" : "System.String",
		"Get Visibility" : "Public",
		"Set Visibility" : "Public"
	},
	"Comment" : 
	{
		"Type" : "System.String",
		"Get Visibility" : "Public",
		"Set Visibility" : "Public"
	},
	"CustomerRepresentatives" : 
	{
		"Type" : "System.Collections.Generic.List`1[[ChaiTea.BusinessLogic.ViewModels.Organizations.CustomerRepresentativeVm, ChaiTea.BusinessLogic, Version=0.0.0.0, Culture=neutral, PublicKeyToken=null]]",
		"Get Visibility" : "Public",
		"Set Visibility" : "Public",
		"Nested Fields" :
		[
			{
				"CustomerRepresentativeId" : 
				{
					"Type" : "System.Int32",
					"Get Visibility" : "Public",
					"Set Visibility" : "Public"
				},
				"Email" : 
				{
					"Type" : "System.String",
					"Get Visibility" : "Public",
					"Set Visibility" : "Public"
				},
				"JobDescription" : 
				{
					"Type" : "System.String",
					"Get Visibility" : "Public",
					"Set Visibility" : "Public"
				},
				"Name" : 
				{
					"Type" : "System.String",
					"Get Visibility" : "Public",
					"Set Visibility" : "Public"
				}
			}
		]
	},
	"FloorId" : 
	{
		"Type" : "System.Int32",
		"Get Visibility" : "Public",
		"Set Visibility" : "Public"
	},
	"FloorName" : 
	{
		"Type" : "System.String",
		"Get Visibility" : "Public",
		"Set Visibility" : "Public"
	},
	"InProgress" : 
	{
		"Type" : "System.Boolean",
		"Get Visibility" : "Public",
		"Set Visibility" : "Public"
	},
	"IsJointAudit" : 
	{
		"Type" : "System.Boolean",
		"Get Visibility" : "Public",
		"Set Visibility" : "Public"
	},
	"MaximumScore" : 
	{
		"Type" : "System.Int32",
		"Get Visibility" : "Public",
		"Set Visibility" : "Public"
	},
	"MinimumScore" : 
	{
		"Type" : "System.Int32",
		"Get Visibility" : "Public",
		"Set Visibility" : "Public"
	},
	"ParentScorecardId" : 
	{
		"Type" : "System.Int32?",
		"Get Visibility" : "Public",
		"Set Visibility" : "Public"
	},
	"ProfileId" : 
	{
		"Type" : "System.Int32",
		"Get Visibility" : "Public",
		"Set Visibility" : "Public"
	},
	"ProgramId" : 
	{
		"Type" : "System.Int32",
		"Get Visibility" : "Public",
		"Set Visibility" : "Public"
	},
	"ProgramName" : 
	{
		"Type" : "System.String",
		"Get Visibility" : "Public",
		"Set Visibility" : "Public"
	},
	"ScorecardId" : 
	{
		"Type" : "System.Int32",
		"Get Visibility" : "Public",
		"Set Visibility" : "Public"
	},
	"ScorecardSections" : 
	{
		"Type" : "System.Collections.Generic.List`1[[ChaiTea.BusinessLogic.ViewModels.Auditing.ScorecardSectionVm, ChaiTea.BusinessLogic, Version=0.0.0.0, Culture=neutral, PublicKeyToken=null]]",
		"Get Visibility" : "Public",
		"Set Visibility" : "Public",
		"Nested Fields" :
		[
			{
				"AreaClassificationId" : 
				{
					"Type" : "System.Int32",
					"Get Visibility" : "Public",
					"Set Visibility" : "Public"
				},
				"AreaClassificationName" : 
				{
					"Type" : "System.String",
					"Get Visibility" : "Public",
					"Set Visibility" : "Public"
				},
				"AreaId" : 
				{
					"Type" : "System.Int32",
					"Get Visibility" : "Public",
					"Set Visibility" : "Public"
				},
				"AreaName" : 
				{
					"Type" : "System.String",
					"Get Visibility" : "Public",
					"Set Visibility" : "Public"
				},
				"ScorecardDetails" : 
				{
					"Type" : "System.Collections.Generic.List`1[[ChaiTea.BusinessLogic.ViewModels.Auditing.ScorecardDetailVm, ChaiTea.BusinessLogic, Version=0.0.0.0, Culture=neutral, PublicKeyToken=null]]",
					"Get Visibility" : "Public",
					"Set Visibility" : "Public",
					"Nested Fields" :
					[
						{
							"AuditInspectionItemName" : 
							{
								"Type" : "System.String",
								"Get Visibility" : "Public",
								"Set Visibility" : "Public"
							},
							"Comment" : 
							{
								"Type" : "System.String",
								"Get Visibility" : "Public",
								"Set Visibility" : "Public"
							},
							"Score" : 
							{
								"Type" : "System.Double?",
								"Get Visibility" : "Public",
								"Set Visibility" : "Public"
							},
							"ScorecardDetailId" : 
							{
								"Type" : "System.Int32",
								"Get Visibility" : "Public",
								"Set Visibility" : "Public"
							},
							"ScorecardDetailImages" : 
							{
								"Type" : "System.Collections.Generic.IEnumerable`1[[ChaiTea.BusinessLogic.ViewModels.Auditing.ScorecardDetailImageVm, ChaiTea.BusinessLogic, Version=0.0.0.0, Culture=neutral, PublicKeyToken=null]]",
								"Get Visibility" : "Public",
								"Set Visibility" : "Public",
								"Nested Fields" :
								[
									{
										"Comment" : 
										{
											"Type" : "System.String",
											"Get Visibility" : "Public",
											"Set Visibility" : "Public"
										},
										"ImageId" : 
										{
											"Type" : "System.Int32",
											"Get Visibility" : "Public",
											"Set Visibility" : "Public"
										},
										"PublicId" : 
										{
											"Type" : "System.String",
											"Get Visibility" : "Public",
											"Set Visibility" : "Public"
										},
										"ScorecardDetailId" : 
										{
											"Type" : "System.Int32",
											"Get Visibility" : "Public",
											"Set Visibility" : "Public"
										}
									}
								]
							},
							"ScorecardSectionId" : 
							{
								"Type" : "System.Int32",
								"Get Visibility" : "Public",
								"Set Visibility" : "Public"
							},
							"TodoItems" : 
							{
								"Type" : "System.Collections.Generic.IEnumerable`1[[ChaiTea.BusinessLogic.ViewModels.Auditing.ScorecardDetailTodoItemVm, ChaiTea.BusinessLogic, Version=0.0.0.0, Culture=neutral, PublicKeyToken=null]]",
								"Get Visibility" : "Public",
								"Set Visibility" : "Public",
								"Nested Fields" :
								[
									{
										"Comment" : 
										{
											"Type" : "System.String",
											"Get Visibility" : "Public",
											"Set Visibility" : "Public"
										},
										"CreateByAttachments" : 
										{
											"Type" : "System.Collections.Generic.List`1[[ChaiTea.BusinessLogic.ViewModels.Personnel.UserAttachmentVm, ChaiTea.BusinessLogic, Version=0.0.0.0, Culture=neutral, PublicKeyToken=null]]",
											"Get Visibility" : "Public",
											"Set Visibility" : "Public",
											"Nested Fields" :
											[
"UserAttachmentVm"
											]
										},
										"CreateDate" : 
										{
											"Type" : "System.DateTime",
											"Get Visibility" : "Public",
											"Set Visibility" : "Public"
										},
										"DueDate" : 
										{
											"Type" : "System.DateTime",
											"Get Visibility" : "Public",
											"Set Visibility" : "Public"
										},
										"IsComplete" : 
										{
											"Type" : "System.Boolean",
											"Get Visibility" : "Public",
											"Set Visibility" : "Public"
										},
										"IsNew" : 
										{
											"Type" : "System.Boolean",
											"Get Visibility" : "Public",
											"Set Visibility" : "Public"
										},
										"LastSeenDate" : 
										{
											"Type" : "System.DateTime?",
											"Get Visibility" : "Public",
											"Set Visibility" : "Public"
										},
										"OrgUserId" : 
										{
											"Type" : "System.Int32",
											"Get Visibility" : "Public",
											"Set Visibility" : "Public"
										},
										"OrgUserName" : 
										{
											"Type" : "System.String",
											"Get Visibility" : "Public",
											"Set Visibility" : "Public"
										},
										"ScorecardDetailId" : 
										{
											"Type" : "System.Int32",
											"Get Visibility" : "Public",
											"Set Visibility" : "Public"
										},
										"TodoItemId" : 
										{
											"Type" : "System.Int32",
											"Get Visibility" : "Public",
											"Set Visibility" : "Public"
										},
										"UpdateDate" : 
										{
											"Type" : "System.DateTime?",
											"Get Visibility" : "Public",
											"Set Visibility" : "Public"
										}
									}
								]
							}
						}
					]
				},
				"ScorecardSectionId" : 
				{
					"Type" : "System.Int32",
					"Get Visibility" : "Public",
					"Set Visibility" : "Public"
				}
			}
		]
	},
	"SiteId" : 
	{
		"Type" : "System.Int32",
		"Get Visibility" : "Public",
		"Set Visibility" : "Public"
	},
	"SiteName" : 
	{
		"Type" : "System.String",
		"Get Visibility" : "Public",
		"Set Visibility" : "Public"
	},
	"UpdateDate" : 
	{
		"Type" : "System.DateTime?",
		"Get Visibility" : "Public",
		"Set Visibility" : "Public"
	}
}
},
"Return Type" : "System.Void",
"Returned Fields" :
"System.Void"
}
