{
"Controller": "EmployeeKpiMasterController",
"Action" : "GetEmployeeKpiMaster",
"HttpMethods": {"GET"},
"Parameters": 
{
},
"Return Type" : "System.Linq.IQueryable`1[[ChaiTea.BusinessLogic.ViewModels.KeyPerformanceIndicators.EmployeeKpiMasterVm, ChaiTea.BusinessLogic, Version=0.0.0.0, Culture=neutral, PublicKeyToken=null]]",
"Returned Fields" :
{
	"Type" : "System.Linq.IQueryable`1[[ChaiTea.BusinessLogic.ViewModels.KeyPerformanceIndicators.EmployeeKpiMasterVm, ChaiTea.BusinessLogic, Version=0.0.0.0, Culture=neutral, PublicKeyToken=null]]",
	"Containing" :
	[
		{
			"BonusAmount" : 
			{
				"Type" : "System.Decimal",
				"Get Visibility" : "Public",
				"Set Visibility" : "Public"
			},
			"Comment" : 
			{
				"Type" : "System.String",
				"Get Visibility" : "Public",
				"Set Visibility" : "Public"
			},
			"EmployeeId" : 
			{
				"Type" : "System.Int32",
				"Get Visibility" : "Public",
				"Set Visibility" : "Public"
			},
			"EmployeeKpiMasterId" : 
			{
				"Type" : "System.Int32",
				"Get Visibility" : "Public",
				"Set Visibility" : "Public"
			},
			"IsClosed" : 
			{
				"Type" : "System.Boolean",
				"Get Visibility" : "Public",
				"Set Visibility" : "Public"
			},
			"IsPass" : 
			{
				"Type" : "System.Boolean?",
				"Get Visibility" : "Public",
				"Set Visibility" : "Public"
			},
			"Month" : 
			{
				"Type" : "System.Int32",
				"Get Visibility" : "Public",
				"Set Visibility" : "Public"
			},
			"Year" : 
			{
				"Type" : "System.Int32",
				"Get Visibility" : "Public",
				"Set Visibility" : "Public"
			}
		}
	]
}

}
