{
	"id" : "Int32",
	"vm" : 
	{
		"DefaultPassingMetric" : "Double",
		"JobId" : "Int32",
		"KpiId" : "Int32",
		"Name" : "String",
		"PassingMetric" : "Double?",
		"ProgramId" : "Int32?",
		"SiteId" : "Int32",
		"SiteJobProgramKpiId" : "Int32"
	}
}
