{
"Controller": "ScorecardDetailImageController",
"Action" : "Rotate",
"HttpMethods": {"GET"},
"Parameters": 
{
	"id" : "System.Int32",
	"degree" : "System.Int32"
},
"Return Type" : "ChaiTea.BusinessLogic.ViewModels.Auditing.ScorecardDetailImageVm",
"Returned Fields" :
{
	"Comment" : 
	{
		"Type" : "System.String",
		"Get Visibility" : "Public",
		"Set Visibility" : "Public"
	},
	"ImageId" : 
	{
		"Type" : "System.Int32",
		"Get Visibility" : "Public",
		"Set Visibility" : "Public"
	},
	"PublicId" : 
	{
		"Type" : "System.String",
		"Get Visibility" : "Public",
		"Set Visibility" : "Public"
	},
	"ScorecardDetailId" : 
	{
		"Type" : "System.Int32",
		"Get Visibility" : "Public",
		"Set Visibility" : "Public"
	}
}
}
