{
"Controller": "KpiCommentController",
"Action" : "GetKpiComment",
"HttpMethods": {"GET"},
"Parameters": 
{
	"year" : "System.Int32",
	"month" : "System.Int32",
	"employeeId" : "System.Int32"
},
"Return Type" : "ChaiTea.BusinessLogic.ViewModels.KeyPerformanceIndicators.KpiCommentVm",
"Returned Fields" :
{
	"Comment" : 
	{
		"Type" : "System.String",
		"Get Visibility" : "Public",
		"Set Visibility" : "Public"
	},
	"EmployeeId" : 
	{
		"Type" : "System.Int32",
		"Get Visibility" : "Public",
		"Set Visibility" : "Public"
	},
	"EmployeeKpiMasterId" : 
	{
		"Type" : "System.Int32",
		"Get Visibility" : "Public",
		"Set Visibility" : "Public"
	},
	"IsPass" : 
	{
		"Type" : "System.Boolean?",
		"Get Visibility" : "Public",
		"Set Visibility" : "Public"
	},
	"Month" : 
	{
		"Type" : "System.Int32",
		"Get Visibility" : "Public",
		"Set Visibility" : "Public"
	},
	"Year" : 
	{
		"Type" : "System.Int32",
		"Get Visibility" : "Public",
		"Set Visibility" : "Public"
	}
}
}
