{
"Controller": "ConductIssueController",
"Action" : "GetLastUpdateDate",
"HttpMethods": {"GET"},
"Parameters": 
{
},
"Return Type" : "System.Nullable`1[[System.DateTime, mscorlib, Version=4.0.0.0, Culture=neutral, PublicKeyToken=b77a5c561934e089]]",
"Returned Fields" :
"System.Nullable`1[[System.DateTime, mscorlib, Version=4.0.0.0, Culture=neutral, PublicKeyToken=b77a5c561934e089]]"
}
