{
"Controller": "OwnershipCustomerRepresentativeController",
"Action" : "Get",
"HttpMethods": {"GET"},
"Parameters": 
{
	"id" : "System.Int32"
},
"Return Type" : "ChaiTea.BusinessLogic.ViewModels.ActionRequests.NoticedIssues.OwnershipCustomerRepresentativeVm",
"Returned Fields" :
{
	"ClientId" : 
	{
		"Type" : "System.Int32",
		"Get Visibility" : "Public",
		"Set Visibility" : "Public"
	},
	"ClientName" : 
	{
		"Type" : "System.String",
		"Get Visibility" : "Public",
		"Set Visibility" : "Public"
	},
	"CustomerRepresentativeId" : 
	{
		"Type" : "System.Int32",
		"Get Visibility" : "Public",
		"Set Visibility" : "Public"
	},
	"Email" : 
	{
		"Type" : "System.String",
		"Get Visibility" : "Public",
		"Set Visibility" : "Public"
	},
	"JobDescription" : 
	{
		"Type" : "System.String",
		"Get Visibility" : "Public",
		"Set Visibility" : "Public"
	},
	"Name" : 
	{
		"Type" : "System.String",
		"Get Visibility" : "Public",
		"Set Visibility" : "Public"
	},
	"SourceLanguageId" : 
	{
		"Type" : "System.Int32?",
		"Get Visibility" : "Public",
		"Set Visibility" : "Public"
	}
}
}
