{
"Controller": "IssueController",
"Action" : "GetAttendanceTabCounts",
"HttpMethods": {"GET"},
"Parameters": 
{
	"startDate" : "System.DateTime",
	"endDate" : "System.DateTime",
	"employeeId" : "System.Int32?",
	"issueTypeId" : "System.Int32?",
	"reasonId" : "System.Int32?"
},
"Return Type" : "ChaiTea.BusinessLogic.ViewModels.TimeCenter.AttendanceTabCountsVm",
"Returned Fields" :
{
	"AbsentCount" : 
	{
		"Type" : "System.Int32",
		"Get Visibility" : "Public",
		"Set Visibility" : "Public"
	},
	"PartialDayCount" : 
	{
		"Type" : "System.Int32",
		"Get Visibility" : "Public",
		"Set Visibility" : "Public"
	}
}
}
