{
"Controller": "ConductIssueController",
"Action" : "Get",
"HttpMethods": {"GET"},
"Parameters": 
{
},
"Return Type" : "System.Linq.IQueryable`1[[ChaiTea.BusinessLogic.ViewModels.Assessments.ConductIssues.ConductVm, ChaiTea.BusinessLogic, Version=0.0.0.0, Culture=neutral, PublicKeyToken=null]]",
"Returned Fields" :
{
	"Type" : "System.Linq.IQueryable`1[[ChaiTea.BusinessLogic.ViewModels.Assessments.ConductIssues.ConductVm, ChaiTea.BusinessLogic, Version=0.0.0.0, Culture=neutral, PublicKeyToken=null]]",
	"Containing" :
	[
		{
			"ConductAttachments" : 
			{
				"Type" : "System.Collections.Generic.List`1[[ChaiTea.BusinessLogic.ViewModels.Assessments.ConductIssues.ConductAttachmentVm, ChaiTea.BusinessLogic, Version=0.0.0.0, Culture=neutral, PublicKeyToken=null]]",
				"Get Visibility" : "Public",
				"Set Visibility" : "Public",
				"Nested Fields" :
				[
					{
						"AttachmentType" : 
						{
							"Type" : "Enum[AttachmentTypeVm] as Int32",
							"Get Visibility" : "Public",
							"Set Visibility" : "Public",
							"Enum Values" : 
							[
								"Image" : "1"
								"Video" : "2"
								"Audio" : "3"
								"Pdf" : "4"
								"File" : "5"
							]
						},
						"ConductAttachmentId" : 
						{
							"Type" : "System.Int32",
							"Get Visibility" : "Public",
							"Set Visibility" : "Public"
						},
						"ConductAttachmentType" : 
						{
							"Type" : "Enum[ConductAttachmentTypeVm] as Int32",
							"Get Visibility" : "Public",
							"Set Visibility" : "Public",
							"Enum Values" : 
							[
								"Misc" : "1"
							]
						},
						"ConductAttachmentTypeId" : 
						{
							"Type" : "System.Int32",
							"Get Visibility" : "Public",
							"Set Visibility" : "Public"
						},
						"Description" : 
						{
							"Type" : "System.String",
							"Get Visibility" : "Public",
							"Set Visibility" : "Public"
						},
						"Name" : 
						{
							"Type" : "System.String",
							"Get Visibility" : "Public",
							"Set Visibility" : "Public"
						},
						"UniqueId" : 
						{
							"Type" : "System.String",
							"Get Visibility" : "Public",
							"Set Visibility" : "Public"
						}
					}
				]
			},
			"ConductId" : 
			{
				"Type" : "System.Int32",
				"Get Visibility" : "Public",
				"Set Visibility" : "Public"
			},
			"ConductTypes" : 
			{
				"Type" : "System.Collections.Generic.List`1[[ChaiTea.BusinessLogic.ViewModels.Assessments.ConductIssues.ConductTypeVm, ChaiTea.BusinessLogic, Version=0.0.0.0, Culture=neutral, PublicKeyToken=null]]",
				"Get Visibility" : "Public",
				"Set Visibility" : "Public",
				"Nested Fields" :
				[
					{
						"ConductTypeId" : 
						{
							"Type" : "System.Int32",
							"Get Visibility" : "Public",
							"Set Visibility" : "Public"
						},
						"Name" : 
						{
							"Type" : "System.String",
							"Get Visibility" : "Public",
							"Set Visibility" : "Public"
						}
					}
				]
			},
			"CreateDate" : 
			{
				"Type" : "System.DateTime",
				"Get Visibility" : "Public",
				"Set Visibility" : "Public"
			},
			"DateOfOccurrence" : 
			{
				"Type" : "System.DateTime",
				"Get Visibility" : "Public",
				"Set Visibility" : "Public"
			},
			"IsExempt" : 
			{
				"Type" : "System.Boolean",
				"Get Visibility" : "Public",
				"Set Visibility" : "Public"
			},
			"OrgUserId" : 
			{
				"Type" : "System.Int32",
				"Get Visibility" : "Public",
				"Set Visibility" : "Public"
			},
			"Reason" : 
			{
				"Type" : "System.String",
				"Get Visibility" : "Public",
				"Set Visibility" : "Public"
			}
		}
	]
}

}
