{
"Controller": "SiteController",
"Action" : "GetUserSitesByClientId",
"HttpMethods": {"GET"},
"Parameters": 
{
	"clientId" : "System.Int32"
},
"Return Type" : "System.Collections.Generic.IEnumerable`1[[ChaiTea.BusinessLogic.ViewModels.Facilities.SiteVm, ChaiTea.BusinessLogic, Version=0.0.0.0, Culture=neutral, PublicKeyToken=null]]",
"Returned Fields" :
{
	"Type" : "System.Collections.Generic.IEnumerable`1[[ChaiTea.BusinessLogic.ViewModels.Facilities.SiteVm, ChaiTea.BusinessLogic, Version=0.0.0.0, Culture=neutral, PublicKeyToken=null]]",
	"Containing" :
	[
		{
			"ChildCount" : 
			{
				"Type" : "System.Int32",
				"Get Visibility" : "Public",
				"Set Visibility" : "Public"
			},
			"Id" : 
			{
				"Type" : "System.Int32",
				"Get Visibility" : "Public",
				"Set Visibility" : "Public"
			},
			"Latitude" : 
			{
				"Type" : "System.Double?",
				"Get Visibility" : "Public",
				"Set Visibility" : "Public"
			},
			"Longitude" : 
			{
				"Type" : "System.Double?",
				"Get Visibility" : "Public",
				"Set Visibility" : "Public"
			},
			"Name" : 
			{
				"Type" : "System.String",
				"Get Visibility" : "Public",
				"Set Visibility" : "Public"
			},
			"ParentId" : 
			{
				"Type" : "System.Int32?",
				"Get Visibility" : "Public",
				"Set Visibility" : "Public"
			},
			"ProgramCount" : 
			{
				"Type" : "System.Int32",
				"Get Visibility" : "Public",
				"Set Visibility" : "Public"
			}
		}
	]
}

}
