{
	"id" : "Int32",
	"vm" : 
	{
		"BonusAmount" : "Decimal?",
		"Comment" : "String",
		"EmployeeId" : "Int32",
		"EmployeeKpiMasterId" : "Int32",
		"EmployeeKpis" : 
		[
			{
				"CheckBoxOptions" : 
				[
					{
						"Key" : "Int32",
						"Value" : "String",
						"Value" : "String"
					}
				],
				"CheckBoxSelections" : 
				[
				"Int32"
				],
				"Comment" : "String",
				"EmployeeMonthlyKpiId" : "Int32",
				"IsExempt" : "Boolean",
				"IsPass" : "Boolean?",
				"IsPassingOnData" : "Boolean?",
				"Kpi" : 
				{
					"Description" : "String",
					"Icon" : "String",
					"KpiId" : "Int32",
					"Name" : "String",
					"Summary" : "String"
				},
				"MetaData" : 
				[
					{
						"DataPointType" : "Int32",
						"IsForDisplay" : "Boolean",
						"IsPass" : "Boolean?",
						"Label" : "String",
						"Value" : "String"
					}
				],
				"Metric" : "Double?",
				"PassingMetric" : "Double",
				"PositiveComment" : "String",
				"ProgramName" : "String"
			}
		],
		"ExternalEmployeeId" : "String",
		"HireDate" : "DateTime?",
		"IsClosed" : "Boolean",
		"IsExempt" : "Boolean",
		"IsPass" : "Boolean?",
		"Job" : 
		{
			"JobId" : "Int32",
			"Name" : "String"
		},
		"JobDescription" : "String",
		"JobId" : "Int32",
		"Month" : "Int32",
		"Name" : "String",
		"UpdateDate" : "DateTime?",
		"UserAttachments" : 
		[
			{
				"AttachmentType" : "Int32",
				"Description" : "String",
				"Name" : "String",
				"UniqueId" : "String",
				"UserAttachmentId" : "Int32",
				"UserAttachmentType" : "Int32"
			}
		],
		"Year" : "Int32"
	}
}
