{
"Controller": "ServiceExcellenceController",
"Action" : "Put",
"HttpMethods": {"PUT"},
"Parameters": 
{
	"id" : "System.Int32",
	"vm" : {
	"BonusAmount" : 
	{
		"Type" : "System.Decimal?",
		"Get Visibility" : "Public",
		"Set Visibility" : "Public"
	},
	"Comment" : 
	{
		"Type" : "System.String",
		"Get Visibility" : "Public",
		"Set Visibility" : "Public"
	},
	"EmployeeId" : 
	{
		"Type" : "System.Int32",
		"Get Visibility" : "Public",
		"Set Visibility" : "Public"
	},
	"EmployeeKpiMasterId" : 
	{
		"Type" : "System.Int32",
		"Get Visibility" : "Public",
		"Set Visibility" : "Public"
	},
	"EmployeeKpis" : 
	{
		"Type" : "System.Collections.Generic.List`1[[ChaiTea.BusinessLogic.ViewModels.KeyPerformanceIndicators.EmployeeKpiVm, ChaiTea.BusinessLogic, Version=0.0.0.0, Culture=neutral, PublicKeyToken=null]]",
		"Get Visibility" : "Public",
		"Set Visibility" : "Public",
		"Nested Fields" :
		[
			{
				"CheckBoxOptions" : 
				{
					"Type" : "System.Collections.Generic.List`1[[ChaiTea.BusinessLogic.ViewModels.KeyPerformanceIndicators.KpiLookupListOptionVm, ChaiTea.BusinessLogic, Version=0.0.0.0, Culture=neutral, PublicKeyToken=null]]",
					"Get Visibility" : "Public",
					"Set Visibility" : "Public",
					"Nested Fields" :
					[
						{
							"Key" : 
							{
								"Type" : "System.Int32",
								"Get Visibility" : "Public",
								"Set Visibility" : "Public"
							},
							"Value" : 
							{
								"Type" : "System.String",
								"Get Visibility" : "Public",
								"Set Visibility" : "Public"
							},
							"Value" : 
							{
								"Type" : "System.String",
								"Get Visibility" : "Public",
								"Set Visibility" : "Public"
							}
						}
					]
				},
				"CheckBoxSelections" : 
				{
					"Type" : "System.Collections.Generic.List`1[[System.Int32, mscorlib, Version=4.0.0.0, Culture=neutral, PublicKeyToken=b77a5c561934e089]]",
					"Get Visibility" : "Public",
					"Set Visibility" : "Public",
					"Nested Fields" :
					[
			"Int32"
					]
				},
				"Comment" : 
				{
					"Type" : "System.String",
					"Get Visibility" : "Public",
					"Set Visibility" : "Public"
				},
				"EmployeeMonthlyKpiId" : 
				{
					"Type" : "System.Int32",
					"Get Visibility" : "Public",
					"Set Visibility" : "Public"
				},
				"IsExempt" : 
				{
					"Type" : "System.Boolean",
					"Get Visibility" : "Public",
					"Set Visibility" : "Public"
				},
				"IsPass" : 
				{
					"Type" : "System.Boolean?",
					"Get Visibility" : "Public",
					"Set Visibility" : "Public"
				},
				"IsPassingOnData" : 
				{
					"Type" : "System.Boolean?",
					"Get Visibility" : "Public",
					"Set Visibility" : "Public"
				},
				"Kpi" : 
				{
					"Type" : "ChaiTea.BusinessLogic.ViewModels.KeyPerformanceIndicators.KpiVm",
					"Get Visibility" : "Public",
					"Set Visibility" : "Public",
					"Nested Fields" :
					{
						"Description" : 
						{
							"Type" : "System.String",
							"Get Visibility" : "Public",
							"Set Visibility" : "Public"
						},
						"Icon" : 
						{
							"Type" : "System.String",
							"Get Visibility" : "Public",
							"Set Visibility" : "Public"
						},
						"KpiId" : 
						{
							"Type" : "System.Int32",
							"Get Visibility" : "Public",
							"Set Visibility" : "Public"
						},
						"Name" : 
						{
							"Type" : "System.String",
							"Get Visibility" : "Public",
							"Set Visibility" : "Public"
						},
						"Summary" : 
						{
							"Type" : "System.String",
							"Get Visibility" : "Public",
							"Set Visibility" : "Public"
						}
					}
				},
				"MetaData" : 
				{
					"Type" : "System.Collections.Generic.List`1[[ChaiTea.BusinessLogic.ViewModels.KeyPerformanceIndicators.DataPointVm, ChaiTea.BusinessLogic, Version=0.0.0.0, Culture=neutral, PublicKeyToken=null]]",
					"Get Visibility" : "Public",
					"Set Visibility" : "Public",
					"Nested Fields" :
					[
						{
							"DataPointType" : 
							{
								"Type" : "Enum[DataPointType] as Int32",
								"Get Visibility" : "Public",
								"Set Visibility" : "Public",
								"Enum Values" : 
								[
									"ThresholdMetric" : "0"
									"CandidateValue" : "1"
									"Other" : "2"
								]
							},
							"IsForDisplay" : 
							{
								"Type" : "System.Boolean",
								"Get Visibility" : "Public",
								"Set Visibility" : "Public"
							},
							"IsPass" : 
							{
								"Type" : "System.Boolean?",
								"Get Visibility" : "Public",
								"Set Visibility" : "Public"
							},
							"Label" : 
							{
								"Type" : "System.String",
								"Get Visibility" : "Public",
								"Set Visibility" : "Public"
							},
							"Value" : 
							{
								"Type" : "System.String",
								"Get Visibility" : "Public",
								"Set Visibility" : "Public"
							}
						}
					]
				},
				"Metric" : 
				{
					"Type" : "System.Double?",
					"Get Visibility" : "Public",
					"Set Visibility" : "Public"
				},
				"PassingMetric" : 
				{
					"Type" : "System.Double",
					"Get Visibility" : "Public",
					"Set Visibility" : "Public"
				},
				"PositiveComment" : 
				{
					"Type" : "System.String",
					"Get Visibility" : "Public",
					"Set Visibility" : "Public"
				},
				"ProgramName" : 
				{
					"Type" : "System.String",
					"Get Visibility" : "Public",
					"Set Visibility" : "Public"
				}
			}
		]
	},
	"ExternalEmployeeId" : 
	{
		"Type" : "System.String",
		"Get Visibility" : "Public",
		"Set Visibility" : "Public"
	},
	"HireDate" : 
	{
		"Type" : "System.DateTime?",
		"Get Visibility" : "Public",
		"Set Visibility" : "Public"
	},
	"IsClosed" : 
	{
		"Type" : "System.Boolean",
		"Get Visibility" : "Public",
		"Set Visibility" : "Public"
	},
	"IsExempt" : 
	{
		"Type" : "System.Boolean",
		"Get Visibility" : "Public",
		"Set Visibility" : "Public"
	},
	"IsPass" : 
	{
		"Type" : "System.Boolean?",
		"Get Visibility" : "Public",
		"Set Visibility" : "Unavailable"
	},
	"Job" : 
	{
		"Type" : "ChaiTea.BusinessLogic.ViewModels.Employment.ConciseJobVm",
		"Get Visibility" : "Public",
		"Set Visibility" : "Public",
		"Nested Fields" :
		{
			"JobId" : 
			{
				"Type" : "System.Int32",
				"Get Visibility" : "Public",
				"Set Visibility" : "Public"
			},
			"Name" : 
			{
				"Type" : "System.String",
				"Get Visibility" : "Public",
				"Set Visibility" : "Public"
			}
		}
	},
	"JobDescription" : 
	{
		"Type" : "System.String",
		"Get Visibility" : "Public",
		"Set Visibility" : "Public"
	},
	"JobId" : 
	{
		"Type" : "System.Int32",
		"Get Visibility" : "Public",
		"Set Visibility" : "Public"
	},
	"Month" : 
	{
		"Type" : "System.Int32",
		"Get Visibility" : "Public",
		"Set Visibility" : "Public"
	},
	"Name" : 
	{
		"Type" : "System.String",
		"Get Visibility" : "Public",
		"Set Visibility" : "Public"
	},
	"UpdateDate" : 
	{
		"Type" : "System.DateTime?",
		"Get Visibility" : "Public",
		"Set Visibility" : "Public"
	},
	"UserAttachments" : 
	{
		"Type" : "System.Collections.Generic.List`1[[ChaiTea.BusinessLogic.ViewModels.Personnel.UserAttachmentVm, ChaiTea.BusinessLogic, Version=0.0.0.0, Culture=neutral, PublicKeyToken=null]]",
		"Get Visibility" : "Public",
		"Set Visibility" : "Public",
		"Nested Fields" :
		[
			{
				"AttachmentType" : 
				{
					"Type" : "Enum[AttachmentTypeVm] as Int32",
					"Get Visibility" : "Public",
					"Set Visibility" : "Public",
					"Enum Values" : 
					[
						"Image" : "1"
						"Video" : "2"
						"Audio" : "3"
						"Pdf" : "4"
						"File" : "5"
					]
				},
				"Description" : 
				{
					"Type" : "System.String",
					"Get Visibility" : "Public",
					"Set Visibility" : "Public"
				},
				"Name" : 
				{
					"Type" : "System.String",
					"Get Visibility" : "Public",
					"Set Visibility" : "Public"
				},
				"UniqueId" : 
				{
					"Type" : "System.String",
					"Get Visibility" : "Public",
					"Set Visibility" : "Public"
				},
				"UserAttachmentId" : 
				{
					"Type" : "System.Int32",
					"Get Visibility" : "Public",
					"Set Visibility" : "Public"
				},
				"UserAttachmentType" : 
				{
					"Type" : "Enum[UserAttachmentTypeVm] as Int32",
					"Get Visibility" : "Public",
					"Set Visibility" : "Public",
					"Enum Values" : 
					[
						"ProfilePicture" : "1"
						"SocialPicture" : "2"
						"BackgroundPicture" : "3"
					]
				}
			}
		]
	},
	"Year" : 
	{
		"Type" : "System.Int32",
		"Get Visibility" : "Public",
		"Set Visibility" : "Public"
	}
}
},
"Return Type" : "ChaiTea.BusinessLogic.ViewModels.KeyPerformanceIndicators.ExtendedServiceExcellenceEmployeeVm",
"Returned Fields" :
{
	"BonusAmount" : 
	{
		"Type" : "System.Decimal?",
		"Get Visibility" : "Public",
		"Set Visibility" : "Public"
	},
	"Comment" : 
	{
		"Type" : "System.String",
		"Get Visibility" : "Public",
		"Set Visibility" : "Public"
	},
	"EmployeeId" : 
	{
		"Type" : "System.Int32",
		"Get Visibility" : "Public",
		"Set Visibility" : "Public"
	},
	"EmployeeKpiMasterId" : 
	{
		"Type" : "System.Int32",
		"Get Visibility" : "Public",
		"Set Visibility" : "Public"
	},
	"EmployeeKpis" : 
	{
		"Type" : "System.Collections.Generic.List`1[[ChaiTea.BusinessLogic.ViewModels.KeyPerformanceIndicators.EmployeeKpiVm, ChaiTea.BusinessLogic, Version=0.0.0.0, Culture=neutral, PublicKeyToken=null]]",
		"Get Visibility" : "Public",
		"Set Visibility" : "Public",
		"Nested Fields" :
		[
			{
				"CheckBoxOptions" : 
				{
					"Type" : "System.Collections.Generic.List`1[[ChaiTea.BusinessLogic.ViewModels.KeyPerformanceIndicators.KpiLookupListOptionVm, ChaiTea.BusinessLogic, Version=0.0.0.0, Culture=neutral, PublicKeyToken=null]]",
					"Get Visibility" : "Public",
					"Set Visibility" : "Public",
					"Nested Fields" :
					[
						{
							"Key" : 
							{
								"Type" : "System.Int32",
								"Get Visibility" : "Public",
								"Set Visibility" : "Public"
							},
							"Value" : 
							{
								"Type" : "System.String",
								"Get Visibility" : "Public",
								"Set Visibility" : "Public"
							},
							"Value" : 
							{
								"Type" : "System.String",
								"Get Visibility" : "Public",
								"Set Visibility" : "Public"
							}
						}
					]
				},
				"CheckBoxSelections" : 
				{
					"Type" : "System.Collections.Generic.List`1[[System.Int32, mscorlib, Version=4.0.0.0, Culture=neutral, PublicKeyToken=b77a5c561934e089]]",
					"Get Visibility" : "Public",
					"Set Visibility" : "Public",
					"Nested Fields" :
					[
			"Int32"
					]
				},
				"Comment" : 
				{
					"Type" : "System.String",
					"Get Visibility" : "Public",
					"Set Visibility" : "Public"
				},
				"EmployeeMonthlyKpiId" : 
				{
					"Type" : "System.Int32",
					"Get Visibility" : "Public",
					"Set Visibility" : "Public"
				},
				"IsExempt" : 
				{
					"Type" : "System.Boolean",
					"Get Visibility" : "Public",
					"Set Visibility" : "Public"
				},
				"IsPass" : 
				{
					"Type" : "System.Boolean?",
					"Get Visibility" : "Public",
					"Set Visibility" : "Public"
				},
				"IsPassingOnData" : 
				{
					"Type" : "System.Boolean?",
					"Get Visibility" : "Public",
					"Set Visibility" : "Public"
				},
				"Kpi" : 
				{
					"Type" : "ChaiTea.BusinessLogic.ViewModels.KeyPerformanceIndicators.KpiVm",
					"Get Visibility" : "Public",
					"Set Visibility" : "Public",
					"Nested Fields" :
					{
						"Description" : 
						{
							"Type" : "System.String",
							"Get Visibility" : "Public",
							"Set Visibility" : "Public"
						},
						"Icon" : 
						{
							"Type" : "System.String",
							"Get Visibility" : "Public",
							"Set Visibility" : "Public"
						},
						"KpiId" : 
						{
							"Type" : "System.Int32",
							"Get Visibility" : "Public",
							"Set Visibility" : "Public"
						},
						"Name" : 
						{
							"Type" : "System.String",
							"Get Visibility" : "Public",
							"Set Visibility" : "Public"
						},
						"Summary" : 
						{
							"Type" : "System.String",
							"Get Visibility" : "Public",
							"Set Visibility" : "Public"
						}
					}
				},
				"MetaData" : 
				{
					"Type" : "System.Collections.Generic.List`1[[ChaiTea.BusinessLogic.ViewModels.KeyPerformanceIndicators.DataPointVm, ChaiTea.BusinessLogic, Version=0.0.0.0, Culture=neutral, PublicKeyToken=null]]",
					"Get Visibility" : "Public",
					"Set Visibility" : "Public",
					"Nested Fields" :
					[
						{
							"DataPointType" : 
							{
								"Type" : "Enum[DataPointType] as Int32",
								"Get Visibility" : "Public",
								"Set Visibility" : "Public",
								"Enum Values" : 
								[
									"ThresholdMetric" : "0"
									"CandidateValue" : "1"
									"Other" : "2"
								]
							},
							"IsForDisplay" : 
							{
								"Type" : "System.Boolean",
								"Get Visibility" : "Public",
								"Set Visibility" : "Public"
							},
							"IsPass" : 
							{
								"Type" : "System.Boolean?",
								"Get Visibility" : "Public",
								"Set Visibility" : "Public"
							},
							"Label" : 
							{
								"Type" : "System.String",
								"Get Visibility" : "Public",
								"Set Visibility" : "Public"
							},
							"Value" : 
							{
								"Type" : "System.String",
								"Get Visibility" : "Public",
								"Set Visibility" : "Public"
							}
						}
					]
				},
				"Metric" : 
				{
					"Type" : "System.Double?",
					"Get Visibility" : "Public",
					"Set Visibility" : "Public"
				},
				"PassingMetric" : 
				{
					"Type" : "System.Double",
					"Get Visibility" : "Public",
					"Set Visibility" : "Public"
				},
				"PositiveComment" : 
				{
					"Type" : "System.String",
					"Get Visibility" : "Public",
					"Set Visibility" : "Public"
				},
				"ProgramName" : 
				{
					"Type" : "System.String",
					"Get Visibility" : "Public",
					"Set Visibility" : "Public"
				}
			}
		]
	},
	"ExternalEmployeeId" : 
	{
		"Type" : "System.String",
		"Get Visibility" : "Public",
		"Set Visibility" : "Public"
	},
	"HireDate" : 
	{
		"Type" : "System.DateTime?",
		"Get Visibility" : "Public",
		"Set Visibility" : "Public"
	},
	"IsClosed" : 
	{
		"Type" : "System.Boolean",
		"Get Visibility" : "Public",
		"Set Visibility" : "Public"
	},
	"IsExempt" : 
	{
		"Type" : "System.Boolean",
		"Get Visibility" : "Public",
		"Set Visibility" : "Public"
	},
	"IsPass" : 
	{
		"Type" : "System.Boolean?",
		"Get Visibility" : "Public",
		"Set Visibility" : "Unavailable"
	},
	"Job" : 
	{
		"Type" : "ChaiTea.BusinessLogic.ViewModels.Employment.ConciseJobVm",
		"Get Visibility" : "Public",
		"Set Visibility" : "Public",
		"Nested Fields" :
		{
			"JobId" : 
			{
				"Type" : "System.Int32",
				"Get Visibility" : "Public",
				"Set Visibility" : "Public"
			},
			"Name" : 
			{
				"Type" : "System.String",
				"Get Visibility" : "Public",
				"Set Visibility" : "Public"
			}
		}
	},
	"JobDescription" : 
	{
		"Type" : "System.String",
		"Get Visibility" : "Public",
		"Set Visibility" : "Public"
	},
	"JobId" : 
	{
		"Type" : "System.Int32",
		"Get Visibility" : "Public",
		"Set Visibility" : "Public"
	},
	"Month" : 
	{
		"Type" : "System.Int32",
		"Get Visibility" : "Public",
		"Set Visibility" : "Public"
	},
	"Name" : 
	{
		"Type" : "System.String",
		"Get Visibility" : "Public",
		"Set Visibility" : "Public"
	},
	"UpdateDate" : 
	{
		"Type" : "System.DateTime?",
		"Get Visibility" : "Public",
		"Set Visibility" : "Public"
	},
	"UserAttachments" : 
	{
		"Type" : "System.Collections.Generic.List`1[[ChaiTea.BusinessLogic.ViewModels.Personnel.UserAttachmentVm, ChaiTea.BusinessLogic, Version=0.0.0.0, Culture=neutral, PublicKeyToken=null]]",
		"Get Visibility" : "Public",
		"Set Visibility" : "Public",
		"Nested Fields" :
		[
			{
				"AttachmentType" : 
				{
					"Type" : "Enum[AttachmentTypeVm] as Int32",
					"Get Visibility" : "Public",
					"Set Visibility" : "Public",
					"Enum Values" : 
					[
						"Image" : "1"
						"Video" : "2"
						"Audio" : "3"
						"Pdf" : "4"
						"File" : "5"
					]
				},
				"Description" : 
				{
					"Type" : "System.String",
					"Get Visibility" : "Public",
					"Set Visibility" : "Public"
				},
				"Name" : 
				{
					"Type" : "System.String",
					"Get Visibility" : "Public",
					"Set Visibility" : "Public"
				},
				"UniqueId" : 
				{
					"Type" : "System.String",
					"Get Visibility" : "Public",
					"Set Visibility" : "Public"
				},
				"UserAttachmentId" : 
				{
					"Type" : "System.Int32",
					"Get Visibility" : "Public",
					"Set Visibility" : "Public"
				},
				"UserAttachmentType" : 
				{
					"Type" : "Enum[UserAttachmentTypeVm] as Int32",
					"Get Visibility" : "Public",
					"Set Visibility" : "Public",
					"Enum Values" : 
					[
						"ProfilePicture" : "1"
						"SocialPicture" : "2"
						"BackgroundPicture" : "3"
					]
				}
			}
		]
	},
	"Year" : 
	{
		"Type" : "System.Int32",
		"Get Visibility" : "Public",
		"Set Visibility" : "Public"
	}
}
}
