{
	"settings" : 
	{
		"Client" : 
		{
			"ID" : "Int32",
			"Name" : "String"
		},
		"ClientId" : "Int32?",
		"Language" : 
		{
			"Code" : "String",
			"ID" : "Int32",
			"Name" : "String"
		},
		"LanguageId" : "Int32?",
		"OrgUserId" : "Int32",
		"Program" : 
		{
			"ID" : "Int32",
			"Name" : "String"
		},
		"ProgramId" : "Int32?",
		"Site" : 
		{
			"ID" : "Int32",
			"Name" : "String"
		},
		"SiteId" : "Int32?",
		"UserId" : "Int32"
	}
}
