{
"Controller": "SurveysController",
"Action" : "Get",
"HttpMethods": {"GET"},
"Parameters": 
{
	"startDate" : "System.DateTime?",
	"endDate" : "System.DateTime?",
	"skip" : "System.Int32?",
	"top" : "System.Int32?",
	"filterByName" : {
	"Type" : "System.String",
}
,
	"filterByCompletion" : "System.Boolean?"
},
"Return Type" : "System.Collections.Generic.IEnumerable`1[[ChaiTea.BusinessLogic.ViewModels.Surveys.RecipientInvitationVm, ChaiTea.BusinessLogic, Version=0.0.0.0, Culture=neutral, PublicKeyToken=null]]",
"Returned Fields" :
{
	"Type" : "System.Collections.Generic.IEnumerable`1[[ChaiTea.BusinessLogic.ViewModels.Surveys.RecipientInvitationVm, ChaiTea.BusinessLogic, Version=0.0.0.0, Culture=neutral, PublicKeyToken=null]]",
	"Containing" :
	[
		{
			"AverageScore" : 
			{
				"Type" : "System.Double?",
				"Get Visibility" : "Public",
				"Set Visibility" : "Public"
			},
			"InvitedByName" : 
			{
				"Type" : "System.String",
				"Get Visibility" : "Public",
				"Set Visibility" : "Public"
			},
			"InvitedByProfilePictureUniqueId" : 
			{
				"Type" : "System.String",
				"Get Visibility" : "Public",
				"Set Visibility" : "Public"
			},
			"Recipient" : 
			{
				"Type" : "ChaiTea.BusinessLogic.ViewModels.Surveys.SurveyRecipientVm",
				"Get Visibility" : "Public",
				"Set Visibility" : "Public",
				"Nested Fields" :
				{
					"EmailAddress" : 
					{
						"Type" : "System.String",
						"Get Visibility" : "Public",
						"Set Visibility" : "Public"
					},
					"Name" : 
					{
						"Type" : "System.String",
						"Get Visibility" : "Public",
						"Set Visibility" : "Public"
					},
					"Survey" : 
					{
						"Type" : "ChaiTea.BusinessLogic.ViewModels.Surveys.SurveyVm",
						"Get Visibility" : "Public",
						"Set Visibility" : "Public",
						"Nested Fields" :
						{
							"ClientId" : 
							{
								"Type" : "System.Int32",
								"Get Visibility" : "Public",
								"Set Visibility" : "Public"
							},
							"ClientName" : 
							{
								"Type" : "System.String",
								"Get Visibility" : "Public",
								"Set Visibility" : "Public"
							},
							"ProgramId" : 
							{
								"Type" : "System.Int32",
								"Get Visibility" : "Public",
								"Set Visibility" : "Public"
							},
							"ProgramName" : 
							{
								"Type" : "System.String",
								"Get Visibility" : "Public",
								"Set Visibility" : "Public"
							},
							"Questions" : 
							{
								"Type" : "System.Collections.Generic.IEnumerable`1[[ChaiTea.BusinessLogic.ViewModels.Surveys.SurveyQuestionVm, ChaiTea.BusinessLogic, Version=0.0.0.0, Culture=neutral, PublicKeyToken=null]]",
								"Get Visibility" : "Public",
								"Set Visibility" : "Public",
								"Nested Fields" :
								[
									{
										"Order" : 
										{
											"Type" : "System.Int32",
											"Get Visibility" : "Public",
											"Set Visibility" : "Public"
										},
										"QuestionText" : 
										{
											"Type" : "System.String",
											"Get Visibility" : "Public",
											"Set Visibility" : "Public"
										},
										"QuestionType" : 
										{
											"Type" : "System.String",
											"Get Visibility" : "Public",
											"Set Visibility" : "Public"
										},
										"Required" : 
										{
											"Type" : "System.Boolean",
											"Get Visibility" : "Public",
											"Set Visibility" : "Public"
										},
										"SurveyQuestionId" : 
										{
											"Type" : "System.Int32",
											"Get Visibility" : "Public",
											"Set Visibility" : "Public"
										}
									}
								]
							},
							"Recipients" : 
							{
								"Type" : "System.Collections.Generic.IEnumerable`1[[ChaiTea.BusinessLogic.ViewModels.Surveys.SurveyRecipientVm, ChaiTea.BusinessLogic, Version=0.0.0.0, Culture=neutral, PublicKeyToken=null]]",
								"Get Visibility" : "Public",
								"Set Visibility" : "Public",
								"Nested Fields" :
								[
"SurveyRecipientVm"
								]
							},
							"SiteId" : 
							{
								"Type" : "System.Int32",
								"Get Visibility" : "Public",
								"Set Visibility" : "Public"
							},
							"SiteName" : 
							{
								"Type" : "System.String",
								"Get Visibility" : "Public",
								"Set Visibility" : "Public"
							},
							"SurveyId" : 
							{
								"Type" : "System.Int32",
								"Get Visibility" : "Public",
								"Set Visibility" : "Public"
							}
						}
					},
					"SurveyId" : 
					{
						"Type" : "System.Int32",
						"Get Visibility" : "Public",
						"Set Visibility" : "Public"
					}
				}
			},
			"RecipientInvitationId" : 
			{
				"Type" : "System.Int32",
				"Get Visibility" : "Public",
				"Set Visibility" : "Public"
			},
			"ReportingDate" : 
			{
				"Type" : "System.DateTime",
				"Get Visibility" : "Public",
				"Set Visibility" : "Public"
			},
			"Responses" : 
			{
				"Type" : "System.Collections.Generic.IEnumerable`1[[ChaiTea.BusinessLogic.ViewModels.Surveys.InvitationResponseVm, ChaiTea.BusinessLogic, Version=0.0.0.0, Culture=neutral, PublicKeyToken=null]]",
				"Get Visibility" : "Public",
				"Set Visibility" : "Public",
				"Nested Fields" :
				[
					{
						"AnswerType" : 
						{
							"Type" : "System.String",
							"Get Visibility" : "Public",
							"Set Visibility" : "Public"
						},
						"QuestionId" : 
						{
							"Type" : "System.Int32",
							"Get Visibility" : "Public",
							"Set Visibility" : "Public"
						},
						"QuestionText" : 
						{
							"Type" : "System.String",
							"Get Visibility" : "Public",
							"Set Visibility" : "Public"
						},
						"Value" : 
						{
							"Type" : "System.String",
							"Get Visibility" : "Public",
							"Set Visibility" : "Public"
						}
					}
				]
			},
			"SentDate" : 
			{
				"Type" : "System.DateTime?",
				"Get Visibility" : "Public",
				"Set Visibility" : "Public"
			},
			"SubmittedDate" : 
			{
				"Type" : "System.DateTime?",
				"Get Visibility" : "Public",
				"Set Visibility" : "Public"
			},
			"Token" : 
			{
				"Type" : "System.String",
				"Get Visibility" : "Public",
				"Set Visibility" : "Public"
			}
		}
	]
}

}
