{
"Controller": "BackDatedRoutesController",
"Action" : "GetStickersByUserId",
"HttpMethods": {"GET"},
"Parameters": 
{
	"userId" : "System.Int32"
},
"Return Type" : "System.Linq.IQueryable`1[[ChaiTea.BusinessLogic.ViewModels.Personnel.UserStickerVm, ChaiTea.BusinessLogic, Version=0.0.0.0, Culture=neutral, PublicKeyToken=null]]",
"Returned Fields" :
{
	"Type" : "System.Linq.IQueryable`1[[ChaiTea.BusinessLogic.ViewModels.Personnel.UserStickerVm, ChaiTea.BusinessLogic, Version=0.0.0.0, Culture=neutral, PublicKeyToken=null]]",
	"Containing" :
	[
		{
			"DisplayPosition" : 
			{
				"Type" : "System.Int32",
				"Get Visibility" : "Public",
				"Set Visibility" : "Public"
			},
			"IsActive" : 
			{
				"Type" : "System.Boolean",
				"Get Visibility" : "Public",
				"Set Visibility" : "Public"
			},
			"MemberLabel" : 
			{
				"Type" : "System.Int32",
				"Get Visibility" : "Public",
				"Set Visibility" : "Public"
			},
			"SetMember" : 
			{
				"Type" : "System.Int32",
				"Get Visibility" : "Public",
				"Set Visibility" : "Public"
			},
			"StickerSet" : 
			{
				"Type" : "System.Int32",
				"Get Visibility" : "Public",
				"Set Visibility" : "Public"
			},
			"UserId" : 
			{
				"Type" : "System.Int32",
				"Get Visibility" : "Public",
				"Set Visibility" : "Public"
			},
			"UserStickerId" : 
			{
				"Type" : "System.Int32",
				"Get Visibility" : "Public",
				"Set Visibility" : "Public"
			}
		}
	]
}

}
