{
"Controller": "MessageController",
"Action" : "Get",
"HttpMethods": {"GET"},
"Parameters": 
{
	"id" : "System.Int32"
},
"Return Type" : "ChaiTea.BusinessLogic.ViewModels.Communications.MessageVm",
"Returned Fields" :
{
	"CreateById" : 
	{
		"Type" : "System.Int32",
		"Get Visibility" : "Public",
		"Set Visibility" : "Public"
	},
	"CreateDate" : 
	{
		"Type" : "System.DateTime",
		"Get Visibility" : "Public",
		"Set Visibility" : "Public"
	},
	"Department" : 
	{
		"Type" : "ChaiTea.BusinessLogic.ViewModels.Organizations.DepartmentVm",
		"Get Visibility" : "Public",
		"Set Visibility" : "Public",
		"Nested Fields" :
		{
			"DepartmentId" : 
			{
				"Type" : "System.Int32",
				"Get Visibility" : "Public",
				"Set Visibility" : "Public"
			},
			"Name" : 
			{
				"Type" : "System.String",
				"Get Visibility" : "Public",
				"Set Visibility" : "Public"
			}
		}
	},
	"IsCustomer" : 
	{
		"Type" : "System.Boolean?",
		"Get Visibility" : "Public",
		"Set Visibility" : "Public"
	},
	"IsTrainingAdmin" : 
	{
		"Type" : "System.Boolean",
		"Get Visibility" : "Public",
		"Set Visibility" : "Public"
	},
	"Jobs" : 
	{
		"Type" : "System.Collections.Generic.List`1[[ChaiTea.BusinessLogic.ViewModels.Employment.ConciseJobVm, ChaiTea.BusinessLogic, Version=0.0.0.0, Culture=neutral, PublicKeyToken=null]]",
		"Get Visibility" : "Public",
		"Set Visibility" : "Public",
		"Nested Fields" :
		[
			{
				"JobId" : 
				{
					"Type" : "System.Int32",
					"Get Visibility" : "Public",
					"Set Visibility" : "Public"
				},
				"Name" : 
				{
					"Type" : "System.String",
					"Get Visibility" : "Public",
					"Set Visibility" : "Public"
				}
			}
		]
	},
	"Sites" : 
	{
		"Type" : "System.Collections.Generic.List`1[[ChaiTea.BusinessLogic.ViewModels.Organizations.ClientSiteVm, ChaiTea.BusinessLogic, Version=0.0.0.0, Culture=neutral, PublicKeyToken=null]]",
		"Get Visibility" : "Public",
		"Set Visibility" : "Public",
		"Nested Fields" :
		[
			{
				"ChildCount" : 
				{
					"Type" : "System.Int32",
					"Get Visibility" : "Public",
					"Set Visibility" : "Public"
				},
				"Id" : 
				{
					"Type" : "System.Int32",
					"Get Visibility" : "Public",
					"Set Visibility" : "Public"
				},
				"Latitude" : 
				{
					"Type" : "System.Double?",
					"Get Visibility" : "Public",
					"Set Visibility" : "Public"
				},
				"Longitude" : 
				{
					"Type" : "System.Double?",
					"Get Visibility" : "Public",
					"Set Visibility" : "Public"
				},
				"Name" : 
				{
					"Type" : "System.String",
					"Get Visibility" : "Public",
					"Set Visibility" : "Public"
				},
				"Type" : 
				{
					"Type" : "Enum[OrgTypeVm] as Int32",
					"Get Visibility" : "Public",
					"Set Visibility" : "Public",
					"Enum Values" : 
					[
						"Organization" : "1"
						"Region" : "2"
						"Division" : "3"
						"Client" : "4"
						"Site" : "5"
					]
				}
			}
		]
	},
	"Text" : 
	{
		"Type" : "System.String",
		"Get Visibility" : "Public",
		"Set Visibility" : "Public"
	},
	"Title" : 
	{
		"Type" : "System.String",
		"Get Visibility" : "Public",
		"Set Visibility" : "Public"
	},
	"TrainingMessageId" : 
	{
		"Type" : "System.Int32",
		"Get Visibility" : "Public",
		"Set Visibility" : "Public"
	}
}
}
