[
	{
		"AreaName" : "String",
		"AverageScore" : "Double?",
		"AverageScoringProfileScore" : "Double?",
		"EmployeeId" : "Int32",
		"LastAuditDate" : "DateTime?",
		"Name" : "String",
		"NumberOfAreas" : "Int32?",
		"ProgramName" : "String"
	}
]
