{
"Controller": "POItemController",
"Action" : "Get",
"HttpMethods": {"GET"},
"Parameters": 
{
	"id" : "System.Int32"
},
"Return Type" : "ChaiTea.BusinessLogic.ViewModels.PurchaseOrders.POItemVm",
"Returned Fields" :
{
	"Amount" : 
	{
		"Type" : "System.Decimal",
		"Get Visibility" : "Public",
		"Set Visibility" : "Public"
	},
	"CommitmentDate" : 
	{
		"Type" : "System.DateTime",
		"Get Visibility" : "Public",
		"Set Visibility" : "Public"
	},
	"CommodityId" : 
	{
		"Type" : "System.Int32?",
		"Get Visibility" : "Public",
		"Set Visibility" : "Public"
	},
	"CommodityName" : 
	{
		"Type" : "System.String",
		"Get Visibility" : "Public",
		"Set Visibility" : "Public"
	},
	"CompanyId" : 
	{
		"Type" : "System.Int32",
		"Get Visibility" : "Public",
		"Set Visibility" : "Public"
	},
	"CompanyName" : 
	{
		"Type" : "System.String",
		"Get Visibility" : "Public",
		"Set Visibility" : "Public"
	},
	"DescriptionOne" : 
	{
		"Type" : "System.String",
		"Get Visibility" : "Public",
		"Set Visibility" : "Public"
	},
	"DescriptionTwo" : 
	{
		"Type" : "System.String",
		"Get Visibility" : "Public",
		"Set Visibility" : "Public"
	},
	"IsBillable" : 
	{
		"Type" : "System.Boolean",
		"Get Visibility" : "Public",
		"Set Visibility" : "Public"
	},
	"IsGreen" : 
	{
		"Type" : "System.Boolean",
		"Get Visibility" : "Public",
		"Set Visibility" : "Public"
	},
	"LineNumber" : 
	{
		"Type" : "System.Int32",
		"Get Visibility" : "Public",
		"Set Visibility" : "Public"
	},
	"ManufacturerId" : 
	{
		"Type" : "System.Int32?",
		"Get Visibility" : "Public",
		"Set Visibility" : "Public"
	},
	"ManufacturerName" : 
	{
		"Type" : "System.String",
		"Get Visibility" : "Public",
		"Set Visibility" : "Public"
	},
	"ManufacturerNumber" : 
	{
		"Type" : "System.String",
		"Get Visibility" : "Public",
		"Set Visibility" : "Public"
	},
	"Month" : 
	{
		"Type" : "System.Int32",
		"Get Visibility" : "Public",
		"Set Visibility" : "Public"
	},
	"POItemId" : 
	{
		"Type" : "System.Int32",
		"Get Visibility" : "Public",
		"Set Visibility" : "Public"
	},
	"PONumber" : 
	{
		"Type" : "System.Int32",
		"Get Visibility" : "Public",
		"Set Visibility" : "Public"
	},
	"ProgramId" : 
	{
		"Type" : "System.Int32?",
		"Get Visibility" : "Public",
		"Set Visibility" : "Public"
	},
	"ProgramName" : 
	{
		"Type" : "System.String",
		"Get Visibility" : "Public",
		"Set Visibility" : "Public"
	},
	"Quantity" : 
	{
		"Type" : "System.Int32",
		"Get Visibility" : "Public",
		"Set Visibility" : "Public"
	},
	"SBMNumber" : 
	{
		"Type" : "System.String",
		"Get Visibility" : "Public",
		"Set Visibility" : "Public"
	},
	"SiteId" : 
	{
		"Type" : "System.Int32",
		"Get Visibility" : "Public",
		"Set Visibility" : "Public"
	},
	"SubCommodityId" : 
	{
		"Type" : "System.Int32?",
		"Get Visibility" : "Public",
		"Set Visibility" : "Public"
	},
	"SubCommodityName" : 
	{
		"Type" : "System.String",
		"Get Visibility" : "Public",
		"Set Visibility" : "Public"
	},
	"Year" : 
	{
		"Type" : "System.Int32",
		"Get Visibility" : "Public",
		"Set Visibility" : "Public"
	}
}
}
