{
	"vm" : 
	{
		"EmployeeId" : "Int32",
		"EndDate" : "DateTime",
		"Hours" : "Decimal",
		"IsApproved" : "Boolean?",
		"StartDate" : "DateTime",
		"VacationRequestId" : "Int32",
		"VacationTypeId" : "Int32",
		"VacationTypeName" : "String"
	}
}
