{
"Controller": "InjuryReportController",
"Action" : "CreateUniqueIncidentId",
"HttpMethods": {"GET", "POST"},
"Parameters": 
{
},
"Return Type" : "System.String",
"Returned Fields" :
"System.String"
}
