{
	"vm" : 
	{
		"AdditionalNotes" : "String",
		"AdditionalRemarks" : "String",
		"CorrectiveActionsNecessary" : "Boolean",
		"InjuryInvestigationAttachments" : 
		[
			{
				"Attachment" : 
				{
					"AttachmentId" : "Int32",
					"AttachmentType" : "Int32",
					"AttachmentTypeId" : "Int32",
					"Description" : "String",
					"Name" : "String",
					"UniqueId" : "String"
				},
				"InjuryInvestigationAttachmentId" : "Int32",
				"InjuryInvestigationId" : "Int32"
			}
		],
		"InjuryInvestigationCorrectiveActions" : 
		[
			{
				"AssignedToEmployeeId" : "Int32",
				"AssignedToName" : "String",
				"CorrectiveActionDescription" : "String",
				"DueDate" : "DateTime",
				"InjuryInvestigationCorrectiveActionId" : "Int32",
				"InjuryInvestigationId" : "Int32",
				"TodoItemId" : "Int32?"
			}
		],
		"InjuryInvestigationId" : "Int32",
		"InjuryReportId" : "Int32",
		"PreparedByEmployeeId" : "Int32",
		"RestrainingRequired" : "Boolean",
		"RootCauseId" : "Int32",
		"Snapshot_PreparedByName" : "String",
		"Snapshot_PreparedByTitle" : "String"
	}
}
