{
"Controller": "ConductIssueController",
"Action" : "GetConductStats",
"HttpMethods": {"GET"},
"Parameters": 
{
	"startDate" : "System.DateTime",
	"endDate" : "System.DateTime",
	"employeeId" : "System.Int32?",
	"conductTypeId" : "System.Int32?"
},
"Return Type" : "ChaiTea.BusinessLogic.ViewModels.Assessments.ConductIssues.ConductStatsVm",
"Returned Fields" :
{
	"ActionTakenCount" : 
	{
		"Type" : "System.Int32",
		"Get Visibility" : "Public",
		"Set Visibility" : "Public"
	},
	"AllCount" : 
	{
		"Type" : "System.Int32",
		"Get Visibility" : "Public",
		"Set Visibility" : "Public"
	},
	"WarningCount" : 
	{
		"Type" : "System.Int32",
		"Get Visibility" : "Public",
		"Set Visibility" : "Public"
	}
}
}
