{
	"ChaiTea.BusinessLogic.Reporting.Employment.ViewModels.ReportTurnoverTrendsBySiteVm" : [ 
		"Turnover_TurnoversBySite",
	] ,
	"ChaiTea.BusinessLogic.Reporting.Financials.ViewModels.ReportAggregateMonthlyTrendsVm" : [ 
		"FinanceReport_AggregateMonthlyTrends",
	] ,
	"ChaiTea.BusinessLogic.Reporting.Financials.ViewModels.ReportEmployeeMonthlyHoursVm" : [ 
		"FinanceReport_EmployeeMonthlyHours",
	] ,
	"ChaiTea.BusinessLogic.Reporting.Financials.ViewModels.ReportHourMonthlyTrendsVm" : [ 
		"FinanceReport_HourMonthlyTrends",
	] ,
	"ChaiTea.BusinessLogic.Reporting.Financials.ViewModels.ReportMonthlyProductTrendsVm" : [ 
		"FinanceReport_MonthlyProductTrends",
	] ,
	"ChaiTea.BusinessLogic.Reporting.Financials.ViewModels.ReportWeeklyTotalHoursVm" : [ 
		"FinanceReport_WeeklyTotalHours",
	] ,
	"ChaiTea.BusinessLogic.Reporting.Financials.ViewModels.ReportYearlyBonusVm" : [ 
		"FinanceReport_YearlyBonus",
	] ,
	"ChaiTea.BusinessLogic.Reporting.Quality.ViewModels.ReportAuditGridByProgramVm" : [ 
		"Report_AuditGridByProgram",
	] ,
	"ChaiTea.BusinessLogic.Reporting.Quality.ViewModels.ReportAuditTrendsByAreaClassificationVm" : [ 
		"Report_AuditTrendsByAreaClassification",
	] ,
	"ChaiTea.BusinessLogic.Reporting.Quality.ViewModels.ReportAuditTrendsByProgramVm" : [ 
		"Report_AuditTrendsByProgram",
	] ,
	"ChaiTea.BusinessLogic.Reporting.Quality.ViewModels.ReportAuditTrendsBySiteVm" : [ 
		"Report_AuditTrendsBySite",
	] ,
	"ChaiTea.BusinessLogic.Reporting.Quality.ViewModels.ReportAuditTrendsVm" : [ 
		"Report_AuditTrends",
		"Report_AuditTrends_datetime_datetime",
	] ,
	"ChaiTea.BusinessLogic.Reporting.Quality.ViewModels.ReportComplaintTrendsBySiteVm" : [ 
		"Report_ComplaintTrendsBySite",
	] ,
	"ChaiTea.BusinessLogic.Reporting.Quality.ViewModels.ReportComplaintTrendsVm" : [ 
		"Report_ComplaintTrends",
		"Report_ComplaintTrends_datetime_datetime",
		"Report_ComplaintTrendsByTypeOrProgram",
	] ,
	"ChaiTea.BusinessLogic.Reporting.Quality.ViewModels.ReportComplimentTrendsBySiteVm" : [ 
		"Report_ComplimentTrendsBySite",
	] ,
	"ChaiTea.BusinessLogic.Reporting.Quality.ViewModels.ReportComplimentTrendsVm" : [ 
		"Report_ComplimentTrends",
		"Report_ComplimentTrendsByTypeOrProgram",
	] ,
	"ChaiTea.BusinessLogic.Reporting.Quality.ViewModels.ReportFeedbackTypeOrProgramVm" : [ 
		"Report_ComplaintsByType",
		"Report_ComplimentsByType",
	] ,
	"ChaiTea.BusinessLogic.Reporting.Quality.ViewModels.ReportWorkOrderGridByEmployeeVm" : [ 
		"Report_WorkOrdersByEmployee",
	] ,
	"ChaiTea.BusinessLogic.Reporting.Quality.ViewModels.ReportWorkOrderTrendsBySiteVm" : [ 
		"Report_WorkOrdersBySite",
	] ,
	"ChaiTea.BusinessLogic.Reporting.Quality.ViewModels.ReportWorkOrderTrendsVm" : [ 
		"Report_WorkOrderTrends",
		"Report_WorkOrderTrendsByProgramOrType",
	] ,
	"ChaiTea.BusinessLogic.Reporting.Quality.ViewModels.ReportWorkOrderTypeOrProgramVm" : [ 
		"Report_WorkOrdersByProgramOrType",
	] ,
	"ChaiTea.BusinessLogic.Reporting.Training.ViewModels.ReportOwnershipMonthlyTrendsVm" : [ 
		"TrainingReport_Ownership_MonthlyTrends",
		"TrainingReport_Ownership_MonthlyTrends_params",
	] ,
	"ChaiTea.BusinessLogic.Reporting.Training.ViewModels.ReportOwnershipTrendsByReportTypeVm" : [ 
		"TrainingReport_Ownership_TrendsByReportType",
	] ,
	"ChaiTea.BusinessLogic.Reporting.Training.ViewModels.ReportOwnershipTrendsBySiteVm" : [ 
		"TrainingReport_Ownership_TrendsBySite",
	] ,
	"ChaiTea.BusinessLogic.Services.ActionRequests.Tasks.AssociateTasksService+DashboardDTO" : [ 
		"api_mobile_AssociateTasks_Dashboard",
	] ,
	"ChaiTea.BusinessLogic.Services.ActionRequests.Tasks.AssociateTasksService+MyWorkDTO" : [ 
		"api_mobile_AssociateTasks_MyWork",
	] ,
	"ChaiTea.BusinessLogic.Services.ActionRequests.Tasks.AssociateTasksService+TaskDetailDTO" : [ 
		"api_mobile_AssociateTasks_int",
	] ,
	"ChaiTea.BusinessLogic.Services.AppMetaData.UserContextService+BootStrapDTO" : [ 
		"User_Bootstrap",
	] ,
	"ChaiTea.BusinessLogic.Services.Communications.AssociateMessagesService+DashboardDTO" : [ 
		"api_mobile_AssociateMessages_Dashboard",
	] ,
	"ChaiTea.BusinessLogic.Services.Communications.AssociateMessagesService+MessageDetailDTO" : [ 
		"api_mobile_AssociateMessages_int",
	] ,
	"ChaiTea.BusinessLogic.Services.Employment.EmployeeService+AssociateContextDTO" : [ 
		"api_mobile_Contexts_CurrentAssociate",
	] ,
	"ChaiTea.BusinessLogic.ViewModels.ActionRequests.NoticedIssues.OwnershipCustomerRepresentativeVm" : [ 
		"OwnershipCustomerRepresentative_int",
	] ,
	"ChaiTea.BusinessLogic.ViewModels.ActionRequests.NoticedIssues.OwnershipVm" : [ 
		"Ownership_int",
	] ,
	"ChaiTea.BusinessLogic.ViewModels.ActionRequests.Tasks.ReAuditsInfoVm" : [ 
		"TodoItem_ReAuditsInfo",
	] ,
	"ChaiTea.BusinessLogic.ViewModels.ActionRequests.Tasks.ToDoCountsVm" : [ 
		"TodoItem_AllCounts",
		"TodoItem_EmployeeCounts",
		"TodoItem_GetEmployeeCounts_datetime_params",
	] ,
	"ChaiTea.BusinessLogic.ViewModels.ActionRequests.Tasks.TodoItemVm" : [ 
		"TodoItem_ByEmployee_int",
		"TodoItem_int",
		"TodoItem_PutByEmployee_int",
		"TodoItem_ReRunAuditToDo_int",
	] ,
	"ChaiTea.BusinessLogic.ViewModels.ActionRequests.WorkOrders.WorkOrderVm" : [ 
		"WorkOrders_int",
		"WorkOrderSeries_int",
	] ,
	"ChaiTea.BusinessLogic.ViewModels.AppMetaData.ApplicationUserRoleVm" : [ 
		"ApplicationRole_int",
	] ,
	"ChaiTea.BusinessLogic.ViewModels.AppMetaData.QualityDashboardTrendsLastUpdatedVm" : [ 
		"Dashboard_QualityTrendsLastUpdatedDates",
	] ,
	"ChaiTea.BusinessLogic.ViewModels.AppMetaData.UserContextLookupListVm" : [ 
		"User_Clients",
		"User_Languages",
		"User_Programs_int_bool",
		"User_Sites_int_bool",
	] ,
	"ChaiTea.BusinessLogic.ViewModels.AppMetaData.UserContextVm" : [ 
		"User_ActiveContext",
	] ,
	"ChaiTea.BusinessLogic.ViewModels.AppMetaData.UserDashboardWidgetVm" : [ 
		"UserDashboardWidget_int",
	] ,
	"ChaiTea.BusinessLogic.ViewModels.AppMetaData.UserDeviceDetailDTO" : [ 
		"UserDevices",
		"UserDevices_int",
	] ,
	"ChaiTea.BusinessLogic.ViewModels.AppMetaData.UserInfoVm" : [ 
		"UserInfo_int",
	] ,
	"ChaiTea.BusinessLogic.ViewModels.Assessments.Complaints.ComplaintVm" : [ 
		"Complaints_int",
	] ,
	"ChaiTea.BusinessLogic.ViewModels.Assessments.Compliments.ComplimentVm" : [ 
		"Compliments_int",
	] ,
	"ChaiTea.BusinessLogic.ViewModels.Assessments.ConductIssues.ConductInfoVm" : [ 
		"Conduct_ConductById_int",
	] ,
	"ChaiTea.BusinessLogic.ViewModels.Assessments.ConductIssues.ConductStatsVm" : [ 
		"Conduct_ConductStats",
	] ,
	"ChaiTea.BusinessLogic.ViewModels.Assessments.ConductIssues.ConductVm" : [ 
		"Conduct",
		"Conduct_Employee_int",
		"Conduct_int",
	] ,
	"ChaiTea.BusinessLogic.ViewModels.Assessments.ProfessionalReviews.EmployeeAuditVm" : [ 
		"EmployeeAudit",
		"EmployeeAudit_Employee_int",
		"EmployeeAudit_int",
	] ,
	"ChaiTea.BusinessLogic.ViewModels.Auditing.AreaClassificationInspectionItemVm" : [ 
		"AreaClassificationInspectionItem",
		"AreaClassificationInspectionItem_int",
	] ,
	"ChaiTea.BusinessLogic.ViewModels.Auditing.AuditProfileSectionVm" : [ 
		"AuditProfileSection_int",
	] ,
	"ChaiTea.BusinessLogic.ViewModels.Auditing.AuditProfileVm" : [ 
		"AuditProfile_int",
	] ,
	"ChaiTea.BusinessLogic.ViewModels.Auditing.AuditSettingVm" : [ 
		"AuditSetting",
		"AuditSetting_int",
	] ,
	"ChaiTea.BusinessLogic.ViewModels.Auditing.FloorProfileVm" : [ 
		"FloorProfile_Clone_int_params",
	] ,
	"ChaiTea.BusinessLogic.ViewModels.Auditing.ScorecardDetailImageVm" : [ 
		"ScorecardDetailImage_int",
		"ScorecardDetailImage_int_rotate_int",
	] ,
	"ChaiTea.BusinessLogic.ViewModels.Auditing.ScorecardDetailVm" : [ 
		"ScorecardDetail_int",
	] ,
	"ChaiTea.BusinessLogic.ViewModels.Auditing.ScorecardVm" : [ 
		"Scorecard_int",
		"Scorecard_Template_int_bool",
		"Scorecard_UpdateProgress_int",
	] ,
	"ChaiTea.BusinessLogic.ViewModels.Communications.EmployeeMessageVm" : [ 
		"MessageStats_Employee",
	] ,
	"ChaiTea.BusinessLogic.ViewModels.Communications.MessagesReceivedByEmployeeCountsByStatusVm" : [ 
		"MessagesReceived_MessagesReceivedByEmployeeStatusCounts",
	] ,
	"ChaiTea.BusinessLogic.ViewModels.Communications.MessagesReceivedByEmployeesCountVm" : [ 
		"MessagesReceived_ByEmployeesCounts",
	] ,
	"ChaiTea.BusinessLogic.ViewModels.Communications.MessagesReceivedStatsVm" : [ 
		"MessagesReceived_MessageStatsById_int",
	] ,
	"ChaiTea.BusinessLogic.ViewModels.Communications.MessagesReceivedTabCountVm" : [ 
		"MessagesReceived_TabCounts",
	] ,
	"ChaiTea.BusinessLogic.ViewModels.Communications.MessageStatsVm" : [ 
		"MessageStats_MessageStats_int",
	] ,
	"ChaiTea.BusinessLogic.ViewModels.Communications.MessageVm" : [ 
		"TrainingMessage_int",
	] ,
	"ChaiTea.BusinessLogic.ViewModels.Communications.MonthlyMessagesSentReport" : [ 
		"MessageStats_MessagesSentMonthly",
	] ,
	"ChaiTea.BusinessLogic.ViewModels.Communications.NotificationVm" : [ 
		"Notification_int",
	] ,
	"ChaiTea.BusinessLogic.ViewModels.Courses.CourseAttachmentVm" : [ 
		"LookupList_Course_CourseAttachment_int",
	] ,
	"ChaiTea.BusinessLogic.ViewModels.Courses.CourseRatingVm" : [ 
		"CourseRating",
		"CourseRating_int",
	] ,
	"ChaiTea.BusinessLogic.ViewModels.Courses.CourseTypeVm" : [ 
		"CourseType_int",
	] ,
	"ChaiTea.BusinessLogic.ViewModels.Courses.CourseVm" : [ 
		"Course_int",
	] ,
	"ChaiTea.BusinessLogic.ViewModels.Courses.EmployeeCourseExtendedVm" : [ 
		"EmployeeCourse_WithSnapshots_int",
	] ,
	"ChaiTea.BusinessLogic.ViewModels.Courses.EmployeeCourseVm" : [ 
		"EmployeeCourse_int",
	] ,
	"ChaiTea.BusinessLogic.ViewModels.Courses.JobCourseVm" : [ 
		"JobCourse_int",
	] ,
	"ChaiTea.BusinessLogic.ViewModels.Courses.SnapshotCourseVm" : [ 
		"EmployeeCourse_Course_Snapshot",
	] ,
	"ChaiTea.BusinessLogic.ViewModels.Courses.SnapshotEmployeeCourseVm" : [ 
		"EmployeeCourse_Snapshot",
	] ,
	"ChaiTea.BusinessLogic.ViewModels.Employment.ComplianceStatsVm" : [ 
		"EmployeeCourse_ComplianceStats",
	] ,
	"ChaiTea.BusinessLogic.ViewModels.Employment.ContractVm" : [ 
		"Contract_int",
	] ,
	"ChaiTea.BusinessLogic.ViewModels.Employment.DutyVm" : [ 
		"Duty_int",
	] ,
	"ChaiTea.BusinessLogic.ViewModels.Employment.EmployeeComplianceStatsVm" : [ 
		"EmployeeCourse_EmployeeComplianceStats_int",
	] ,
	"ChaiTea.BusinessLogic.ViewModels.Employment.EmployeeVm" : [ 
		"Employee_GetUser_int",
		"Employee_int",
		"Employee_User_int",
	] ,
	"ChaiTea.BusinessLogic.ViewModels.Employment.EquipmentVm" : [ 
		"Equipment_int",
	] ,
	"ChaiTea.BusinessLogic.ViewModels.Employment.JobPurposeVm" : [ 
		"JobPurpose_int",
		"JobPurpose_UpdateLocalizable",
	] ,
	"ChaiTea.BusinessLogic.ViewModels.Employment.JobTaskVm" : [ 
		"JobTask_int",
	] ,
	"ChaiTea.BusinessLogic.ViewModels.Employment.LegalDescriptionVm" : [ 
		"LegalDescription_int",
	] ,
	"ChaiTea.BusinessLogic.ViewModels.Employment.SampleTaskVm" : [ 
		"SampleTask_int",
	] ,
	"ChaiTea.BusinessLogic.ViewModels.Employment.TrainingEmployeeAndCourseVm" : [ 
		"TrainingEmployee_WithCourse",
	] ,
	"ChaiTea.BusinessLogic.ViewModels.Employment.TrainingEmployeeAndJobVm" : [ 
		"TrainingEmployee_GetWithJob_int",
		"TrainingEmployee_WithJob_int",
	] ,
	"ChaiTea.BusinessLogic.ViewModels.Employment.TrainingEmployeeJobVm" : [ 
		"Job_int",
		"Job_UpdateLocalizable",
	] ,
	"ChaiTea.BusinessLogic.ViewModels.Employment.TrainingEmployeeVm" : [ 
		"TrainingEmployee_int",
	] ,
	"ChaiTea.BusinessLogic.ViewModels.Facilities.AreaClassificationVm" : [ 
		"AreaClassification",
		"AreaClassification_int",
	] ,
	"ChaiTea.BusinessLogic.ViewModels.Facilities.AreaVm" : [ 
		"Area_int",
	] ,
	"ChaiTea.BusinessLogic.ViewModels.Facilities.BuildingVm" : [ 
		"Building_int",
	] ,
	"ChaiTea.BusinessLogic.ViewModels.Facilities.FloorVm" : [ 
		"Floor_int",
	] ,
	"ChaiTea.BusinessLogic.ViewModels.Facilities.SiteLookupDTO" : [ 
		"Site_SiteLookup_int",
	] ,
	"ChaiTea.BusinessLogic.ViewModels.Facilities.SiteVm" : [ 
		"Site_int",
	] ,
	"ChaiTea.BusinessLogic.ViewModels.Injuries.BodyPartAffectedVm" : [ 
		"BodyPartAffected_int",
	] ,
	"ChaiTea.BusinessLogic.ViewModels.Injuries.ClaimsInvestigationVm" : [ 
		"ClaimsInvestigation_int",
	] ,
	"ChaiTea.BusinessLogic.ViewModels.Injuries.InjuredEmployeeInfoVm" : [ 
		"InjuryInvestigation_InjuredEmployeeInfoByInjuryInvestigationId_int",
		"InjuryReport_InjuredEmployeeInfoByInjuryReportId_int",
	] ,
	"ChaiTea.BusinessLogic.ViewModels.Injuries.InjuryInvestigationVm" : [ 
		"InjuryInvestigation_int",
	] ,
	"ChaiTea.BusinessLogic.ViewModels.Injuries.InjuryReportVm" : [ 
		"InjuryReport_int",
	] ,
	"ChaiTea.BusinessLogic.ViewModels.Injuries.SpecificCauseOfInjuryVm" : [ 
		"SpecificCauseOfInjury_int",
	] ,
	"ChaiTea.BusinessLogic.ViewModels.Injuries.SpecificSourceOfInjuryVm" : [ 
		"SpecificSourceOfInjury_int",
	] ,
	"ChaiTea.BusinessLogic.ViewModels.Invoices.InvoiceVm" : [ 
		"Invoice_int",
	] ,
	"ChaiTea.BusinessLogic.ViewModels.KeyPerformanceIndicators.BoxScoreAllCountsVm" : [ 
		"BoxScore_All",
	] ,
	"ChaiTea.BusinessLogic.ViewModels.KeyPerformanceIndicators.EmployeeBonusVm" : [ 
		"EmployeeBonus_Employee_int_int",
		"EmployeeBonus_int",
		"EmployeeBonus_int_int_int",
	] ,
	"ChaiTea.BusinessLogic.ViewModels.KeyPerformanceIndicators.EmployeeKpiEditableCheckVm" : [ 
		"EmployeeAudit_int",
		"KpiUpdateCheck_int_int_int",
		"ServiceExcellence_DeleteComplaint_int",
	] ,
	"ChaiTea.BusinessLogic.ViewModels.KeyPerformanceIndicators.ExtendedServiceExcellenceEmployeeVm" : [ 
		"ServiceExcellence_EmployeeInfo_int_params",
		"ServiceExcellence_int",
		"ServiceExcellence_int_int_int",
		"ServiceExcellenceForEmployee_int_int",
	] ,
	"ChaiTea.BusinessLogic.ViewModels.KeyPerformanceIndicators.KpiCommentVm" : [ 
		"KpiComment_int",
		"KpiComment_int_int_int",
	] ,
	"ChaiTea.BusinessLogic.ViewModels.KeyPerformanceIndicators.KpiSettingVm" : [ 
		"KpiSetting_int",
		"KpiSetting_KPIMetrics_int",
	] ,
	"ChaiTea.BusinessLogic.ViewModels.KeyPerformanceIndicators.ScorecardStatusVm" : [ 
		"ServiceExcellence_ScorecardStatus_int_int",
	] ,
	"ChaiTea.BusinessLogic.ViewModels.KeyPerformanceIndicators.SiteBonusVm" : [ 
		"SiteBonus",
		"SiteBonus_int",
	] ,
	"ChaiTea.BusinessLogic.ViewModels.Organizations.AllSitesReportSettingsVm" : [ 
		"SiteReportSetting_AllByClient_int",
	] ,
	"ChaiTea.BusinessLogic.ViewModels.Organizations.AttributeAttachmentCountVm" : [ 
		"AttributeAttachment_AttachmentCount_attributeId_attributeValue",
	] ,
	"ChaiTea.BusinessLogic.ViewModels.Organizations.AttributeAttachmentVm" : [ 
		"AttributeAttachment_int",
	] ,
	"ChaiTea.BusinessLogic.ViewModels.Organizations.AttributeVm" : [ 
		"Attribute_int",
	] ,
	"ChaiTea.BusinessLogic.ViewModels.Organizations.ClientReportSettingVm" : [ 
		"ClientReportSetting",
		"ClientReportSetting_int",
	] ,
	"ChaiTea.BusinessLogic.ViewModels.Organizations.ClientVm" : [ 
		"Client_int",
	] ,
	"ChaiTea.BusinessLogic.ViewModels.Organizations.CustomerRepresentativeVm" : [ 
		"CustomerRepresentative_int",
	] ,
	"ChaiTea.BusinessLogic.ViewModels.Organizations.DepartmentVm" : [ 
		"Department_int",
	] ,
	"ChaiTea.BusinessLogic.ViewModels.Organizations.OrgSettingVm" : [ 
		"Org_int",
	] ,
	"ChaiTea.BusinessLogic.ViewModels.Organizations.ProgramLookupDTO" : [ 
		"Programs_ProgramLookup_int",
	] ,
	"ChaiTea.BusinessLogic.ViewModels.Organizations.ProgramReportSettingVm" : [ 
		"ProgramReportSetting_int",
		"ProgramReportSetting_int_int",
	] ,
	"ChaiTea.BusinessLogic.ViewModels.Organizations.ProgramVm" : [ 
		"Program_int",
	] ,
	"ChaiTea.BusinessLogic.ViewModels.Organizations.QuickCommentVm" : [ 
		"QuickComment_int",
	] ,
	"ChaiTea.BusinessLogic.ViewModels.Organizations.ReportSettingVm" : [ 
		"ReportSetting_int_int_int",
	] ,
	"ChaiTea.BusinessLogic.ViewModels.Organizations.SiteReportSettingVm" : [ 
		"SiteReportSetting_int",
	] ,
	"ChaiTea.BusinessLogic.ViewModels.Personnel.UserHobbyVm" : [ 
		"UserHobby",
		"UserHobby_int",
	] ,
	"ChaiTea.BusinessLogic.ViewModels.Personnel.UserStickerVm" : [ 
		"UserSticker_int",
	] ,
	"ChaiTea.BusinessLogic.ViewModels.Personnel.UserTravelVm" : [ 
		"UserTravel_int",
	] ,
	"ChaiTea.BusinessLogic.ViewModels.ProfessionalReviews.EmployeeAuditInfoVm" : [ 
		"EmployeeAudit_EmployeeAuditById_int",
	] ,
	"ChaiTea.BusinessLogic.ViewModels.ProfessionalReviews.EmployeeAuditsTabsCountsVm" : [ 
		"EmployeeAudit_EmployeeAuditsTabCounts",
	] ,
	"ChaiTea.BusinessLogic.ViewModels.ProfessionalReviews.EmployeeAuditStatsVm" : [ 
		"EmployeeAudit_EmployeeAuditStats",
	] ,
	"ChaiTea.BusinessLogic.ViewModels.PurchaseOrders.POItemVm" : [ 
		"POItem_int",
	] ,
	"ChaiTea.BusinessLogic.ViewModels.SafetyIncidents.SafetyVm" : [ 
		"Personnel_Safety",
		"Personnel_Safety_Employee_int",
		"Personnel_Safety_int",
	] ,
	"ChaiTea.BusinessLogic.ViewModels.Surveys.MostRecentSurveyDashboardWidgetVm" : [ 
		"Surveys_MostRecentDashboardWidget",
	] ,
	"ChaiTea.BusinessLogic.ViewModels.Surveys.RecipientInvitationVm" : [ 
		"Surveys_guid",
		"Surveys_Invitations_int",
	] ,
	"ChaiTea.BusinessLogic.ViewModels.Surveys.SurveyTemplateVm" : [ 
		"Surveys_Template",
	] ,
	"ChaiTea.BusinessLogic.ViewModels.Surveys.SurveyTrendsByProgramReport" : [ 
		"Surveys_SurveyTrendsByProgram",
	] ,
	"ChaiTea.BusinessLogic.ViewModels.Surveys.SurveyTrendsBySiteReport" : [ 
		"Surveys_SurveyTrendsBySite",
	] ,
	"ChaiTea.BusinessLogic.ViewModels.Surveys.SurveyTrendsReport" : [ 
		"Surveys_SurveyTrends",
	] ,
	"ChaiTea.BusinessLogic.ViewModels.TimeCenter.AttendanceTabCountsVm" : [ 
		"Issue_AttendanceTabCounts",
	] ,
	"ChaiTea.BusinessLogic.ViewModels.TimeCenter.AttendanceVm" : [ 
		"Issue_AttendanceById_int",
	] ,
	"ChaiTea.BusinessLogic.ViewModels.TimeCenter.IssueStatsVm" : [ 
		"Issue_IssueStats",
	] ,
	"ChaiTea.BusinessLogic.ViewModels.TimeCenter.IssueVm" : [ 
		"Issue",
		"Issue_Employee_int",
		"Issue_int",
	] ,
	"ChaiTea.BusinessLogic.ViewModels.TimeCenter.TimeClockWithTotalVm" : [ 
		"TimeClock_Employee",
		"TimeClock_Global",
		"TimeClock_Supervisor",
	] ,
	"ChaiTea.BusinessLogic.ViewModels.TimeCenter.VacationRequestVm" : [ 
		"VacationRequest_int",
	] ,
	"ChaiTea.BusinessLogic.ViewModels.Utils.Attachments.AttachmentVm" : [ 
		"Attachment_int",
		"Attachment_int_rotate_params",
		"TrainingEmployee_EmployeeAttachment_int_int",
	] ,
	"ChaiTea.BusinessLogic.ViewModels.Utils.Localization.CultureVm" : [ 
		"Culture_int",
	] ,
	"ChaiTea.BusinessLogic.ViewModels.Utils.LookupListVm`2[[System.Int32, mscorlib, Version=4.0.0.0, Culture=neutral, PublicKeyToken=b77a5c561934e089],[System.String, mscorlib, Version=4.0.0.0, Culture=neutral, PublicKeyToken=b77a5c561934e089]]" : [ 
		"LookupList_AreaClassificationInspectionItems_int",
		"LookupList_AreaClassifications",
		"LookupList_AreaClassifications_int_params",
		"LookupList_Areas_int",
		"LookupList_Buildings",
		"LookupList_Buildings_Complaint_int",
		"LookupList_Buildings_Compliment_int",
		"LookupList_Buildings_Site_int",
		"LookupList_Classifications",
		"LookupList_ComplaintTypes",
		"LookupList_ComplaintTypes_Complaint_int",
		"LookupList_ComplaintTypes_Program_int",
		"LookupList_ComplimentTypes",
		"LookupList_Employees",
		"LookupList_Employees_Complaint_int",
		"LookupList_Employees_Compliment_int",
		"LookupList_ExemptionTypes",
		"LookupList_Floors_Building_int",
		"LookupList_PreventableStatuses",
		"LookupList_Programs",
		"LookupList_Programs_Site_int",
		"LookupList_ScoringProfiles",
		"LookupList_WorkOrderServiceTypes_int",
		"Surveys_Programs",
	] ,
	"ChaiTea.BusinessLogic.ViewModels.Utils.Tagging.TagVm" : [ 
		"Tag_int",
	] ,
	"ChaiTea.BusinessLogic.ViewModels.Utils.Translation.LanguageVm" : [ 
		"Language_int",
	] ,
	"ChaiTea.Web.Areas.Services.Controllers.Utils.Localization.ResourceController+ResourcesVm" : [ 
		"Resource",
	] ,
	"ChaiTea.Web.Areas.Services.Models.SecuritySignedUrlVm" : [ 
		"Security_Aws_SignedCloudfrontUrl_params",
		"Security_Aws_SignedUrl_params",
	] ,
	"ChaiTea.Web.Areas.Services.Models.SecurityVm" : [ 
		"Security_Aws_Credentials",
		"Security_Aws_GetCredentials",
	] ,
	"ChaiTea.Web.Common.BatchResponseVm`1[[ChaiTea.BusinessLogic.ViewModels.Auditing.ScorecardDetailVm, ChaiTea.BusinessLogic, Version=0.0.0.0, Culture=neutral, PublicKeyToken=null]]" : [ 
		"ScorecardDetail",
	] ,
	"System.Boolean" : [ 
		"ClientReportSetting_UpdateCreateAllSitesClientReportSetting_int",
		"EmployeeKpiMaster_CheckIfKpiExemptedByEmployeeId_int_int",
		"Job_UpdateMultipleJobsCourses",
		"UserNotificationSubscription",
	] ,
	"System.Collections.Generic.IEnumerable`1[[ChaiTea.BusinessLogic.Reporting.Employment.ViewModels.ReportBusinessConductStandardVm, ChaiTea.BusinessLogic, Version=0.0.0.0, Culture=neutral, PublicKeyToken=null]]" : [ 
		"Turnover_BusinessConductStandards",
	] ,
	"System.Collections.Generic.IEnumerable`1[[ChaiTea.BusinessLogic.Reporting.Employment.ViewModels.ReportTopTurnoverReasonsVm, ChaiTea.BusinessLogic, Version=0.0.0.0, Culture=neutral, PublicKeyToken=null]]" : [ 
		"Turnover_TopTurnoverTypes",
	] ,
	"System.Collections.Generic.IEnumerable`1[[ChaiTea.BusinessLogic.Reporting.Employment.ViewModels.ReportTurnoverByCategoryVm, ChaiTea.BusinessLogic, Version=0.0.0.0, Culture=neutral, PublicKeyToken=null]]" : [ 
		"Turnover_TurnoverByCategory",
	] ,
	"System.Collections.Generic.IEnumerable`1[[ChaiTea.BusinessLogic.Reporting.Employment.ViewModels.ReportTurnoverMonthlyAverageVm, ChaiTea.BusinessLogic, Version=0.0.0.0, Culture=neutral, PublicKeyToken=null]]" : [ 
		"Turnover_TurnoverMonthlyTrend",
	] ,
	"System.Collections.Generic.IEnumerable`1[[ChaiTea.BusinessLogic.Reporting.Employment.ViewModels.SuppliesAmountBySiteVm, ChaiTea.BusinessLogic, Version=0.0.0.0, Culture=neutral, PublicKeyToken=null]]" : [ 
		"POItem_SuppliesAmountBySite",
	] ,
	"System.Collections.Generic.IEnumerable`1[[ChaiTea.BusinessLogic.Reporting.Financials.ViewModels.ReportAccountsReceivableAgingVm, ChaiTea.BusinessLogic, Version=0.0.0.0, Culture=neutral, PublicKeyToken=null]]" : [ 
		"FinanceReport_AccountsReceivableAging",
	] ,
	"System.Collections.Generic.IEnumerable`1[[ChaiTea.BusinessLogic.Reporting.Financials.ViewModels.ReportBillingByProgramVm, ChaiTea.BusinessLogic, Version=0.0.0.0, Culture=neutral, PublicKeyToken=null]]" : [ 
		"FinanceReport_BillingByProgram",
	] ,
	"System.Collections.Generic.IEnumerable`1[[ChaiTea.BusinessLogic.Reporting.Financials.ViewModels.ReportBillingBySiteMonthlyVm, ChaiTea.BusinessLogic, Version=0.0.0.0, Culture=neutral, PublicKeyToken=null]]" : [ 
		"FinanceReport_BillingBySiteMonthly",
	] ,
	"System.Collections.Generic.IEnumerable`1[[ChaiTea.BusinessLogic.Reporting.Financials.ViewModels.ReportBillingBySiteVm, ChaiTea.BusinessLogic, Version=0.0.0.0, Culture=neutral, PublicKeyToken=null]]" : [ 
		"FinanceReport_BillingBySite",
	] ,
	"System.Collections.Generic.IEnumerable`1[[ChaiTea.BusinessLogic.Reporting.Financials.ViewModels.ReportBillingMonthlyTrendByProgram, ChaiTea.BusinessLogic, Version=0.0.0.0, Culture=neutral, PublicKeyToken=null]]" : [ 
		"FinanceReport_BillingMonthlyTrendsByProgram",
	] ,
	"System.Collections.Generic.IEnumerable`1[[ChaiTea.BusinessLogic.Reporting.Financials.ViewModels.ReportBillingPaidVsUnpaidVm, ChaiTea.BusinessLogic, Version=0.0.0.0, Culture=neutral, PublicKeyToken=null]]" : [ 
		"FinanceReport_BillingMonthlyPaidVsUpaidAmount",
	] ,
	"System.Collections.Generic.IEnumerable`1[[ChaiTea.BusinessLogic.Reporting.Financials.ViewModels.ReportMonthlyTotalHoursVm, ChaiTea.BusinessLogic, Version=0.0.0.0, Culture=neutral, PublicKeyToken=null]]" : [ 
		"FinanceReport_MonthlyTotalHours",
	] ,
	"System.Collections.Generic.IEnumerable`1[[ChaiTea.BusinessLogic.Reporting.Financials.ViewModels.ReportMonthlyTrendsVm, ChaiTea.BusinessLogic, Version=0.0.0.0, Culture=neutral, PublicKeyToken=null]]" : [ 
		"FinanceReport_MonthlyTrends",
	] ,
	"System.Collections.Generic.IEnumerable`1[[ChaiTea.BusinessLogic.Reporting.Financials.ViewModels.ReportPositionFTEVm, ChaiTea.BusinessLogic, Version=0.0.0.0, Culture=neutral, PublicKeyToken=null]]" : [ 
		"FinanceReport_PositionFTE",
		"GovernanceReports_PositionFTE",
	] ,
	"System.Collections.Generic.IEnumerable`1[[ChaiTea.BusinessLogic.Reporting.Financials.ViewModels.ReportSpendByCategoryVm, ChaiTea.BusinessLogic, Version=0.0.0.0, Culture=neutral, PublicKeyToken=null]]" : [ 
		"FinanceReport_SpendByCategory",
	] ,
	"System.Collections.Generic.IEnumerable`1[[ChaiTea.BusinessLogic.Reporting.Financials.ViewModels.ReportSpendByIsBillableVm, ChaiTea.BusinessLogic, Version=0.0.0.0, Culture=neutral, PublicKeyToken=null]]" : [ 
		"FinanceReport_SpendByIsBillable",
	] ,
	"System.Collections.Generic.IEnumerable`1[[ChaiTea.BusinessLogic.Reporting.Financials.ViewModels.ReportSpendByIsGreenVm, ChaiTea.BusinessLogic, Version=0.0.0.0, Culture=neutral, PublicKeyToken=null]]" : [ 
		"FinanceReport_SpendByIsGreen",
	] ,
	"System.Collections.Generic.IEnumerable`1[[ChaiTea.BusinessLogic.Reporting.Financials.ViewModels.ReportSpendByProgramMonthlyVm, ChaiTea.BusinessLogic, Version=0.0.0.0, Culture=neutral, PublicKeyToken=null]]" : [ 
		"FinanceReport_SpendByProgramMonthly",
		"FinanceReport_SpendByProgramTrend",
	] ,
	"System.Collections.Generic.IEnumerable`1[[ChaiTea.BusinessLogic.Reporting.Financials.ViewModels.ReportSpendByProgramVm, ChaiTea.BusinessLogic, Version=0.0.0.0, Culture=neutral, PublicKeyToken=null]]" : [ 
		"FinanceReport_SpendByProgram",
	] ,
	"System.Collections.Generic.IEnumerable`1[[ChaiTea.BusinessLogic.Reporting.Financials.ViewModels.ReportSpendBySiteMonthlyVm, ChaiTea.BusinessLogic, Version=0.0.0.0, Culture=neutral, PublicKeyToken=null]]" : [ 
		"FinanceReport_SpendBySiteMonthly",
	] ,
	"System.Collections.Generic.IEnumerable`1[[ChaiTea.BusinessLogic.Reporting.Financials.ViewModels.ReportSpendBySiteVm, ChaiTea.BusinessLogic, Version=0.0.0.0, Culture=neutral, PublicKeyToken=null]]" : [ 
		"FinanceReport_SpendBySite",
	] ,
	"System.Collections.Generic.IEnumerable`1[[ChaiTea.BusinessLogic.Reporting.Financials.ViewModels.ReportSpendBySubCommodityVm, ChaiTea.BusinessLogic, Version=0.0.0.0, Culture=neutral, PublicKeyToken=null]]" : [ 
		"FinanceReport_SpendBySubCommodityByIsBillable",
		"FinanceReport_SpendBySubCommodityByIsGreen",
	] ,
	"System.Collections.Generic.IEnumerable`1[[ChaiTea.BusinessLogic.Reporting.Training.ViewModels.ReportCoursesViewCountVm, ChaiTea.BusinessLogic, Version=0.0.0.0, Culture=neutral, PublicKeyToken=null]]" : [ 
		"TrainingReport_CoursesViewCount_bool",
	] ,
	"System.Collections.Generic.IEnumerable`1[[ChaiTea.BusinessLogic.Reporting.Training.ViewModels.ReportGetPositionsVm, ChaiTea.BusinessLogic, Version=0.0.0.0, Culture=neutral, PublicKeyToken=null]]" : [ 
		"TrainingReport_HrAdmin_Positions_params",
	] ,
	"System.Collections.Generic.IEnumerable`1[[ChaiTea.BusinessLogic.Reporting.Training.ViewModels.ReportOwnershipByEmployeeVm, ChaiTea.BusinessLogic, Version=0.0.0.0, Culture=neutral, PublicKeyToken=null]]" : [ 
		"TrainingReport_Ownership_ByEmployee",
	] ,
	"System.Collections.Generic.IEnumerable`1[[ChaiTea.BusinessLogic.Reporting.Training.ViewModels.ReportOwnershipsByReportTypeVm, ChaiTea.BusinessLogic, Version=0.0.0.0, Culture=neutral, PublicKeyToken=null]]" : [ 
		"TrainingReport_Ownership_ByReportType",
	] ,
	"System.Collections.Generic.IEnumerable`1[[ChaiTea.BusinessLogic.Services.ActionRequests.Tasks.AssociateTasksService+TaskListItemDTO, ChaiTea.BusinessLogic, Version=0.0.0.0, Culture=neutral, PublicKeyToken=null]]" : [ 
		"api_mobile_AssociateTasks",
	] ,
	"System.Collections.Generic.IEnumerable`1[[ChaiTea.BusinessLogic.Services.Communications.AssociateMessagesService_GetMessageListItemsOrderByExtension+OrderByDTO, ChaiTea.BusinessLogic, Version=0.0.0.0, Culture=neutral, PublicKeyToken=null]]" : [ 
		"api_mobile_AssociateMessages_OrderByOptions",
	] ,
	"System.Collections.Generic.IEnumerable`1[[ChaiTea.BusinessLogic.Services.Communications.AssociateMessagesService+MessageListItemDTO, ChaiTea.BusinessLogic, Version=0.0.0.0, Culture=neutral, PublicKeyToken=null]]" : [ 
		"api_mobile_AssociateMessages",
	] ,
	"System.Collections.Generic.IEnumerable`1[[ChaiTea.BusinessLogic.Services.Communications.AssociateNotificationsService+NotificationListItemDTO, ChaiTea.BusinessLogic, Version=0.0.0.0, Culture=neutral, PublicKeyToken=null]]" : [ 
		"api_mobile_AssociateNotifications",
	] ,
	"System.Collections.Generic.IEnumerable`1[[ChaiTea.BusinessLogic.Services.Organizations.DepartmentService+DepartmentListItemDTO, ChaiTea.BusinessLogic, Version=0.0.0.0, Culture=neutral, PublicKeyToken=null]]" : [ 
		"api_mobile_Departments",
	] ,
	"System.Collections.Generic.IEnumerable`1[[ChaiTea.BusinessLogic.ViewModels.ActionRequests.NoticedIssues.ClassificationVm, ChaiTea.BusinessLogic, Version=0.0.0.0, Culture=neutral, PublicKeyToken=null]]" : [ 
		"LookupList_Ownership_Classifications",
	] ,
	"System.Collections.Generic.IEnumerable`1[[ChaiTea.BusinessLogic.ViewModels.ActionRequests.NoticedIssues.RejectionTypeVm, ChaiTea.BusinessLogic, Version=0.0.0.0, Culture=neutral, PublicKeyToken=null]]" : [ 
		"LookupList_Ownership_RejectionTypes",
	] ,
	"System.Collections.Generic.IEnumerable`1[[ChaiTea.BusinessLogic.ViewModels.ActionRequests.Tasks.ToDoCountsByEmployeeVm, ChaiTea.BusinessLogic, Version=0.0.0.0, Culture=neutral, PublicKeyToken=null]]" : [ 
		"TodoItem_EmployeeInfo",
	] ,
	"System.Collections.Generic.IEnumerable`1[[ChaiTea.BusinessLogic.ViewModels.ActionRequests.Tasks.ToDoCountsByPeriodVm, ChaiTea.BusinessLogic, Version=0.0.0.0, Culture=neutral, PublicKeyToken=null]]" : [ 
		"TodoItem_MonthlyTrend",
	] ,
	"System.Collections.Generic.IEnumerable`1[[ChaiTea.BusinessLogic.ViewModels.ActionRequests.Tasks.ToDoCountsBySiteVm, ChaiTea.BusinessLogic, Version=0.0.0.0, Culture=neutral, PublicKeyToken=null]]" : [ 
		"TodoItem_SiteCounts",
	] ,
	"System.Collections.Generic.IEnumerable`1[[ChaiTea.BusinessLogic.ViewModels.ActionRequests.WorkOrders.PriorityVm, ChaiTea.BusinessLogic, Version=0.0.0.0, Culture=neutral, PublicKeyToken=null]]" : [ 
		"WorkOrderPriority",
	] ,
	"System.Collections.Generic.IEnumerable`1[[ChaiTea.BusinessLogic.ViewModels.ActionRequests.WorkOrders.WorkOrderVm, ChaiTea.BusinessLogic, Version=0.0.0.0, Culture=neutral, PublicKeyToken=null]]" : [ 
		"WorkOrderSeries_UpcomingWorkOrders_int_int",
	] ,
	"System.Collections.Generic.IEnumerable`1[[ChaiTea.BusinessLogic.ViewModels.AppMetaData.ApplicationUserClientVm, ChaiTea.BusinessLogic, Version=0.0.0.0, Culture=neutral, PublicKeyToken=null]]" : [ 
		"ApplicationUser_Client",
	] ,
	"System.Collections.Generic.IEnumerable`1[[ChaiTea.BusinessLogic.ViewModels.AppMetaData.ApplicationUserVm, ChaiTea.BusinessLogic, Version=0.0.0.0, Culture=neutral, PublicKeyToken=null]]" : [ 
		"ApplicationUser",
	] ,
	"System.Collections.Generic.IEnumerable`1[[ChaiTea.BusinessLogic.ViewModels.AppMetaData.DashboardVm, ChaiTea.BusinessLogic, Version=0.0.0.0, Culture=neutral, PublicKeyToken=null]]" : [ 
		"Dashboard_DashboardCount",
	] ,
	"System.Collections.Generic.IEnumerable`1[[ChaiTea.BusinessLogic.ViewModels.AppMetaData.UserDashboardWidgetVm, ChaiTea.BusinessLogic, Version=0.0.0.0, Culture=neutral, PublicKeyToken=null]]" : [ 
		"UserDashboardWidget",
		"UserDashboardWidget_ByUser_int",
	] ,
	"System.Collections.Generic.IEnumerable`1[[ChaiTea.BusinessLogic.ViewModels.AppMetaData.UserDeviceDetailDTO, ChaiTea.BusinessLogic, Version=0.0.0.0, Culture=neutral, PublicKeyToken=null]]" : [ 
		"UserDevices",
	] ,
	"System.Collections.Generic.IEnumerable`1[[ChaiTea.BusinessLogic.ViewModels.Assessments.ConductIssues.ConductTypeVm, ChaiTea.BusinessLogic, Version=0.0.0.0, Culture=neutral, PublicKeyToken=null]]" : [ 
		"LookupList_ConductTypes",
	] ,
	"System.Collections.Generic.IEnumerable`1[[ChaiTea.BusinessLogic.ViewModels.Auditing.AreaClassificationInfoVm, ChaiTea.BusinessLogic, Version=0.0.0.0, Culture=neutral, PublicKeyToken=null]]" : [ 
		"SecurityAudit_SecurityAuditsAreaClassificationInfo",
	] ,
	"System.Collections.Generic.IEnumerable`1[[ChaiTea.BusinessLogic.ViewModels.Auditing.AuditSettingVm, ChaiTea.BusinessLogic, Version=0.0.0.0, Culture=neutral, PublicKeyToken=null]]" : [ 
		"AuditSetting",
	] ,
	"System.Collections.Generic.IEnumerable`1[[ChaiTea.BusinessLogic.ViewModels.Communications.AllMessageStatsVm, ChaiTea.BusinessLogic, Version=0.0.0.0, Culture=neutral, PublicKeyToken=null]]" : [ 
		"MessageStats_MessageCounts",
	] ,
	"System.Collections.Generic.IEnumerable`1[[ChaiTea.BusinessLogic.ViewModels.Communications.MessagesFromDepartmentsVm, ChaiTea.BusinessLogic, Version=0.0.0.0, Culture=neutral, PublicKeyToken=null]]" : [ 
		"MessagesReceived_MessagesSentInfoByDepartment",
	] ,
	"System.Collections.Generic.IEnumerable`1[[ChaiTea.BusinessLogic.ViewModels.Communications.MessagesReceivedByEmployeeVm, ChaiTea.BusinessLogic, Version=0.0.0.0, Culture=neutral, PublicKeyToken=null]]" : [ 
		"MessagesReceived_ByEmployee",
	] ,
	"System.Collections.Generic.IEnumerable`1[[ChaiTea.BusinessLogic.ViewModels.Communications.MessagesReceivedStatsByEmployeeVm, ChaiTea.BusinessLogic, Version=0.0.0.0, Culture=neutral, PublicKeyToken=null]]" : [ 
		"MessagesReceived_StatsByEmployee",
	] ,
	"System.Collections.Generic.IEnumerable`1[[ChaiTea.BusinessLogic.ViewModels.Communications.MessageStatsVm, ChaiTea.BusinessLogic, Version=0.0.0.0, Culture=neutral, PublicKeyToken=null]]" : [ 
		"MessageStats_Messages",
		"MessageStats_MessageStats",
	] ,
	"System.Collections.Generic.IEnumerable`1[[ChaiTea.BusinessLogic.ViewModels.Communications.MonthlyMessagesSentByDepartmentReport, ChaiTea.BusinessLogic, Version=0.0.0.0, Culture=neutral, PublicKeyToken=null]]" : [ 
		"MessagesReceived_MonthlyTrendByDepartment",
	] ,
	"System.Collections.Generic.IEnumerable`1[[ChaiTea.BusinessLogic.ViewModels.Communications.NotificationVm, ChaiTea.BusinessLogic, Version=0.0.0.0, Culture=neutral, PublicKeyToken=null]]" : [ 
		"MessageStats",
		"Notification_Messages",
	] ,
	"System.Collections.Generic.IEnumerable`1[[ChaiTea.BusinessLogic.ViewModels.Communications.TotalRecipientsByJobReport, ChaiTea.BusinessLogic, Version=0.0.0.0, Culture=neutral, PublicKeyToken=null]]" : [ 
		"MessagesReceived_MessagesReceivedInfoByJob",
		"MessageStats_TotalRecipients",
	] ,
	"System.Collections.Generic.IEnumerable`1[[ChaiTea.BusinessLogic.ViewModels.Courses.CourseTypeVm, ChaiTea.BusinessLogic, Version=0.0.0.0, Culture=neutral, PublicKeyToken=null]]" : [ 
		"LookupList_CourseTypes",
	] ,
	"System.Collections.Generic.IEnumerable`1[[ChaiTea.BusinessLogic.ViewModels.Employment.EmployeeJobVm, ChaiTea.BusinessLogic, Version=0.0.0.0, Culture=neutral, PublicKeyToken=null]]" : [ 
		"TrainingEmployee_EmployeeJob_int-n",
	] ,
	"System.Collections.Generic.IEnumerable`1[[ChaiTea.BusinessLogic.ViewModels.Employment.JobHourlyRateVm, ChaiTea.BusinessLogic, Version=0.0.0.0, Culture=neutral, PublicKeyToken=null]]" : [ 
		"JobHourlyRate",
	] ,
	"System.Collections.Generic.IEnumerable`1[[ChaiTea.BusinessLogic.ViewModels.Facilities.SiteVm, ChaiTea.BusinessLogic, Version=0.0.0.0, Culture=neutral, PublicKeyToken=null]]" : [ 
		"Site_Client_int",
		"Site_UserSites_int",
	] ,
	"System.Collections.Generic.IEnumerable`1[[ChaiTea.BusinessLogic.ViewModels.Injuries.AreaOfBodyAffectedVm, ChaiTea.BusinessLogic, Version=0.0.0.0, Culture=neutral, PublicKeyToken=null]]" : [ 
		"AreaOfBodyAffected",
		"AreaOfBodyAffected_int",
	] ,
	"System.Collections.Generic.IEnumerable`1[[ChaiTea.BusinessLogic.ViewModels.Injuries.BodyPartAffectedVm, ChaiTea.BusinessLogic, Version=0.0.0.0, Culture=neutral, PublicKeyToken=null]]" : [ 
		"BodyPartAffected",
		"BodyPartAffected_ByAreaOfBodyAffectedId_int",
	] ,
	"System.Collections.Generic.IEnumerable`1[[ChaiTea.BusinessLogic.ViewModels.Injuries.CauseOfInjuryCategoryVm, ChaiTea.BusinessLogic, Version=0.0.0.0, Culture=neutral, PublicKeyToken=null]]" : [ 
		"CauseOfInjuryCategory",
		"CauseOfInjuryCategory_int",
	] ,
	"System.Collections.Generic.IEnumerable`1[[ChaiTea.BusinessLogic.ViewModels.Injuries.ClaimsInfoBySiteVm, ChaiTea.BusinessLogic, Version=0.0.0.0, Culture=neutral, PublicKeyToken=null]]" : [ 
		"ClaimsInvestigation_ClaimsInfoBySite",
	] ,
	"System.Collections.Generic.IEnumerable`1[[ChaiTea.BusinessLogic.ViewModels.Injuries.ClaimsInvestigationCardsViewVm, ChaiTea.BusinessLogic, Version=0.0.0.0, Culture=neutral, PublicKeyToken=null]]" : [ 
		"ClaimsInvestigation",
	] ,
	"System.Collections.Generic.IEnumerable`1[[ChaiTea.BusinessLogic.ViewModels.Injuries.InjuryClassificationsVm, ChaiTea.BusinessLogic, Version=0.0.0.0, Culture=neutral, PublicKeyToken=null]]" : [ 
		"InjuryReport_InjuryByClassification",
		"InjuryReport_SubInjuryByClassificationsByInjuryClassificationId",
	] ,
	"System.Collections.Generic.IEnumerable`1[[ChaiTea.BusinessLogic.ViewModels.Injuries.InjuryInvestigationCardsViewVm, ChaiTea.BusinessLogic, Version=0.0.0.0, Culture=neutral, PublicKeyToken=null]]" : [ 
		"InjuryInvestigation",
	] ,
	"System.Collections.Generic.IEnumerable`1[[ChaiTea.BusinessLogic.ViewModels.Injuries.InjuryReportCardsViewVm, ChaiTea.BusinessLogic, Version=0.0.0.0, Culture=neutral, PublicKeyToken=null]]" : [ 
		"InjuryReport",
		"InjuryReport_ForAllClients",
	] ,
	"System.Collections.Generic.IEnumerable`1[[ChaiTea.BusinessLogic.ViewModels.Injuries.RatesVm, ChaiTea.BusinessLogic, Version=0.0.0.0, Culture=neutral, PublicKeyToken=null]]" : [ 
		"ClaimsInvestigation_RecordableRatesPerMonth",
	] ,
	"System.Collections.Generic.IEnumerable`1[[ChaiTea.BusinessLogic.ViewModels.Injuries.SafetyTotalsVm, ChaiTea.BusinessLogic, Version=0.0.0.0, Culture=neutral, PublicKeyToken=null]]" : [ 
		"ClaimsInvestigation_SafetyTotals",
	] ,
	"System.Collections.Generic.IEnumerable`1[[ChaiTea.BusinessLogic.ViewModels.Injuries.SourceOfInjuryCategoryVm, ChaiTea.BusinessLogic, Version=0.0.0.0, Culture=neutral, PublicKeyToken=null]]" : [ 
		"SourceOfInjuryCategory",
		"SourceOfInjuryCategory_int",
	] ,
	"System.Collections.Generic.IEnumerable`1[[ChaiTea.BusinessLogic.ViewModels.Injuries.SpecificCauseOfInjuryVm, ChaiTea.BusinessLogic, Version=0.0.0.0, Culture=neutral, PublicKeyToken=null]]" : [ 
		"SpecificCauseOfInjury",
		"SpecificCauseOfInjury_ByCauseOfInjuryCategoryId_int-n",
	] ,
	"System.Collections.Generic.IEnumerable`1[[ChaiTea.BusinessLogic.ViewModels.Injuries.SpecificSourceOfInjuryVm, ChaiTea.BusinessLogic, Version=0.0.0.0, Culture=neutral, PublicKeyToken=null]]" : [ 
		"SpecificSourceOfInjury",
		"SpecificSourceOfInjury_BySourceOfInjuryCategoryId_int-n",
	] ,
	"System.Collections.Generic.IEnumerable`1[[ChaiTea.BusinessLogic.ViewModels.KeyPerformanceIndicators.KpiSubOptionVm, ChaiTea.BusinessLogic, Version=0.0.0.0, Culture=neutral, PublicKeyToken=null]]" : [ 
		"LookupList_EmployeeAuditOptions",
	] ,
	"System.Collections.Generic.IEnumerable`1[[ChaiTea.BusinessLogic.ViewModels.KeyPerformanceIndicators.TeamStatsBoxScoreVm, ChaiTea.BusinessLogic, Version=0.0.0.0, Culture=neutral, PublicKeyToken=null]]" : [ 
		"BoxScore",
		"BoxScore_int_datetime_datetime",
	] ,
	"System.Collections.Generic.IEnumerable`1[[ChaiTea.BusinessLogic.ViewModels.Personnel.UserNotificationSubscriptionVm, ChaiTea.BusinessLogic, Version=0.0.0.0, Culture=neutral, PublicKeyToken=null]]" : [ 
		"UserNotificationSubscription",
	] ,
	"System.Collections.Generic.IEnumerable`1[[ChaiTea.BusinessLogic.ViewModels.ProfessionalReviews.EmployeeAuditsInfoCardsVm, ChaiTea.BusinessLogic, Version=0.0.0.0, Culture=neutral, PublicKeyToken=null]]" : [ 
		"EmployeeAudit_EmployeeAudits",
	] ,
	"System.Collections.Generic.IEnumerable`1[[ChaiTea.BusinessLogic.ViewModels.ProfessionalReviews.EmployeeAuditsMonthlyTrendVm, ChaiTea.BusinessLogic, Version=0.0.0.0, Culture=neutral, PublicKeyToken=null]]" : [ 
		"EmployeeAudit_EmployeeAuditsMontlyTrend",
	] ,
	"System.Collections.Generic.IEnumerable`1[[ChaiTea.BusinessLogic.ViewModels.ProfessionalReviews.EmployeeAuditsPerEmployeeVm, ChaiTea.BusinessLogic, Version=0.0.0.0, Culture=neutral, PublicKeyToken=null]]" : [ 
		"EmployeeAudit_EmployeeAuditsInfoPerEmployee",
	] ,
	"System.Collections.Generic.IEnumerable`1[[ChaiTea.BusinessLogic.ViewModels.Surveys.RecipientInvitationVm, ChaiTea.BusinessLogic, Version=0.0.0.0, Culture=neutral, PublicKeyToken=null]]" : [ 
		"Surveys",
	] ,
	"System.Collections.Generic.IEnumerable`1[[ChaiTea.BusinessLogic.ViewModels.TimeCenter.AttendanceAbsentReasonVm, ChaiTea.BusinessLogic, Version=0.0.0.0, Culture=neutral, PublicKeyToken=null]]" : [ 
		"Issue_AbsentTypesCounts",
	] ,
	"System.Collections.Generic.IEnumerable`1[[ChaiTea.BusinessLogic.ViewModels.TimeCenter.AttendanceEmployeeInfoVm, ChaiTea.BusinessLogic, Version=0.0.0.0, Culture=neutral, PublicKeyToken=null]]" : [ 
		"Issue_AttendanceInfoPerEmployee",
	] ,
	"System.Collections.Generic.IEnumerable`1[[ChaiTea.BusinessLogic.ViewModels.TimeCenter.AttendanceMonthlyTrendVm, ChaiTea.BusinessLogic, Version=0.0.0.0, Culture=neutral, PublicKeyToken=null]]" : [ 
		"Issue_AttendanceMonthlyTrendByReasonId",
	] ,
	"System.Collections.Generic.IEnumerable`1[[ChaiTea.BusinessLogic.ViewModels.TimeCenter.AttendanceVm, ChaiTea.BusinessLogic, Version=0.0.0.0, Culture=neutral, PublicKeyToken=null]]" : [ 
		"Issue_AttendanceItems",
	] ,
	"System.Collections.Generic.IEnumerable`1[[ChaiTea.BusinessLogic.ViewModels.TimeCenter.IssueTypeVm, ChaiTea.BusinessLogic, Version=0.0.0.0, Culture=neutral, PublicKeyToken=null]]" : [ 
		"LookupList_IssueTypes",
	] ,
	"System.Collections.Generic.IEnumerable`1[[ChaiTea.BusinessLogic.ViewModels.Utils.LookupListOption`2[[System.Int32, mscorlib, Version=4.0.0.0, Culture=neutral, PublicKeyToken=b77a5c561934e089],[System.String, mscorlib, Version=4.0.0.0, Culture=neutral, PublicKeyToken=b77a5c561934e089]], ChaiTea.BusinessLogic, Version=0.0.0.0, Culture=neutral, PublicKeyToken=null]]" : [ 
		"LookupList_Courses",
		"LookupList_Employees_ByPosition_params",
		"LookupList_Jobs_ByClient_int",
		"LookupList_Jobs_BySite_params",
		"LookupList_Ownership_ReportTypes",
	] ,
	"System.Collections.Generic.IEnumerable`1[[ChaiTea.BusinessLogic.ViewModels.Utils.MapCountsBySiteVm, ChaiTea.BusinessLogic, Version=0.0.0.0, Culture=neutral, PublicKeyToken=null]]" : [ 
		"Complaints_ComplaintsCountBySiteByMonth",
		"Ownership_OwnershipCountBySiteByMonth",
		"Personnel_Safety_SafetyCountBySiteByMonth",
		"Surveys_SurveyAveragesBySiteByMonth",
		"Turnover_TurnoverAveragesBySiteByMonth",
	] ,
	"System.Collections.Generic.IEnumerable`1[[ChaiTea.Web.Areas.Services.Controllers.Courses.JobCourseController+ConciseJobCourseVm, ChaiTea.Web, Version=2.0.0.0, Culture=neutral, PublicKeyToken=null]]" : [ 
		"JobCourse_ConciseJobCourse",
		"JobCourse_ConciseJobCourseByJobId_int_params",
	] ,
	"System.Collections.Generic.IEnumerable`1[[System.Collections.Generic.KeyValuePair`2[[System.String, mscorlib, Version=4.0.0.0, Culture=neutral, PublicKeyToken=b77a5c561934e089],[System.String, mscorlib, Version=4.0.0.0, Culture=neutral, PublicKeyToken=b77a5c561934e089]], mscorlib, Version=4.0.0.0, Culture=neutral, PublicKeyToken=b77a5c561934e089]]" : [ 
		"I18N",
	] ,
	"System.Collections.Generic.IEnumerable`1[[System.Int32, mscorlib, Version=4.0.0.0, Culture=neutral, PublicKeyToken=b77a5c561934e089]]" : [ 
		"MessagesReceived_OrgUserById_int_params",
	] ,
	"System.Collections.Generic.KeyValuePair`2[[System.Int32, mscorlib, Version=4.0.0.0, Culture=neutral, PublicKeyToken=b77a5c561934e089],[System.String, mscorlib, Version=4.0.0.0, Culture=neutral, PublicKeyToken=b77a5c561934e089]]" : [ 
		"LookupList_PurchaseOrder_Commodities",
		"LookupList_PurchaseOrder_Manufacturers",
		"LookupList_PurchaseOrder_SubCommodities_int-n",
	] ,
	"System.Collections.Generic.List`1[[ChaiTea.BusinessLogic.Reporting.Quality.ViewModels.GetEmployeeAuditsAvgVm, ChaiTea.BusinessLogic, Version=0.0.0.0, Culture=neutral, PublicKeyToken=null]]" : [ 
		"Report_EmployeeAuditsAvg",
		"Report_EmployeeAuditsAvgByArea",
		"Report_EmployeeAuditsAvgByAreaByEmployee",
		"Report_EmployeeAuditsAvgByAreaByEmployee_datetime_params",
	] ,
	"System.Collections.Generic.List`1[[ChaiTea.BusinessLogic.Reporting.Quality.ViewModels.ReportAuditsByBuildingVm, ChaiTea.BusinessLogic, Version=0.0.0.0, Culture=neutral, PublicKeyToken=null]]" : [ 
		"Report_AuditsByBuilding",
		"Report_AuditsByBuilding_datetime_datetime",
	] ,
	"System.Collections.Generic.List`1[[ChaiTea.BusinessLogic.Reporting.Quality.ViewModels.ReportAuditsByFloorVm, ChaiTea.BusinessLogic, Version=0.0.0.0, Culture=neutral, PublicKeyToken=null]]" : [ 
		"Report_AuditsByFloor",
		"Report_AuditsByFloor_datetime_params",
	] ,
	"System.Collections.Generic.List`1[[ChaiTea.BusinessLogic.ViewModels.ActionRequests.NoticedIssues.OwnershipSiteCountVm, ChaiTea.BusinessLogic, Version=0.0.0.0, Culture=neutral, PublicKeyToken=null]]" : [ 
		"Ownership_SiteCounts",
	] ,
	"System.Collections.Generic.List`1[[ChaiTea.BusinessLogic.ViewModels.Assessments.Complaints.ComplaintSiteCountVm, ChaiTea.BusinessLogic, Version=0.0.0.0, Culture=neutral, PublicKeyToken=null]]" : [ 
		"Complaints_SiteCounts",
	] ,
	"System.Collections.Generic.List`1[[ChaiTea.BusinessLogic.ViewModels.Assessments.Compliments.ComplimentSiteCountVm, ChaiTea.BusinessLogic, Version=0.0.0.0, Culture=neutral, PublicKeyToken=null]]" : [ 
		"Compliments_SiteCounts",
	] ,
	"System.Collections.Generic.List`1[[ChaiTea.BusinessLogic.ViewModels.Assessments.ConductIssues.ConductCountsByEmployeeVm, ChaiTea.BusinessLogic, Version=0.0.0.0, Culture=neutral, PublicKeyToken=null]]" : [ 
		"Conduct_ConductCountsByEmployee",
	] ,
	"System.Collections.Generic.List`1[[ChaiTea.BusinessLogic.ViewModels.Assessments.ConductIssues.ConductCountsByPeriodVm, ChaiTea.BusinessLogic, Version=0.0.0.0, Culture=neutral, PublicKeyToken=null]]" : [ 
		"Conduct_MonthlyTrend",
	] ,
	"System.Collections.Generic.List`1[[ChaiTea.BusinessLogic.ViewModels.Assessments.ConductIssues.ConductInfoVm, ChaiTea.BusinessLogic, Version=0.0.0.0, Culture=neutral, PublicKeyToken=null]]" : [ 
		"Conduct_ConductInfo",
	] ,
	"System.Collections.Generic.List`1[[ChaiTea.BusinessLogic.ViewModels.Assessments.ConductIssues.ConductTypeCountVm, ChaiTea.BusinessLogic, Version=0.0.0.0, Culture=neutral, PublicKeyToken=null]]" : [ 
		"Conduct_ConductTypeCount",
	] ,
	"System.Collections.Generic.List`1[[ChaiTea.BusinessLogic.ViewModels.Auditing.FloorIdScorecardVm, ChaiTea.BusinessLogic, Version=0.0.0.0, Culture=neutral, PublicKeyToken=null]]" : [ 
		"Scorecard_Templates_int",
	] ,
	"System.Collections.Generic.List`1[[ChaiTea.BusinessLogic.ViewModels.Courses.EmployeeByCourseVm, ChaiTea.BusinessLogic, Version=0.0.0.0, Culture=neutral, PublicKeyToken=null]]" : [ 
		"EmployeeCourse_EmployeeCourseInfo",
	] ,
	"System.Collections.Generic.List`1[[ChaiTea.BusinessLogic.ViewModels.Courses.TrainingEmployeeCourseExtendedVm, ChaiTea.BusinessLogic, Version=0.0.0.0, Culture=neutral, PublicKeyToken=null]]" : [ 
		"EmployeeCourse_AllByEmployeeId",
	] ,
	"System.Collections.Generic.List`1[[ChaiTea.BusinessLogic.ViewModels.Employment.EmployeeMetricVm, ChaiTea.BusinessLogic, Version=0.0.0.0, Culture=neutral, PublicKeyToken=null]]" : [ 
		"BoxScore_EmployeesAuditsAvgMetric",
		"BoxScore_EmployeesComplaintsCount",
		"BoxScore_EmployeesComplimentsCount",
		"BoxScore_EmployeesTrainingComplianceMetric",
		"Conduct_EmployeesConductCount",
		"EmployeeAudit_EmployeesAuditsIsPassCount",
		"Issue_EmployeesIssueCount",
		"Ownership_EmployeesOwnershipsCount",
		"Personnel_Safety_EmployeesSafetyCount",
	] ,
	"System.Collections.Generic.List`1[[ChaiTea.BusinessLogic.ViewModels.SafetyIncidents.SafetySiteCountVm, ChaiTea.BusinessLogic, Version=0.0.0.0, Culture=neutral, PublicKeyToken=null]]" : [ 
		"Personnel_Safety_SiteCounts",
	] ,
	"System.DateTime" : [ 
		"TimeClock_LastUpdatedDate",
	] ,
	"System.Decimal" : [ 
		"CourseRating_AvgByCourse_int",
		"CourseRating_AvgByCourseAttachment_int_int",
	] ,
	"System.Int32" : [ 
		"api_mobile_AssociateMessages_HasNotBeenSeenCount",
		"api_mobile_AssociateNotifications_HasNotBeenSeenCount",
		"api_mobile_AssociateTasks_InCompleteCount",
		"AreaOfBodyAffected",
		"AuditSetting",
		"BodyPartAffected",
		"CauseOfInjuryCategory",
		"ClaimsInvestigation",
		"Complaints",
		"Compliments",
		"Conduct_ConductCount",
		"InjuryInvestigation",
		"InjuryReport",
		"MessagesReceived_AllJobsCount",
		"MessagesReceived_SentMessagesCount",
		"Ownership",
		"OwnershipCustomerRepresentative",
		"Scorecard_FailedAuditsCount",
		"SourceOfInjuryCategory",
		"SpecificCauseOfInjury",
		"SpecificSourceOfInjury",
		"Surveys_PendingCount",
		"TodoItem",
		"TrainingMessage_AllCounts",
		"TrainingMessage_DepartmentCounts_int",
		"UserDashboardWidget",
		"WorkOrders_SubmittedCount",
	] ,
	"System.Linq.IQueryable`1[[ChaiTea.BusinessLogic.ViewModels.ActionRequests.NoticedIssues.OwnershipCustomerRepresentativeVm, ChaiTea.BusinessLogic, Version=0.0.0.0, Culture=neutral, PublicKeyToken=null]]" : [ 
		"OwnershipCustomerRepresentative",
	] ,
	"System.Linq.IQueryable`1[[ChaiTea.BusinessLogic.ViewModels.ActionRequests.NoticedIssues.OwnershipVm, ChaiTea.BusinessLogic, Version=0.0.0.0, Culture=neutral, PublicKeyToken=null]]" : [ 
		"Ownership",
	] ,
	"System.Linq.IQueryable`1[[ChaiTea.BusinessLogic.ViewModels.ActionRequests.Tasks.TodoItemVm, ChaiTea.BusinessLogic, Version=0.0.0.0, Culture=neutral, PublicKeyToken=null]]" : [ 
		"TodoItem",
		"TodoItem_ByEmployee",
		"TodoItem_GetByEmployee",
		"TodoItem_ToDos",
	] ,
	"System.Linq.IQueryable`1[[ChaiTea.BusinessLogic.ViewModels.ActionRequests.WorkOrders.WorkOrderVm, ChaiTea.BusinessLogic, Version=0.0.0.0, Culture=neutral, PublicKeyToken=null]]" : [ 
		"WorkOrders",
		"WorkOrderSeries",
	] ,
	"System.Linq.IQueryable`1[[ChaiTea.BusinessLogic.ViewModels.AppMetaData.ApplicationUserRoleVm, ChaiTea.BusinessLogic, Version=0.0.0.0, Culture=neutral, PublicKeyToken=null]]" : [ 
		"ApplicationRole",
	] ,
	"System.Linq.IQueryable`1[[ChaiTea.BusinessLogic.ViewModels.AppMetaData.BaseApplicationUserVm, ChaiTea.BusinessLogic, Version=0.0.0.0, Culture=neutral, PublicKeyToken=null]]" : [ 
		"ApplicationUser_Auditors",
	] ,
	"System.Linq.IQueryable`1[[ChaiTea.BusinessLogic.ViewModels.AppMetaData.UserInfoVm, ChaiTea.BusinessLogic, Version=0.0.0.0, Culture=neutral, PublicKeyToken=null]]" : [ 
		"UserInfo",
	] ,
	"System.Linq.IQueryable`1[[ChaiTea.BusinessLogic.ViewModels.Assessments.Complaints.ComplaintVm, ChaiTea.BusinessLogic, Version=0.0.0.0, Culture=neutral, PublicKeyToken=null]]" : [ 
		"Complaints",
	] ,
	"System.Linq.IQueryable`1[[ChaiTea.BusinessLogic.ViewModels.Assessments.Compliments.ComplimentVm, ChaiTea.BusinessLogic, Version=0.0.0.0, Culture=neutral, PublicKeyToken=null]]" : [ 
		"Compliments",
	] ,
	"System.Linq.IQueryable`1[[ChaiTea.BusinessLogic.ViewModels.Assessments.ConductIssues.ConductVm, ChaiTea.BusinessLogic, Version=0.0.0.0, Culture=neutral, PublicKeyToken=null]]" : [ 
		"Conduct",
		"Conduct_Employee",
	] ,
	"System.Linq.IQueryable`1[[ChaiTea.BusinessLogic.ViewModels.Assessments.ProfessionalReviews.EmployeeAuditVm, ChaiTea.BusinessLogic, Version=0.0.0.0, Culture=neutral, PublicKeyToken=null]]" : [ 
		"EmployeeAudit",
		"EmployeeAudit_Employee",
	] ,
	"System.Linq.IQueryable`1[[ChaiTea.BusinessLogic.ViewModels.Auditing.AuditProfileSectionVm, ChaiTea.BusinessLogic, Version=0.0.0.0, Culture=neutral, PublicKeyToken=null]]" : [ 
		"AuditProfileSection",
	] ,
	"System.Linq.IQueryable`1[[ChaiTea.BusinessLogic.ViewModels.Auditing.AuditProfileVm, ChaiTea.BusinessLogic, Version=0.0.0.0, Culture=neutral, PublicKeyToken=null]]" : [ 
		"AuditProfile",
	] ,
	"System.Linq.IQueryable`1[[ChaiTea.BusinessLogic.ViewModels.Auditing.FloorProfileVm, ChaiTea.BusinessLogic, Version=0.0.0.0, Culture=neutral, PublicKeyToken=null]]" : [ 
		"FloorProfile_bool",
	] ,
	"System.Linq.IQueryable`1[[ChaiTea.BusinessLogic.ViewModels.Auditing.ScorecardDetailImageVm, ChaiTea.BusinessLogic, Version=0.0.0.0, Culture=neutral, PublicKeyToken=null]]" : [ 
		"ScorecardDetailImage",
	] ,
	"System.Linq.IQueryable`1[[ChaiTea.BusinessLogic.ViewModels.Auditing.ScorecardDetailVm, ChaiTea.BusinessLogic, Version=0.0.0.0, Culture=neutral, PublicKeyToken=null]]" : [ 
		"ScorecardDetail",
	] ,
	"System.Linq.IQueryable`1[[ChaiTea.BusinessLogic.ViewModels.Auditing.ScorecardVm, ChaiTea.BusinessLogic, Version=0.0.0.0, Culture=neutral, PublicKeyToken=null]]" : [ 
		"Scorecard",
	] ,
	"System.Linq.IQueryable`1[[ChaiTea.BusinessLogic.ViewModels.Communications.MessagesReceivedVm, ChaiTea.BusinessLogic, Version=0.0.0.0, Culture=neutral, PublicKeyToken=null]]" : [ 
		"MessagesReceived_Messages",
	] ,
	"System.Linq.IQueryable`1[[ChaiTea.BusinessLogic.ViewModels.Communications.MessageVm, ChaiTea.BusinessLogic, Version=0.0.0.0, Culture=neutral, PublicKeyToken=null]]" : [ 
		"MessagesReceived_Get",
		"TrainingMessage",
	] ,
	"System.Linq.IQueryable`1[[ChaiTea.BusinessLogic.ViewModels.Communications.NotificationVm, ChaiTea.BusinessLogic, Version=0.0.0.0, Culture=neutral, PublicKeyToken=null]]" : [ 
		"MessageStats_int",
		"Notification",
	] ,
	"System.Linq.IQueryable`1[[ChaiTea.BusinessLogic.ViewModels.Courses.CourseRatingVm, ChaiTea.BusinessLogic, Version=0.0.0.0, Culture=neutral, PublicKeyToken=null]]" : [ 
		"CourseRating",
	] ,
	"System.Linq.IQueryable`1[[ChaiTea.BusinessLogic.ViewModels.Courses.CourseTypeVm, ChaiTea.BusinessLogic, Version=0.0.0.0, Culture=neutral, PublicKeyToken=null]]" : [ 
		"CourseType",
	] ,
	"System.Linq.IQueryable`1[[ChaiTea.BusinessLogic.ViewModels.Courses.CourseVm, ChaiTea.BusinessLogic, Version=0.0.0.0, Culture=neutral, PublicKeyToken=null]]" : [ 
		"Course",
	] ,
	"System.Linq.IQueryable`1[[ChaiTea.BusinessLogic.ViewModels.Courses.EmployeeCourseExtendedVm, ChaiTea.BusinessLogic, Version=0.0.0.0, Culture=neutral, PublicKeyToken=null]]" : [ 
		"EmployeeCourse_AllByEmployeeId_int",
		"EmployeeCourse_GetAllByEmployeeId_int",
	] ,
	"System.Linq.IQueryable`1[[ChaiTea.BusinessLogic.ViewModels.Courses.EmployeeCourseVm, ChaiTea.BusinessLogic, Version=0.0.0.0, Culture=neutral, PublicKeyToken=null]]" : [ 
		"EmployeeCourse",
		"EmployeeCourse_AllByCourseId_int",
	] ,
	"System.Linq.IQueryable`1[[ChaiTea.BusinessLogic.ViewModels.Courses.JobCourseVm, ChaiTea.BusinessLogic, Version=0.0.0.0, Culture=neutral, PublicKeyToken=null]]" : [ 
		"JobCourse",
	] ,
	"System.Linq.IQueryable`1[[ChaiTea.BusinessLogic.ViewModels.Courses.SnapshotEmployeeCourseVm, ChaiTea.BusinessLogic, Version=0.0.0.0, Culture=neutral, PublicKeyToken=null]]" : [ 
		"EmployeeCourse_EmployeeCourseSnapshots_int",
	] ,
	"System.Linq.IQueryable`1[[ChaiTea.BusinessLogic.ViewModels.Employment.ContractVm, ChaiTea.BusinessLogic, Version=0.0.0.0, Culture=neutral, PublicKeyToken=null]]" : [ 
		"Contract",
	] ,
	"System.Linq.IQueryable`1[[ChaiTea.BusinessLogic.ViewModels.Employment.DutyVm, ChaiTea.BusinessLogic, Version=0.0.0.0, Culture=neutral, PublicKeyToken=null]]" : [ 
		"Duty",
	] ,
	"System.Linq.IQueryable`1[[ChaiTea.BusinessLogic.ViewModels.Employment.EmployeeAttributeVm, ChaiTea.BusinessLogic, Version=0.0.0.0, Culture=neutral, PublicKeyToken=null]]" : [ 
		"EmployeeAttribute",
	] ,
	"System.Linq.IQueryable`1[[ChaiTea.BusinessLogic.ViewModels.Employment.EmployeeVm, ChaiTea.BusinessLogic, Version=0.0.0.0, Culture=neutral, PublicKeyToken=null]]" : [ 
		"Employee",
		"Employee_Client_int",
		"Employee_Employees",
		"Employee_int_int",
	] ,
	"System.Linq.IQueryable`1[[ChaiTea.BusinessLogic.ViewModels.Employment.EquipmentVm, ChaiTea.BusinessLogic, Version=0.0.0.0, Culture=neutral, PublicKeyToken=null]]" : [ 
		"Equipment",
	] ,
	"System.Linq.IQueryable`1[[ChaiTea.BusinessLogic.ViewModels.Employment.JobPurposeVm, ChaiTea.BusinessLogic, Version=0.0.0.0, Culture=neutral, PublicKeyToken=null]]" : [ 
		"JobPurpose",
		"JobPurpose_int_int",
	] ,
	"System.Linq.IQueryable`1[[ChaiTea.BusinessLogic.ViewModels.Employment.JobTaskVm, ChaiTea.BusinessLogic, Version=0.0.0.0, Culture=neutral, PublicKeyToken=null]]" : [ 
		"JobTask",
	] ,
	"System.Linq.IQueryable`1[[ChaiTea.BusinessLogic.ViewModels.Employment.LegalDescriptionVm, ChaiTea.BusinessLogic, Version=0.0.0.0, Culture=neutral, PublicKeyToken=null]]" : [ 
		"LegalDescription",
	] ,
	"System.Linq.IQueryable`1[[ChaiTea.BusinessLogic.ViewModels.Employment.SampleTaskVm, ChaiTea.BusinessLogic, Version=0.0.0.0, Culture=neutral, PublicKeyToken=null]]" : [ 
		"SampleTask",
	] ,
	"System.Linq.IQueryable`1[[ChaiTea.BusinessLogic.ViewModels.Employment.TrainingEmployeeJobVm, ChaiTea.BusinessLogic, Version=0.0.0.0, Culture=neutral, PublicKeyToken=null]]" : [ 
		"Job",
	] ,
	"System.Linq.IQueryable`1[[ChaiTea.BusinessLogic.ViewModels.Employment.TrainingEmployeeVm, ChaiTea.BusinessLogic, Version=0.0.0.0, Culture=neutral, PublicKeyToken=null]]" : [ 
		"TrainingEmployee",
	] ,
	"System.Linq.IQueryable`1[[ChaiTea.BusinessLogic.ViewModels.Facilities.AreaVm, ChaiTea.BusinessLogic, Version=0.0.0.0, Culture=neutral, PublicKeyToken=null]]" : [ 
		"Area",
		"Floor_Areas_int",
	] ,
	"System.Linq.IQueryable`1[[ChaiTea.BusinessLogic.ViewModels.Facilities.BuildingVm, ChaiTea.BusinessLogic, Version=0.0.0.0, Culture=neutral, PublicKeyToken=null]]" : [ 
		"Building",
	] ,
	"System.Linq.IQueryable`1[[ChaiTea.BusinessLogic.ViewModels.Facilities.FloorVm, ChaiTea.BusinessLogic, Version=0.0.0.0, Culture=neutral, PublicKeyToken=null]]" : [ 
		"Floor",
	] ,
	"System.Linq.IQueryable`1[[ChaiTea.BusinessLogic.ViewModels.Facilities.SiteVm, ChaiTea.BusinessLogic, Version=0.0.0.0, Culture=neutral, PublicKeyToken=null]]" : [ 
		"Site",
	] ,
	"System.Linq.IQueryable`1[[ChaiTea.BusinessLogic.ViewModels.Facilities.TrainingAreaVm, ChaiTea.BusinessLogic, Version=0.0.0.0, Culture=neutral, PublicKeyToken=null]]" : [ 
		"TrainingEmployee_EmployeeAreas_int",
		"TrainingEmployee_GetEmployeeAreas_int",
	] ,
	"System.Linq.IQueryable`1[[ChaiTea.BusinessLogic.ViewModels.Invoices.InvoiceVm, ChaiTea.BusinessLogic, Version=0.0.0.0, Culture=neutral, PublicKeyToken=null]]" : [ 
		"Invoice",
	] ,
	"System.Linq.IQueryable`1[[ChaiTea.BusinessLogic.ViewModels.KeyPerformanceIndicators.EmployeeBonusVm, ChaiTea.BusinessLogic, Version=0.0.0.0, Culture=neutral, PublicKeyToken=null]]" : [ 
		"EmployeeBonus_int_int",
	] ,
	"System.Linq.IQueryable`1[[ChaiTea.BusinessLogic.ViewModels.KeyPerformanceIndicators.EmployeeKpiMasterVm, ChaiTea.BusinessLogic, Version=0.0.0.0, Culture=neutral, PublicKeyToken=null]]" : [ 
		"EmployeeKpiMaster",
	] ,
	"System.Linq.IQueryable`1[[ChaiTea.BusinessLogic.ViewModels.KeyPerformanceIndicators.KpiCommentVm, ChaiTea.BusinessLogic, Version=0.0.0.0, Culture=neutral, PublicKeyToken=null]]" : [ 
		"KpiComment_int_int",
	] ,
	"System.Linq.IQueryable`1[[ChaiTea.BusinessLogic.ViewModels.KeyPerformanceIndicators.KpiSettingVm, ChaiTea.BusinessLogic, Version=0.0.0.0, Culture=neutral, PublicKeyToken=null]]" : [ 
		"KpiSetting",
	] ,
	"System.Linq.IQueryable`1[[ChaiTea.BusinessLogic.ViewModels.KeyPerformanceIndicators.KpiVm, ChaiTea.BusinessLogic, Version=0.0.0.0, Culture=neutral, PublicKeyToken=null]]" : [ 
		"Kpi",
	] ,
	"System.Linq.IQueryable`1[[ChaiTea.BusinessLogic.ViewModels.KeyPerformanceIndicators.ServiceExcellenceEmployeeVm, ChaiTea.BusinessLogic, Version=0.0.0.0, Culture=neutral, PublicKeyToken=null]]" : [ 
		"ServiceExcellence_int_int",
	] ,
	"System.Linq.IQueryable`1[[ChaiTea.BusinessLogic.ViewModels.KeyPerformanceIndicators.SiteBonusVm, ChaiTea.BusinessLogic, Version=0.0.0.0, Culture=neutral, PublicKeyToken=null]]" : [ 
		"SiteBonus",
		"SiteBonus_int_int",
	] ,
	"System.Linq.IQueryable`1[[ChaiTea.BusinessLogic.ViewModels.Organizations.AttributeAttachmentVm, ChaiTea.BusinessLogic, Version=0.0.0.0, Culture=neutral, PublicKeyToken=null]]" : [ 
		"AttributeAttachment",
	] ,
	"System.Linq.IQueryable`1[[ChaiTea.BusinessLogic.ViewModels.Organizations.AttributeVm, ChaiTea.BusinessLogic, Version=0.0.0.0, Culture=neutral, PublicKeyToken=null]]" : [ 
		"Attribute",
	] ,
	"System.Linq.IQueryable`1[[ChaiTea.BusinessLogic.ViewModels.Organizations.ClientReportSettingVm, ChaiTea.BusinessLogic, Version=0.0.0.0, Culture=neutral, PublicKeyToken=null]]" : [ 
		"ClientReportSetting",
	] ,
	"System.Linq.IQueryable`1[[ChaiTea.BusinessLogic.ViewModels.Organizations.ClientSiteVm, ChaiTea.BusinessLogic, Version=0.0.0.0, Culture=neutral, PublicKeyToken=null]]" : [ 
		"Client_Orgs",
	] ,
	"System.Linq.IQueryable`1[[ChaiTea.BusinessLogic.ViewModels.Organizations.ClientVm, ChaiTea.BusinessLogic, Version=0.0.0.0, Culture=neutral, PublicKeyToken=null]]" : [ 
		"Client",
	] ,
	"System.Linq.IQueryable`1[[ChaiTea.BusinessLogic.ViewModels.Organizations.CustomerRepresentativeVm, ChaiTea.BusinessLogic, Version=0.0.0.0, Culture=neutral, PublicKeyToken=null]]" : [ 
		"CustomerRepresentative",
	] ,
	"System.Linq.IQueryable`1[[ChaiTea.BusinessLogic.ViewModels.Organizations.DepartmentVm, ChaiTea.BusinessLogic, Version=0.0.0.0, Culture=neutral, PublicKeyToken=null]]" : [ 
		"Department",
	] ,
	"System.Linq.IQueryable`1[[ChaiTea.BusinessLogic.ViewModels.Organizations.OrgSettingVm, ChaiTea.BusinessLogic, Version=0.0.0.0, Culture=neutral, PublicKeyToken=null]]" : [ 
		"Org",
		"Org_Clients_int-n_bool-n",
	] ,
	"System.Linq.IQueryable`1[[ChaiTea.BusinessLogic.ViewModels.Organizations.ProgramReportSettingVm, ChaiTea.BusinessLogic, Version=0.0.0.0, Culture=neutral, PublicKeyToken=null]]" : [ 
		"ProgramReportSetting",
	] ,
	"System.Linq.IQueryable`1[[ChaiTea.BusinessLogic.ViewModels.Organizations.ProgramVm, ChaiTea.BusinessLogic, Version=0.0.0.0, Culture=neutral, PublicKeyToken=null]]" : [ 
		"Building_Programs_int",
		"Program",
		"Site_Programs_int",
	] ,
	"System.Linq.IQueryable`1[[ChaiTea.BusinessLogic.ViewModels.Organizations.QuickCommentVm, ChaiTea.BusinessLogic, Version=0.0.0.0, Culture=neutral, PublicKeyToken=null]]" : [ 
		"QuickComment",
	] ,
	"System.Linq.IQueryable`1[[ChaiTea.BusinessLogic.ViewModels.Organizations.SiteReportSettingVm, ChaiTea.BusinessLogic, Version=0.0.0.0, Culture=neutral, PublicKeyToken=null]]" : [ 
		"SiteReportSetting",
	] ,
	"System.Linq.IQueryable`1[[ChaiTea.BusinessLogic.ViewModels.Personnel.UserHobbyVm, ChaiTea.BusinessLogic, Version=0.0.0.0, Culture=neutral, PublicKeyToken=null]]" : [ 
		"UserHobby",
		"UserHobby_ByUserId_int",
		"UserHobby_GetByUserId_int",
	] ,
	"System.Linq.IQueryable`1[[ChaiTea.BusinessLogic.ViewModels.Personnel.UserStickerVm, ChaiTea.BusinessLogic, Version=0.0.0.0, Culture=neutral, PublicKeyToken=null]]" : [ 
		"UserSticker",
		"UserSticker_ByUserId_int",
		"UserSticker_GetByUserId_int",
	] ,
	"System.Linq.IQueryable`1[[ChaiTea.BusinessLogic.ViewModels.Personnel.UserTravelVm, ChaiTea.BusinessLogic, Version=0.0.0.0, Culture=neutral, PublicKeyToken=null]]" : [ 
		"UserTravel",
		"UserTravel_ByUserId_int",
		"UserTravel_GetByUserId_int",
	] ,
	"System.Linq.IQueryable`1[[ChaiTea.BusinessLogic.ViewModels.PurchaseOrders.POItemVm, ChaiTea.BusinessLogic, Version=0.0.0.0, Culture=neutral, PublicKeyToken=null]]" : [ 
		"POItem",
	] ,
	"System.Linq.IQueryable`1[[ChaiTea.BusinessLogic.ViewModels.SafetyIncidents.SafetyVm, ChaiTea.BusinessLogic, Version=0.0.0.0, Culture=neutral, PublicKeyToken=null]]" : [ 
		"Personnel_Safety",
		"Personnel_Safety_Employee",
	] ,
	"System.Linq.IQueryable`1[[ChaiTea.BusinessLogic.ViewModels.TimeCenter.IssueVm, ChaiTea.BusinessLogic, Version=0.0.0.0, Culture=neutral, PublicKeyToken=null]]" : [ 
		"Issue",
		"Issue_Employee",
	] ,
	"System.Linq.IQueryable`1[[ChaiTea.BusinessLogic.ViewModels.TimeCenter.TimeClockVm, ChaiTea.BusinessLogic, Version=0.0.0.0, Culture=neutral, PublicKeyToken=null]]" : [ 
		"TimeClock_Employee",
	] ,
	"System.Linq.IQueryable`1[[ChaiTea.BusinessLogic.ViewModels.TimeCenter.VacationRequestVm, ChaiTea.BusinessLogic, Version=0.0.0.0, Culture=neutral, PublicKeyToken=null]]" : [ 
		"VacationRequest",
	] ,
	"System.Linq.IQueryable`1[[ChaiTea.BusinessLogic.ViewModels.Utils.Attachments.AttachmentVm, ChaiTea.BusinessLogic, Version=0.0.0.0, Culture=neutral, PublicKeyToken=null]]" : [ 
		"Attachment",
	] ,
	"System.Linq.IQueryable`1[[ChaiTea.BusinessLogic.ViewModels.Utils.Localization.CultureVm, ChaiTea.BusinessLogic, Version=0.0.0.0, Culture=neutral, PublicKeyToken=null]]" : [ 
		"Culture",
	] ,
	"System.Linq.IQueryable`1[[ChaiTea.BusinessLogic.ViewModels.Utils.Tagging.TagVm, ChaiTea.BusinessLogic, Version=0.0.0.0, Culture=neutral, PublicKeyToken=null]]" : [ 
		"Tag",
	] ,
	"System.Linq.IQueryable`1[[ChaiTea.BusinessLogic.ViewModels.Utils.Translation.LanguageVm, ChaiTea.BusinessLogic, Version=0.0.0.0, Culture=neutral, PublicKeyToken=null]]" : [ 
		"Language",
	] ,
	"System.Linq.IQueryable`1[[ChaiTea.Web.Areas.Services.Controllers.Courses.EmployeeCourseController+ConciseEmployeeCourse, ChaiTea.Web, Version=2.0.0.0, Culture=neutral, PublicKeyToken=null]]" : [ 
		"EmployeeCourse_ConciseEmployeeCourse",
	] ,
	"System.Nullable`1[[System.DateTime, mscorlib, Version=4.0.0.0, Culture=neutral, PublicKeyToken=b77a5c561934e089]]" : [ 
		"Conduct_LastModifiedDate",
		"Invoice_LastUpdatedDate",
		"Issue_LastModifiedDate",
		"POItem_LastUpdatedDate",
		"Turnover_LastUpdatedDate",
	] ,
	"System.String" : [ 
		"InjuryReport_CreateUniqueIncidentId",
		"Org_Timezone_int",
	] ,
	"System.Threading.Tasks.Task`1[[System.Web.Http.IHttpActionResult, System.Web.Http, Version=5.2.3.0, Culture=neutral, PublicKeyToken=31bf3856ad364e35]]" : [ 
		"ApplicationUser_ForgotPassword",
	] ,
	"System.Void" : [ 
		"api_mobile_AssociateMessages_params",
		"api_mobile_AssociateNotifications_params",
		"api_mobile_AssociateNotifications_Seen",
		"api_mobile_AssociateTasks_params",
		"ApplicationRole",
		"ApplicationRole_int",
		"ApplicationUser",
		"ApplicationUser_int",
		"ApplicationUser_Logout",
		"ApplicationUser_UpdatePassword_int",
		"Area",
		"Area_int",
		"AreaOfBodyAffected",
		"AreaOfBodyAffected_int",
		"Attachment",
		"Attachment_int",
		"Attribute",
		"Attribute_int",
		"AttributeAttachment",
		"AttributeAttachment_int",
		"AuditProfile",
		"AuditProfile_int",
		"AuditProfileSection",
		"AuditProfileSection_int",
		"AuditSetting_int",
		"BodyPartAffected",
		"BodyPartAffected_int",
		"Building",
		"Building_int",
		"Building_Programs_int",
		"CauseOfInjuryCategory",
		"CauseOfInjuryCategory_int",
		"ClaimsInvestigation_int",
		"Client",
		"Client_int",
		"ClientReportSetting_int",
		"Complaints_ExemptComplaint",
		"Complaints_int",
		"Compliments_int",
		"Contract",
		"Contract_int",
		"Course",
		"Course_int",
		"CourseType",
		"CourseType_int",
		"Culture",
		"Culture_int",
		"CustomerRepresentative",
		"CustomerRepresentative_int",
		"Department",
		"Department_int",
		"Duty",
		"Duty_int",
		"Employee",
		"Employee_int",
		"EmployeeBonuses",
		"EmployeeCourse",
		"EmployeeCourse_int",
		"Equipment",
		"Equipment_int",
		"Floor",
		"Floor_Areas_int",
		"Floor_int",
		"InjuryInvestigation_int",
		"InjuryReport_int",
		"Invoice",
		"Invoice_int",
		"Job",
		"Job_int",
		"JobCourse",
		"JobCourse_int",
		"JobPurpose",
		"JobPurpose_int",
		"JobTask",
		"JobTask_int",
		"KpiSetting",
		"KpiSetting_int",
		"Language",
		"Language_int",
		"LegalDescription",
		"LegalDescription_int",
		"Notification",
		"Notification_int",
		"Org",
		"Org_int",
		"Ownership_int",
		"POItem",
		"POItem_int",
		"Program",
		"Program_int",
		"ProgramReportSetting",
		"ProgramReportSetting_int",
		"Programs_ProgramLookup",
		"QuickComment",
		"QuickComment_int",
		"SampleTask",
		"SampleTask_int",
		"Scorecard",
		"Scorecard_int",
		"ScorecardDetail",
		"ScorecardDetail_int",
		"ScorecardDetailImage",
		"ScorecardDetailImage_int",
		"SendMail",
		"ServiceExcellence_ExemptEmployee_int",
		"ServiceExcellence_ExemptKpi_bool_int",
		"ServiceExcellence_ScorecardStatus",
		"Site",
		"Site_int",
		"Site_Programs_int",
		"Site_SiteLookup",
		"SiteReportSetting",
		"SiteReportSetting_int",
		"SourceOfInjuryCategory",
		"SourceOfInjuryCategory_int",
		"SpecificCauseOfInjury",
		"SpecificCauseOfInjury_int",
		"SpecificSourceOfInjury",
		"SpecificSourceOfInjury_int",
		"Surveys",
		"Surveys_Invitations",
		"Surveys_Invitations_int",
		"Surveys_Responses",
		"Surveys_TemplateQuestions_int",
		"Tag",
		"Tag_int",
		"TodoItem_int",
		"TodoItem_MarkTodoItemAsRead_int",
		"TrainingEmployee",
		"TrainingEmployee_int",
		"TrainingEmployee_UpdateEmployeeCourses",
		"TrainingMessage",
		"TrainingMessage_int",
		"User_ActiveContext",
		"User_SetContext",
		"UserDashboardWidget_int",
		"UserDevices_int",
		"UserDevices_SendMessage",
		"UserHobby_int",
		"UserHobby_UpdateAll",
		"UserInfo",
		"UserInfo_int",
		"UserInfo_Put",
		"UserSticker",
		"UserSticker_int",
		"UserTravel",
		"UserTravel_int",
		"VacationRequest",
		"VacationRequest_int",
		"WorkOrders",
		"WorkOrders_int",
		"WorkOrderSeries",
		"WorkOrderSeries_int",
	] ,
	"System.Web.Http.IHttpActionResult" : [ 
		"api_mobile_Users",
		"ApplicationUser_ResetPassword",
		"ApplicationUser_UserInfo",
		"Invoice_InvoiceByUnpaidFlag",
		"Invoice_InvoiceItemsByProgram",
		"LookupList_Error",
		"Notification_Notifications",
		"TrainingReport_Ownership_Count",
		"UserInfo_Attachments",
	] 
}
