{
	 "GET" : [ 
		"api/mobile/AssociateMessages",
		"api/mobile/AssociateMessages/Dashboard",
		"api/mobile/AssociateMessages/HasNotBeenSeenCount",
		"api/mobile/AssociateMessages/int",
		"api/mobile/AssociateMessages/OrderByOptions",
		"api/mobile/AssociateNotifications",
		"api/mobile/AssociateNotifications/HasNotBeenSeenCount",
		"api/mobile/AssociateTasks",
		"api/mobile/AssociateTasks/Dashboard",
		"api/mobile/AssociateTasks/InCompleteCount",
		"api/mobile/AssociateTasks/int",
		"api/mobile/AssociateTasks/MyWork",
		"api/mobile/Contexts/CurrentAssociate",
		"api/mobile/Departments",
		"api/mobile/Users",
		"api/Services/ApplicationRole",
		"api/Services/ApplicationRole/int",
		"api/Services/ApplicationUser",
		"api/Services/ApplicationUser/Auditors",
		"api/Services/ApplicationUser/Client",
		"api/Services/ApplicationUser/UserInfo",
		"api/Services/Area",
		"api/Services/Area/int",
		"api/Services/AreaOfBodyAffected",
		"api/Services/AreaOfBodyAffected/int",
		"api/Services/Attachment",
		"api/Services/Attachment/int",
		"api/Services/Attachment/int/rotate/int/key/uniqueId",
		"api/Services/Attribute",
		"api/Services/Attribute/int",
		"api/Services/AttributeAttachment",
		"api/Services/AttributeAttachment/AttachmentCount/attributeId/attributeValue",
		"api/Services/AttributeAttachment/int",
		"api/Services/AuditProfile",
		"api/Services/AuditProfile/int",
		"api/Services/AuditProfileSection",
		"api/Services/AuditProfileSection/int",
		"api/Services/AuditSetting",
		"api/Services/AuditSetting/int",
		"api/Services/BodyPartAffected",
		"api/Services/BodyPartAffected/ByAreaOfBodyAffectedId/int",
		"api/Services/BodyPartAffected/int",
		"api/Services/BoxScore",
		"api/Services/BoxScore/All",
		"api/Services/BoxScore/EmployeesAuditsAvgMetric",
		"api/Services/BoxScore/EmployeesComplaintsCount",
		"api/Services/BoxScore/EmployeesComplimentsCount",
		"api/Services/BoxScore/EmployeesTrainingComplianceMetric",
		"api/Services/BoxScore/int/datetime/datetime",
		"api/Services/Building",
		"api/Services/Building/int",
		"api/Services/Building/Programs/int",
		"api/Services/CauseOfInjuryCategory",
		"api/Services/CauseOfInjuryCategory/int",
		"api/Services/ClaimsInvestigation",
		"api/Services/ClaimsInvestigation/ClaimsInfoBySite",
		"api/Services/ClaimsInvestigation/int",
		"api/Services/ClaimsInvestigation/RecordableRatesPerMonth",
		"api/Services/ClaimsInvestigation/SafetyTotals",
		"api/Services/Client",
		"api/Services/Client/int",
		"api/Services/Client/Orgs",
		"api/Services/ClientReportSetting",
		"api/Services/ClientReportSetting/int",
		"api/Services/Complaints",
		"api/Services/Complaints/ComplaintsCountBySiteByMonth",
		"api/Services/Complaints/int",
		"api/Services/Complaints/SiteCounts",
		"api/Services/Compliments",
		"api/Services/Compliments/int",
		"api/Services/Compliments/SiteCounts",
		"api/Services/Conduct",
		"api/Services/Conduct/ConductById/int",
		"api/Services/Conduct/ConductCount",
		"api/Services/Conduct/ConductCountsByEmployee",
		"api/Services/Conduct/ConductInfo",
		"api/Services/Conduct/ConductStats",
		"api/Services/Conduct/ConductTypeCount",
		"api/Services/Conduct/Employee",
		"api/Services/Conduct/Employee/int",
		"api/Services/Conduct/EmployeesConductCount",
		"api/Services/Conduct/int",
		"api/Services/Conduct/LastModifiedDate",
		"api/Services/Conduct/MonthlyTrend",
		"api/Services/Contract",
		"api/Services/Contract/int",
		"api/Services/Course",
		"api/Services/Course/int",
		"api/Services/CourseRating",
		"api/Services/CourseRating/AvgByCourse/int",
		"api/Services/CourseRating/AvgByCourseAttachment/int/int",
		"api/Services/CourseRating/int",
		"api/Services/CourseType",
		"api/Services/CourseType/int",
		"api/Services/Culture",
		"api/Services/Culture/int",
		"api/Services/CustomerRepresentative",
		"api/Services/CustomerRepresentative/int",
		"api/Services/Dashboard/DashboardCount",
		"api/Services/Dashboard/QualityTrendsLastUpdatedDates",
		"api/Services/Department",
		"api/Services/Department/int",
		"api/Services/Duty",
		"api/Services/Duty/int",
		"api/Services/Employee",
		"api/Services/Employee/Client/int",
		"api/Services/Employee/GetUser/int",
		"api/Services/Employee/int",
		"api/Services/Employee/int/int",
		"api/Services/Employee/User/int",
		"api/Services/EmployeeAttribute",
		"api/Services/EmployeeAudit",
		"api/Services/EmployeeAudit/Employee",
		"api/Services/EmployeeAudit/Employee/int",
		"api/Services/EmployeeAudit/EmployeeAuditById/int",
		"api/Services/EmployeeAudit/EmployeeAudits",
		"api/Services/EmployeeAudit/EmployeeAuditsInfoPerEmployee",
		"api/Services/EmployeeAudit/EmployeeAuditsMontlyTrend",
		"api/Services/EmployeeAudit/EmployeeAuditsTabCounts",
		"api/Services/EmployeeAudit/EmployeeAuditStats",
		"api/Services/EmployeeAudit/EmployeesAuditsIsPassCount",
		"api/Services/EmployeeAudit/int",
		"api/Services/EmployeeBonus/Employee/int/int",
		"api/Services/EmployeeBonus/int/int",
		"api/Services/EmployeeBonus/int/int/int",
		"api/Services/EmployeeCourse",
		"api/Services/EmployeeCourse/AllByCourseId/int",
		"api/Services/EmployeeCourse/AllByEmployeeId",
		"api/Services/EmployeeCourse/AllByEmployeeId/int",
		"api/Services/EmployeeCourse/ComplianceStats",
		"api/Services/EmployeeCourse/ConciseEmployeeCourse",
		"api/Services/EmployeeCourse/EmployeeComplianceStats/int",
		"api/Services/EmployeeCourse/EmployeeCourseInfo",
		"api/Services/EmployeeCourse/EmployeeCourseSnapshots/int",
		"api/Services/EmployeeCourse/GetAllByEmployeeId/int",
		"api/Services/EmployeeCourse/int",
		"api/Services/EmployeeCourse/WithSnapshots/int",
		"api/Services/EmployeeKpiMaster",
		"api/Services/EmployeeKpiMaster/CheckIfKpiExemptedByEmployeeId/int/int",
		"api/Services/Equipment",
		"api/Services/Equipment/int",
		"api/Services/FinanceReport/AccountsReceivableAging",
		"api/Services/FinanceReport/AggregateMonthlyTrends",
		"api/Services/FinanceReport/BillingByProgram",
		"api/Services/FinanceReport/BillingBySite",
		"api/Services/FinanceReport/BillingBySiteMonthly",
		"api/Services/FinanceReport/BillingMonthlyPaidVsUpaidAmount",
		"api/Services/FinanceReport/BillingMonthlyTrendsByProgram",
		"api/Services/FinanceReport/EmployeeMonthlyHours",
		"api/Services/FinanceReport/HourMonthlyTrends",
		"api/Services/FinanceReport/MonthlyProductTrends",
		"api/Services/FinanceReport/MonthlyTotalHours",
		"api/Services/FinanceReport/MonthlyTrends",
		"api/Services/FinanceReport/PositionFTE",
		"api/Services/FinanceReport/SpendByCategory",
		"api/Services/FinanceReport/SpendByIsBillable",
		"api/Services/FinanceReport/SpendByIsGreen",
		"api/Services/FinanceReport/SpendByProgram",
		"api/Services/FinanceReport/SpendByProgramMonthly",
		"api/Services/FinanceReport/SpendByProgramTrend",
		"api/Services/FinanceReport/SpendBySite",
		"api/Services/FinanceReport/SpendBySiteMonthly",
		"api/Services/FinanceReport/SpendBySubCommodityByIsBillable",
		"api/Services/FinanceReport/SpendBySubCommodityByIsGreen",
		"api/Services/FinanceReport/WeeklyTotalHours",
		"api/Services/FinanceReport/YearlyBonus",
		"api/Services/Floor",
		"api/Services/Floor/Areas/int",
		"api/Services/Floor/int",
		"api/Services/FloorProfile/bool",
		"api/Services/FloorProfile/Clone/int/int/int",
		"api/Services/GovernanceReports/PositionFTE",
		"api/Services/I18N",
		"api/Services/InjuryInvestigation",
		"api/Services/InjuryInvestigation/InjuredEmployeeInfoByInjuryInvestigationId/int",
		"api/Services/InjuryInvestigation/int",
		"api/Services/InjuryReport",
		"api/Services/InjuryReport/CreateUniqueIncidentId",
		"api/Services/InjuryReport/ForAllClients",
		"api/Services/InjuryReport/InjuredEmployeeInfoByInjuryReportId/int",
		"api/Services/InjuryReport/InjuryByClassification",
		"api/Services/InjuryReport/int",
		"api/Services/InjuryReport/SubInjuryByClassificationsByInjuryClassificationId",
		"api/Services/Invoice",
		"api/Services/Invoice/int",
		"api/Services/Invoice/InvoiceByUnpaidFlag",
		"api/Services/Invoice/InvoiceItemsByProgram",
		"api/Services/Invoice/LastUpdatedDate",
		"api/Services/Issue",
		"api/Services/Issue/AbsentTypesCounts",
		"api/Services/Issue/AttendanceById/int",
		"api/Services/Issue/AttendanceInfoPerEmployee",
		"api/Services/Issue/AttendanceItems",
		"api/Services/Issue/AttendanceMonthlyTrendByReasonId",
		"api/Services/Issue/AttendanceTabCounts",
		"api/Services/Issue/Employee",
		"api/Services/Issue/Employee/int",
		"api/Services/Issue/EmployeesIssueCount",
		"api/Services/Issue/int",
		"api/Services/Issue/IssueStats",
		"api/Services/Issue/LastModifiedDate",
		"api/Services/Job",
		"api/Services/Job/int",
		"api/Services/JobCourse",
		"api/Services/JobCourse/ConciseJobCourse",
		"api/Services/JobCourse/ConciseJobCourseByJobId/int/int?/int?",
		"api/Services/JobCourse/int",
		"api/Services/JobHourlyRate",
		"api/Services/JobPurpose",
		"api/Services/JobPurpose/int",
		"api/Services/JobPurpose/int/int",
		"api/Services/JobTask",
		"api/Services/JobTask/int",
		"api/Services/Kpi",
		"api/Services/KpiComment/int/int",
		"api/Services/KpiComment/int/int/int",
		"api/Services/KpiSetting",
		"api/Services/KpiSetting/int",
		"api/Services/KpiSetting/KPIMetrics/int",
		"api/Services/KpiUpdateCheck/int/int/int",
		"api/Services/Language",
		"api/Services/Language/int",
		"api/Services/LegalDescription",
		"api/Services/LegalDescription/int",
		"api/Services/LookupList/AreaClassificationInspectionItems/int",
		"api/Services/LookupList/AreaClassifications",
		"api/Services/LookupList/AreaClassifications/int/int/int?",
		"api/Services/LookupList/Areas/int",
		"api/Services/LookupList/Buildings",
		"api/Services/LookupList/Buildings/Complaint/int",
		"api/Services/LookupList/Buildings/Compliment/int",
		"api/Services/LookupList/Buildings/Site/int",
		"api/Services/LookupList/Classifications",
		"api/Services/LookupList/ComplaintTypes",
		"api/Services/LookupList/ComplaintTypes/Complaint/int",
		"api/Services/LookupList/ComplaintTypes/Program/int",
		"api/Services/LookupList/ComplimentTypes",
		"api/Services/LookupList/ConductTypes",
		"api/Services/LookupList/Course/CourseAttachment/int",
		"api/Services/LookupList/Courses",
		"api/Services/LookupList/CourseTypes",
		"api/Services/LookupList/EmployeeAuditOptions",
		"api/Services/LookupList/Employees",
		"api/Services/LookupList/Employees/ByPosition/int/int/int",
		"api/Services/LookupList/Employees/Complaint/int",
		"api/Services/LookupList/Employees/Compliment/int",
		"api/Services/LookupList/Error",
		"api/Services/LookupList/ExemptionTypes",
		"api/Services/LookupList/Floors/Building/int",
		"api/Services/LookupList/IssueTypes",
		"api/Services/LookupList/Jobs/ByClient/int",
		"api/Services/LookupList/Jobs/BySite/int/int",
		"api/Services/LookupList/Ownership/Classifications",
		"api/Services/LookupList/Ownership/RejectionTypes",
		"api/Services/LookupList/Ownership/ReportTypes",
		"api/Services/LookupList/PreventableStatuses",
		"api/Services/LookupList/Programs",
		"api/Services/LookupList/Programs/Site/int",
		"api/Services/LookupList/PurchaseOrder/Commodities",
		"api/Services/LookupList/PurchaseOrder/Manufacturers",
		"api/Services/LookupList/PurchaseOrder/SubCommodities/int?",
		"api/Services/LookupList/ScoringProfiles",
		"api/Services/LookupList/WorkOrderServiceTypes/int",
		"api/Services/MessagesReceived/AllJobsCount",
		"api/Services/MessagesReceived/ByEmployee",
		"api/Services/MessagesReceived/ByEmployeesCounts",
		"api/Services/MessagesReceived/Get",
		"api/Services/MessagesReceived/Messages",
		"api/Services/MessagesReceived/MessagesReceivedByEmployeeStatusCounts",
		"api/Services/MessagesReceived/MessagesReceivedInfoByJob",
		"api/Services/MessagesReceived/MessagesSentInfoByDepartment",
		"api/Services/MessagesReceived/MessageStatsById/int",
		"api/Services/MessagesReceived/MonthlyTrendByDepartment",
		"api/Services/MessagesReceived/OrgUserById/int/int/int/bool?",
		"api/Services/MessagesReceived/SentMessagesCount",
		"api/Services/MessagesReceived/StatsByEmployee",
		"api/Services/MessagesReceived/TabCounts",
		"api/Services/MessageStats",
		"api/Services/MessageStats/Employee",
		"api/Services/MessageStats/int",
		"api/Services/MessageStats/MessageCounts",
		"api/Services/MessageStats/Messages",
		"api/Services/MessageStats/MessagesSentMonthly",
		"api/Services/MessageStats/MessageStats",
		"api/Services/MessageStats/MessageStats/int",
		"api/Services/MessageStats/TotalRecipients",
		"api/Services/Notification",
		"api/Services/Notification/int",
		"api/Services/Notification/Messages",
		"api/Services/Notification/Notifications",
		"api/Services/Org",
		"api/Services/Org/Clients/int?/bool?",
		"api/Services/Org/int",
		"api/Services/Org/Timezone/int",
		"api/Services/Ownership",
		"api/Services/Ownership/EmployeesOwnershipsCount",
		"api/Services/Ownership/int",
		"api/Services/Ownership/OwnershipCountBySiteByMonth",
		"api/Services/Ownership/SiteCounts",
		"api/Services/OwnershipCustomerRepresentative",
		"api/Services/OwnershipCustomerRepresentative/int",
		"api/Services/Personnel/Safety",
		"api/Services/Personnel/Safety/Employee",
		"api/Services/Personnel/Safety/Employee/int",
		"api/Services/Personnel/Safety/EmployeesSafetyCount",
		"api/Services/Personnel/Safety/int",
		"api/Services/Personnel/Safety/SafetyCountBySiteByMonth",
		"api/Services/Personnel/Safety/SiteCounts",
		"api/Services/POItem",
		"api/Services/POItem/int",
		"api/Services/POItem/LastUpdatedDate",
		"api/Services/POItem/SuppliesAmountBySite",
		"api/Services/Program",
		"api/Services/Program/int",
		"api/Services/ProgramReportSetting",
		"api/Services/ProgramReportSetting/int",
		"api/Services/ProgramReportSetting/int/int",
		"api/Services/Programs/ProgramLookup/int",
		"api/Services/QuickComment",
		"api/Services/QuickComment/int",
		"api/Services/Report/AuditGridByProgram",
		"api/Services/Report/AuditsByBuilding",
		"api/Services/Report/AuditsByBuilding/datetime/datetime",
		"api/Services/Report/AuditsByFloor",
		"api/Services/Report/AuditsByFloor/datetime/datetime/int",
		"api/Services/Report/AuditTrends",
		"api/Services/Report/AuditTrends/datetime/datetime",
		"api/Services/Report/AuditTrendsByAreaClassification",
		"api/Services/Report/AuditTrendsByProgram",
		"api/Services/Report/AuditTrendsBySite",
		"api/Services/Report/ComplaintsByType",
		"api/Services/Report/ComplaintTrends",
		"api/Services/Report/ComplaintTrends/datetime/datetime",
		"api/Services/Report/ComplaintTrendsBySite",
		"api/Services/Report/ComplaintTrendsByTypeOrProgram",
		"api/Services/Report/ComplimentsByType",
		"api/Services/Report/ComplimentTrends",
		"api/Services/Report/ComplimentTrendsBySite",
		"api/Services/Report/ComplimentTrendsByTypeOrProgram",
		"api/Services/Report/EmployeeAuditsAvg",
		"api/Services/Report/EmployeeAuditsAvgByArea",
		"api/Services/Report/EmployeeAuditsAvgByAreaByEmployee",
		"api/Services/Report/EmployeeAuditsAvgByAreaByEmployee/datetime/datetime/int",
		"api/Services/Report/WorkOrdersByEmployee",
		"api/Services/Report/WorkOrdersByProgramOrType",
		"api/Services/Report/WorkOrdersBySite",
		"api/Services/Report/WorkOrderTrends",
		"api/Services/Report/WorkOrderTrendsByProgramOrType",
		"api/Services/ReportSetting/int/int/int",
		"api/Services/Resource",
		"api/Services/SampleTask",
		"api/Services/SampleTask/int",
		"api/Services/Scorecard",
		"api/Services/Scorecard/FailedAuditsCount",
		"api/Services/Scorecard/int",
		"api/Services/Scorecard/Template/int/bool",
		"api/Services/Scorecard/Templates/int",
		"api/Services/ScorecardDetail",
		"api/Services/ScorecardDetail/int",
		"api/Services/ScorecardDetailImage",
		"api/Services/ScorecardDetailImage/int",
		"api/Services/ScorecardDetailImage/int/rotate/int",
		"api/Services/Security/Aws/Credentials",
		"api/Services/Security/Aws/GetCredentials",
		"api/Services/Security/Aws/SignedCloudfrontUrl/folder/ext/file",
		"api/Services/Security/Aws/SignedUrl/folder/ext/file",
		"api/Services/SecurityAudit/SecurityAuditsAreaClassificationInfo",
		"api/Services/ServiceExcellence/EmployeeInfo/int/int/int",
		"api/Services/ServiceExcellence/int/int",
		"api/Services/ServiceExcellence/int/int/int",
		"api/Services/ServiceExcellence/ScorecardStatus/int/int",
		"api/Services/ServiceExcellenceForEmployee/int/int",
		"api/Services/Site",
		"api/Services/Site/Client/int",
		"api/Services/Site/int",
		"api/Services/Site/Programs/int",
		"api/Services/Site/SiteLookup/int",
		"api/Services/Site/UserSites/int",
		"api/Services/SiteBonus",
		"api/Services/SiteBonus/int/int",
		"api/Services/SiteReportSetting",
		"api/Services/SiteReportSetting/AllByClient/int",
		"api/Services/SiteReportSetting/int",
		"api/Services/SourceOfInjuryCategory",
		"api/Services/SourceOfInjuryCategory/int",
		"api/Services/SpecificCauseOfInjury",
		"api/Services/SpecificCauseOfInjury/ByCauseOfInjuryCategoryId/int?",
		"api/Services/SpecificCauseOfInjury/int",
		"api/Services/SpecificSourceOfInjury",
		"api/Services/SpecificSourceOfInjury/BySourceOfInjuryCategoryId/int?",
		"api/Services/SpecificSourceOfInjury/int",
		"api/Services/Surveys",
		"api/Services/Surveys/guid",
		"api/Services/Surveys/Invitations/int",
		"api/Services/Surveys/MostRecentDashboardWidget",
		"api/Services/Surveys/PendingCount",
		"api/Services/Surveys/Programs",
		"api/Services/Surveys/SurveyAveragesBySiteByMonth",
		"api/Services/Surveys/SurveyTrends",
		"api/Services/Surveys/SurveyTrendsByProgram",
		"api/Services/Surveys/SurveyTrendsBySite",
		"api/Services/Surveys/Template",
		"api/Services/Tag",
		"api/Services/Tag/int",
		"api/Services/TimeClock/Employee",
		"api/Services/TimeClock/Global",
		"api/Services/TimeClock/LastUpdatedDate",
		"api/Services/TimeClock/Supervisor",
		"api/Services/TodoItem",
		"api/Services/TodoItem/AllCounts",
		"api/Services/TodoItem/ByEmployee",
		"api/Services/TodoItem/ByEmployee/int",
		"api/Services/TodoItem/EmployeeCounts",
		"api/Services/TodoItem/EmployeeInfo",
		"api/Services/TodoItem/GetByEmployee",
		"api/Services/TodoItem/GetEmployeeCounts/datetime/datetime/int/bool",
		"api/Services/TodoItem/int",
		"api/Services/TodoItem/MonthlyTrend",
		"api/Services/TodoItem/ReAuditsInfo",
		"api/Services/TodoItem/ReRunAuditToDo/int",
		"api/Services/TodoItem/SiteCounts",
		"api/Services/TodoItem/ToDos",
		"api/Services/TrainingEmployee",
		"api/Services/TrainingEmployee/EmployeeAreas/int",
		"api/Services/TrainingEmployee/EmployeeAttachment/int/int",
		"api/Services/TrainingEmployee/EmployeeJob/int?",
		"api/Services/TrainingEmployee/GetEmployeeAreas/int",
		"api/Services/TrainingEmployee/GetWithJob/int",
		"api/Services/TrainingEmployee/int",
		"api/Services/TrainingEmployee/WithCourse",
		"api/Services/TrainingEmployee/WithJob/int",
		"api/Services/TrainingMessage",
		"api/Services/TrainingMessage/AllCounts",
		"api/Services/TrainingMessage/DepartmentCounts/int",
		"api/Services/TrainingMessage/int",
		"api/Services/TrainingReport/CoursesViewCount/bool",
		"api/Services/TrainingReport/HrAdmin/Positions/bool/int?",
		"api/Services/TrainingReport/Ownership/ByEmployee",
		"api/Services/TrainingReport/Ownership/ByReportType",
		"api/Services/TrainingReport/Ownership/Count",
		"api/Services/TrainingReport/Ownership/MonthlyTrends",
		"api/Services/TrainingReport/Ownership/MonthlyTrends/datetime/datetime",
		"api/Services/TrainingReport/Ownership/TrendsByReportType",
		"api/Services/TrainingReport/Ownership/TrendsBySite",
		"api/Services/Turnover/BusinessConductStandards",
		"api/Services/Turnover/LastUpdatedDate",
		"api/Services/Turnover/TopTurnoverTypes",
		"api/Services/Turnover/TurnoverAveragesBySiteByMonth",
		"api/Services/Turnover/TurnoverByCategory",
		"api/Services/Turnover/TurnoverMonthlyTrend",
		"api/Services/Turnover/TurnoversBySite",
		"api/Services/User/ActiveContext",
		"api/Services/User/Bootstrap",
		"api/Services/User/Clients",
		"api/Services/User/Languages",
		"api/Services/User/Programs/int/bool",
		"api/Services/User/Sites/int/bool",
		"api/Services/UserDashboardWidget",
		"api/Services/UserDashboardWidget/ByUser/int",
		"api/Services/UserDashboardWidget/int",
		"api/Services/UserDevices",
		"api/Services/UserDevices/int",
		"api/Services/UserHobby",
		"api/Services/UserHobby/ByUserId/int",
		"api/Services/UserHobby/GetByUserId/int",
		"api/Services/UserHobby/int",
		"api/Services/UserInfo",
		"api/Services/UserInfo/int",
		"api/Services/UserNotificationSubscription",
		"api/Services/UserSticker",
		"api/Services/UserSticker/ByUserId/int",
		"api/Services/UserSticker/GetByUserId/int",
		"api/Services/UserSticker/int",
		"api/Services/UserTravel",
		"api/Services/UserTravel/ByUserId/int",
		"api/Services/UserTravel/GetByUserId/int",
		"api/Services/UserTravel/int",
		"api/Services/VacationRequest",
		"api/Services/VacationRequest/int",
		"api/Services/WorkOrderPriority",
		"api/Services/WorkOrders",
		"api/Services/WorkOrders/int",
		"api/Services/WorkOrders/SubmittedCount",
		"api/Services/WorkOrderSeries",
		"api/Services/WorkOrderSeries/int",
		"api/Services/WorkOrderSeries/UpcomingWorkOrders/int/int",
	] ,
	 "POST" : [ 
		"api/mobile/AssociateMessages/int/Seen",
		"api/mobile/AssociateNotifications/int/Seen",
		"api/mobile/AssociateNotifications/Seen",
		"api/mobile/AssociateTasks/int/Completion",
		"api/mobile/AssociateTasks/int/Seen",
		"api/Services/ApplicationRole",
		"api/Services/ApplicationUser",
		"api/Services/ApplicationUser/ForgotPassword",
		"api/Services/ApplicationUser/Logout",
		"api/Services/ApplicationUser/ResetPassword",
		"api/Services/Area",
		"api/Services/AreaClassification",
		"api/Services/AreaClassificationInspectionItem",
		"api/Services/AreaOfBodyAffected",
		"api/Services/Attachment",
		"api/Services/Attribute",
		"api/Services/AttributeAttachment",
		"api/Services/AuditProfile",
		"api/Services/AuditProfileSection",
		"api/Services/AuditSetting",
		"api/Services/BodyPartAffected",
		"api/Services/Building",
		"api/Services/CauseOfInjuryCategory",
		"api/Services/ClaimsInvestigation",
		"api/Services/Client",
		"api/Services/ClientReportSetting",
		"api/Services/Complaints",
		"api/Services/Compliments",
		"api/Services/Conduct",
		"api/Services/Contract",
		"api/Services/Course",
		"api/Services/CourseRating",
		"api/Services/CourseType",
		"api/Services/Culture",
		"api/Services/CustomerRepresentative",
		"api/Services/Department",
		"api/Services/Duty",
		"api/Services/Employee",
		"api/Services/Employee/Employees",
		"api/Services/EmployeeAudit",
		"api/Services/EmployeeCourse",
		"api/Services/EmployeeCourse/Course/Snapshot",
		"api/Services/EmployeeCourse/Snapshot",
		"api/Services/Equipment",
		"api/Services/Floor",
		"api/Services/InjuryInvestigation",
		"api/Services/InjuryReport",
		"api/Services/InjuryReport/CreateUniqueIncidentId",
		"api/Services/Invoice",
		"api/Services/Issue",
		"api/Services/Job",
		"api/Services/Job/UpdateLocalizable",
		"api/Services/Job/UpdateMultipleJobsCourses",
		"api/Services/JobCourse",
		"api/Services/JobPurpose",
		"api/Services/JobPurpose/UpdateLocalizable",
		"api/Services/JobTask",
		"api/Services/KpiSetting",
		"api/Services/Language",
		"api/Services/LegalDescription",
		"api/Services/Notification",
		"api/Services/Org",
		"api/Services/Ownership",
		"api/Services/OwnershipCustomerRepresentative",
		"api/Services/Personnel/Safety",
		"api/Services/POItem",
		"api/Services/Program",
		"api/Services/ProgramReportSetting",
		"api/Services/Programs/ProgramLookup",
		"api/Services/QuickComment",
		"api/Services/SampleTask",
		"api/Services/Scorecard",
		"api/Services/ScorecardDetail",
		"api/Services/ScorecardDetailImage",
		"api/Services/SendMail",
		"api/Services/ServiceExcellence/ScorecardStatus",
		"api/Services/Site",
		"api/Services/Site/SiteLookup",
		"api/Services/SiteBonus",
		"api/Services/SiteReportSetting",
		"api/Services/SourceOfInjuryCategory",
		"api/Services/SpecificCauseOfInjury",
		"api/Services/SpecificSourceOfInjury",
		"api/Services/Surveys",
		"api/Services/Surveys/Invitations",
		"api/Services/Surveys/Responses",
		"api/Services/Tag",
		"api/Services/TodoItem",
		"api/Services/TodoItem/MarkTodoItemAsRead/int",
		"api/Services/TrainingEmployee",
		"api/Services/TrainingEmployee/UpdateEmployeeCourses",
		"api/Services/TrainingMessage",
		"api/Services/User/ActiveContext",
		"api/Services/User/SetContext",
		"api/Services/UserDashboardWidget",
		"api/Services/UserDevices",
		"api/Services/UserDevices/SendMessage",
		"api/Services/UserHobby",
		"api/Services/UserInfo",
		"api/Services/UserSticker",
		"api/Services/UserTravel",
		"api/Services/VacationRequest",
		"api/Services/WorkOrders",
		"api/Services/WorkOrderSeries",
	] ,
	 "PUT" : [ 
		"api/mobile/AssociateMessages/int/Seen",
		"api/mobile/AssociateNotifications/int/Seen",
		"api/mobile/AssociateNotifications/Seen",
		"api/mobile/AssociateTasks/int/Completion",
		"api/mobile/AssociateTasks/int/Seen",
		"api/Services/ApplicationRole/int",
		"api/Services/ApplicationUser/int",
		"api/Services/ApplicationUser/UpdatePassword/int",
		"api/Services/Area/int",
		"api/Services/AreaClassification/int",
		"api/Services/AreaClassificationInspectionItem/int",
		"api/Services/AreaOfBodyAffected",
		"api/Services/Attachment/int",
		"api/Services/Attribute/int",
		"api/Services/AttributeAttachment/int",
		"api/Services/AuditProfile/int",
		"api/Services/AuditProfileSection/int",
		"api/Services/AuditSetting/int",
		"api/Services/BodyPartAffected",
		"api/Services/Building/int",
		"api/Services/Building/Programs/int",
		"api/Services/CauseOfInjuryCategory",
		"api/Services/ClaimsInvestigation/int",
		"api/Services/Client/int",
		"api/Services/ClientReportSetting/int",
		"api/Services/ClientReportSetting/UpdateCreateAllSitesClientReportSetting/int",
		"api/Services/Complaints/ExemptComplaint",
		"api/Services/Complaints/int",
		"api/Services/Compliments/int",
		"api/Services/Conduct/int",
		"api/Services/Contract/int",
		"api/Services/Course/int",
		"api/Services/CourseRating/int",
		"api/Services/CourseType/int",
		"api/Services/Culture/int",
		"api/Services/CustomerRepresentative/int",
		"api/Services/Department/int",
		"api/Services/Duty/int",
		"api/Services/Employee/int",
		"api/Services/EmployeeAudit/int",
		"api/Services/EmployeeBonus/int",
		"api/Services/EmployeeBonuses",
		"api/Services/EmployeeCourse/int",
		"api/Services/Equipment/int",
		"api/Services/Floor/Areas/int",
		"api/Services/Floor/int",
		"api/Services/InjuryInvestigation/int",
		"api/Services/InjuryReport/int",
		"api/Services/Invoice/int",
		"api/Services/Issue/int",
		"api/Services/Job/int",
		"api/Services/Job/UpdateLocalizable",
		"api/Services/Job/UpdateMultipleJobsCourses",
		"api/Services/JobCourse/int",
		"api/Services/JobPurpose/int",
		"api/Services/JobPurpose/UpdateLocalizable",
		"api/Services/JobTask/int",
		"api/Services/KpiComment/int",
		"api/Services/KpiSetting/int",
		"api/Services/KpiUpdateCheck/int/int/int",
		"api/Services/Language/int",
		"api/Services/LegalDescription/int",
		"api/Services/Notification/int",
		"api/Services/Org/int",
		"api/Services/Ownership/int",
		"api/Services/Personnel/Safety/int",
		"api/Services/POItem/int",
		"api/Services/Program/int",
		"api/Services/ProgramReportSetting/int",
		"api/Services/QuickComment/int",
		"api/Services/SampleTask/int",
		"api/Services/Scorecard/int",
		"api/Services/Scorecard/UpdateProgress/int",
		"api/Services/ScorecardDetail",
		"api/Services/ScorecardDetail/int",
		"api/Services/ScorecardDetailImage/int",
		"api/Services/ServiceExcellence/ExemptEmployee/int",
		"api/Services/ServiceExcellence/ExemptKpi/bool/int",
		"api/Services/ServiceExcellence/int",
		"api/Services/Site/int",
		"api/Services/Site/Programs/int",
		"api/Services/SiteBonus/int",
		"api/Services/SiteReportSetting/int",
		"api/Services/SourceOfInjuryCategory",
		"api/Services/SpecificCauseOfInjury",
		"api/Services/SpecificSourceOfInjury",
		"api/Services/Surveys/Invitations/int",
		"api/Services/Surveys/TemplateQuestions/int",
		"api/Services/Tag/int",
		"api/Services/TodoItem/int",
		"api/Services/TodoItem/PutByEmployee/int",
		"api/Services/TrainingEmployee/int",
		"api/Services/TrainingEmployee/UpdateEmployeeCourses",
		"api/Services/TrainingMessage/int",
		"api/Services/UserDashboardWidget/int",
		"api/Services/UserDevices/int",
		"api/Services/UserHobby/int",
		"api/Services/UserHobby/UpdateAll",
		"api/Services/UserInfo/int",
		"api/Services/UserInfo/Put",
		"api/Services/UserNotificationSubscription",
		"api/Services/UserSticker/int",
		"api/Services/UserTravel/int",
		"api/Services/VacationRequest/int",
		"api/Services/WorkOrders/int",
		"api/Services/WorkOrderSeries/int",
	] ,
	 "DELETE" : [ 
		"api/Services/ApplicationRole/int",
		"api/Services/Area/int",
		"api/Services/AreaOfBodyAffected/int",
		"api/Services/Attachment/int",
		"api/Services/Attribute/int",
		"api/Services/AttributeAttachment/int",
		"api/Services/AuditProfile/int",
		"api/Services/AuditProfileSection/int",
		"api/Services/AuditSetting/int",
		"api/Services/BodyPartAffected/int",
		"api/Services/Building/int",
		"api/Services/CauseOfInjuryCategory/int",
		"api/Services/ClaimsInvestigation/int",
		"api/Services/Client/int",
		"api/Services/ClientReportSetting/int",
		"api/Services/Complaints/int",
		"api/Services/Compliments/int",
		"api/Services/Conduct/int",
		"api/Services/Contract/int",
		"api/Services/Course/int",
		"api/Services/CourseType/int",
		"api/Services/Culture/int",
		"api/Services/CustomerRepresentative/int",
		"api/Services/Department/int",
		"api/Services/Duty/int",
		"api/Services/Employee/int",
		"api/Services/EmployeeAudit/int",
		"api/Services/EmployeeCourse/int",
		"api/Services/Equipment/int",
		"api/Services/Floor/int",
		"api/Services/InjuryInvestigation/int",
		"api/Services/InjuryReport/int",
		"api/Services/Invoice/int",
		"api/Services/Issue/int",
		"api/Services/Job/int",
		"api/Services/JobCourse/int",
		"api/Services/JobPurpose/int",
		"api/Services/JobTask/int",
		"api/Services/KpiSetting/int",
		"api/Services/Language/int",
		"api/Services/LegalDescription/int",
		"api/Services/Notification/int",
		"api/Services/Org/int",
		"api/Services/Personnel/Safety/int",
		"api/Services/POItem/int",
		"api/Services/Program/int",
		"api/Services/ProgramReportSetting/int",
		"api/Services/QuickComment/int",
		"api/Services/SampleTask/int",
		"api/Services/Scorecard/int",
		"api/Services/ScorecardDetail/int",
		"api/Services/ScorecardDetailImage/int",
		"api/Services/ServiceExcellence/DeleteComplaint/int",
		"api/Services/Site/int",
		"api/Services/SiteReportSetting/int",
		"api/Services/SourceOfInjuryCategory/int",
		"api/Services/SpecificCauseOfInjury/int",
		"api/Services/SpecificSourceOfInjury/int",
		"api/Services/Surveys/Invitations/int",
		"api/Services/Tag/int",
		"api/Services/TodoItem/int",
		"api/Services/TrainingEmployee/int",
		"api/Services/TrainingMessage/int",
		"api/Services/UserDashboardWidget/int",
		"api/Services/UserDevices/int",
		"api/Services/UserHobby/int",
		"api/Services/UserInfo/Attachments",
		"api/Services/UserInfo/int",
		"api/Services/UserNotificationSubscription",
		"api/Services/UserSticker/int",
		"api/Services/UserTravel/int",
		"api/Services/VacationRequest/int",
		"api/Services/WorkOrders/int",
		"api/Services/WorkOrderSeries/int",
	] 
}
