{
"Controller": "FinanceReportController",
"Action" : "HourMonthlyTrends",
"HttpMethods": {"GET"},
"Parameters": 
{
	"startDate" : "System.DateTime",
	"endDate" : "System.DateTime",
	"supervisorId" : "System.Int32?"
},
"Return Type" : "ChaiTea.BusinessLogic.Reporting.Financials.ViewModels.ReportHourMonthlyTrendsVm",
"Returned Fields" :
{
	"DoubleTimeHours" : 
	{
		"Type" : "System.Collections.Generic.List`1[[System.Decimal, mscorlib, Version=4.0.0.0, Culture=neutral, PublicKeyToken=b77a5c561934e089]]",
		"Get Visibility" : "Public",
		"Set Visibility" : "Public",
		"Nested Fields" :
		[
"Decimal"
		]
	},
	"Labels" : 
	{
		"Type" : "System.Collections.Generic.List`1[[System.String, mscorlib, Version=4.0.0.0, Culture=neutral, PublicKeyToken=b77a5c561934e089]]",
		"Get Visibility" : "Public",
		"Set Visibility" : "Public",
		"Nested Fields" :
		[
"String"
		]
	},
	"OverTimeHours" : 
	{
		"Type" : "System.Collections.Generic.List`1[[System.Decimal, mscorlib, Version=4.0.0.0, Culture=neutral, PublicKeyToken=b77a5c561934e089]]",
		"Get Visibility" : "Public",
		"Set Visibility" : "Public",
		"Nested Fields" :
		[
"Decimal"
		]
	},
	"RegularHours" : 
	{
		"Type" : "System.Collections.Generic.List`1[[System.Decimal, mscorlib, Version=4.0.0.0, Culture=neutral, PublicKeyToken=b77a5c561934e089]]",
		"Get Visibility" : "Public",
		"Set Visibility" : "Public",
		"Nested Fields" :
		[
"Decimal"
		]
	},
	"STEHours" : 
	{
		"Type" : "System.Collections.Generic.List`1[[System.Decimal, mscorlib, Version=4.0.0.0, Culture=neutral, PublicKeyToken=b77a5c561934e089]]",
		"Get Visibility" : "Public",
		"Set Visibility" : "Public",
		"Nested Fields" :
		[
"Decimal"
		]
	},
	"TotalDoubleTimeHours" : 
	{
		"Type" : "System.Decimal",
		"Get Visibility" : "Public",
		"Set Visibility" : "Public"
	},
	"TotalHours" : 
	{
		"Type" : "System.Decimal",
		"Get Visibility" : "Public",
		"Set Visibility" : "Public"
	},
	"TotalOverTimeHours" : 
	{
		"Type" : "System.Decimal",
		"Get Visibility" : "Public",
		"Set Visibility" : "Public"
	},
	"TotalRegularHours" : 
	{
		"Type" : "System.Decimal",
		"Get Visibility" : "Public",
		"Set Visibility" : "Public"
	},
	"TotalSTEHours" : 
	{
		"Type" : "System.Decimal",
		"Get Visibility" : "Public",
		"Set Visibility" : "Public"
	}
}
}
