{
	"Categories" : 
	[ { "Unknown": "Void" } ],
	"Data" : 
	[
		{
			"InternalAuditCount" : "Int32",
			"InternalAverageScore" : "Double?",
			"JointAuditCount" : "Int32",
			"JointAverageScore" : "Double?",
			"LastAuditDate" : "DateTime?",
			"Name" : "String",
			"TotalAuditCount" : "Int32",
			"TotalAverageScore" : "Double?"
		}
	]
}
